[INFO] Scanning for projects...
[INFO]                                                                         
[INFO] ------------------------------------------------------------------------
[INFO] Building stream-lib 2.9.2-SNAPSHOT
[INFO] ------------------------------------------------------------------------
[INFO] 
[INFO] --- jacoco-maven-plugin:0.7.1.201405082137:prepare-agent (default) @ stream ---
[INFO] argLine set to -javaagent:/home/lingming/.m2/repository/org/jacoco/org.jacoco.agent/0.7.1.201405082137/org.jacoco.agent-0.7.1.201405082137-runtime.jar=destfile=/home/lingming/hybrid-rts/subjects/stream-lib/aac6b4d23a8686b000f80baa447e0922ecac3bcb/target/jacoco.exec
[INFO] 
[INFO] --- maven-resources-plugin:2.6:resources (default-resources) @ stream ---
[INFO] Using 'UTF-8' encoding to copy filtered resources.
[INFO] skip non existing resourceDirectory /home/lingming/hybrid-rts/subjects/stream-lib/aac6b4d23a8686b000f80baa447e0922ecac3bcb/src/main/resources
[INFO] 
[INFO] --- maven-compiler-plugin:3.1:compile (default-compile) @ stream ---
[INFO] Nothing to compile - all classes are up to date
[INFO] 
[INFO] --- maven-resources-plugin:2.6:testResources (default-testResources) @ stream ---
[INFO] Using 'UTF-8' encoding to copy filtered resources.
[INFO] Copying 1 resource
[INFO] 
[INFO] --- maven-compiler-plugin:3.1:testCompile (default-testCompile) @ stream ---
[INFO] Nothing to compile - all classes are up to date
[INFO] 
[INFO] --- maven-surefire-plugin:2.17:test (default-test) @ stream ---
[INFO] Surefire report directory: /home/lingming/hybrid-rts/subjects/stream-lib/aac6b4d23a8686b000f80baa447e0922ecac3bcb/target/surefire-reports

-------------------------------------------------------
 T E S T S
-------------------------------------------------------
Running com.clearspring.analytics.hash.TestMurmurHash
Tests run: 2, Failures: 0, Errors: 0, Skipped: 0, Time elapsed: 0.027 sec - in com.clearspring.analytics.hash.TestMurmurHash
Running com.clearspring.analytics.hash.TestLookup3Hash
Tests run: 2, Failures: 0, Errors: 0, Skipped: 0, Time elapsed: 0.028 sec - in com.clearspring.analytics.hash.TestLookup3Hash
Running com.clearspring.analytics.stream.TestConcurrentStreamSummary
Geometric:
0
1
2
3
4
[(24847: 0, e: 0),(18566: 1, e: 0),(14082: 2, e: 0),(10589: 3, e: 0),(8064: 4, e: 0),(6044: 5, e: 23),(4470: 6, e: 3646),(4445: 7, e: 4443),(4446: 8, e: 4444),(4447: 12, e: 4444)]
[(1: X, e: 0)]
[(2: X, e: 0)]
[(2: X, e: 0),(1: Y, e: 0)]
[(2: X, e: 0),(1: Y, e: 0),(1: Z, e: 0)]
[(2: X, e: 0),(2: A, e: 1),(1: Z, e: 0)]
[(2: X, e: 0),(2: A, e: 1),(2: B, e: 1)]
[(2: A, e: 1),(2: B, e: 1),(3: C, e: 2)]
[(3: X, e: 2),(2: B, e: 1),(3: C, e: 2)]
[(4: X, e: 2),(2: B, e: 1),(3: C, e: 2)]
[(4: X, e: 2),(3: A, e: 2),(3: C, e: 2)]
[(4: X, e: 2),(4: A, e: 2),(3: C, e: 2)]
[(4: X, e: 2),(5: A, e: 2),(3: C, e: 2)]
Tests run: 4, Failures: 0, Errors: 0, Skipped: 0, Time elapsed: 0.051 sec - in com.clearspring.analytics.stream.TestConcurrentStreamSummary
Running com.clearspring.analytics.stream.quantile.TDigestTest
# big 4506 bytes
# small 4506 bytes
# 2.673288us per point
# 852 centroids
quantile	2	0.001000	0.000016	-0.000010	-0.000010	0.009705
quantile	2	0.010000	0.000266	0.000044	-0.000435	0.043495
quantile	2	0.100000	0.001111	0.000777	0.004654	0.046542
quantile	2	0.200000	0.001048	-0.000857	-0.001655	0.008276
quantile	2	0.300000	0.001002	-0.005428	0.000597	0.001990
quantile	2	0.500000	0.002338	0.003358	0.003051	0.006103
cdf	2	0.001000	-0.000030	0.000006	0.000007	0.007173
cdf	2	0.010000	-0.000190	-0.000059	-0.000113	0.011324
cdf	2	0.100000	-0.001070	-0.000102	0.000222	0.002223
cdf	2	0.200000	-0.000950	0.000023	0.000353	0.001763
cdf	2	0.300000	-0.001110	-0.000750	0.000273	0.000909
cdf	2	0.500000	-0.002440	-0.000864	-0.000272	0.000543
quantile	5	0.001000	0.000219	-0.000003	-0.000011	0.010649
quantile	5	0.010000	-0.000117	0.000098	0.000045	0.004465
quantile	5	0.100000	0.000243	0.001113	-0.002944	0.029439
quantile	5	0.200000	-0.000056	0.001307	-0.003135	0.015673
quantile	5	0.300000	0.001073	-0.004081	0.004474	0.014913
quantile	5	0.500000	0.000891	0.001368	0.007740	0.015480
cdf	5	0.001000	-0.000230	0.000003	-0.000000	0.000326
cdf	5	0.010000	0.000100	-0.000003	-0.000015	0.001527
cdf	5	0.100000	-0.000190	-0.000116	-0.000473	0.004729
cdf	5	0.200000	0.000080	0.000001	-0.000456	0.002279
cdf	5	0.300000	-0.001230	-0.000538	0.000510	0.001699
cdf	5	0.500000	-0.001030	-0.000623	0.000738	0.001476
quantile	10	0.001000	-0.000128	-0.000037	-0.000050	0.050407
quantile	10	0.010000	-0.000259	-0.000004	-0.000040	0.003989
quantile	10	0.100000	-0.000484	0.000241	-0.004207	0.042075
quantile	10	0.200000	0.000581	0.000904	0.004575	0.022875
quantile	10	0.300000	0.002187	-0.001809	-0.001842	0.006141
quantile	10	0.500000	0.001205	-0.006186	-0.000823	0.001645
cdf	10	0.001000	0.000200	0.000002	0.000002	0.002264
cdf	10	0.010000	0.000290	-0.000030	-0.000054	0.005396
cdf	10	0.100000	0.000460	-0.000012	-0.000392	0.003918
cdf	10	0.200000	-0.000430	-0.000150	0.000170	0.000852
cdf	10	0.300000	-0.001990	0.000204	0.000320	0.001068
cdf	10	0.500000	-0.001250	-0.000520	0.001075	0.002150
quantile	20	0.001000	0.000025	-0.000027	-0.000002	0.001728
quantile	20	0.010000	0.000322	-0.000206	-0.000173	0.017287
quantile	20	0.100000	0.002969	0.000448	0.002265	0.022655
quantile	20	0.200000	0.001274	0.001016	0.001852	0.009260
quantile	20	0.300000	0.001187	-0.001313	-0.008982	0.029940
quantile	20	0.500000	-0.000285	-0.007642	0.009524	0.019049
cdf	20	0.001000	-0.000010	-0.000006	-0.000009	0.009441
cdf	20	0.010000	-0.000230	-0.000004	0.000018	0.001779
cdf	20	0.100000	-0.002640	-0.000046	0.000029	0.000293
cdf	20	0.200000	-0.001180	-0.000029	0.000119	0.000597
cdf	20	0.300000	-0.001140	-0.000393	-0.000328	0.001094
cdf	20	0.500000	0.000280	-0.000307	0.000501	0.001002
quantile	50	0.001000	-0.000204	-0.000024	-0.000024	0.023554
quantile	50	0.010000	-0.000009	-0.000031	-0.000050	0.004963
quantile	50	0.100000	-0.000574	0.000184	-0.002290	0.022904
quantile	50	0.200000	-0.000751	0.003277	0.004192	0.020962
quantile	50	0.300000	-0.001017	-0.000319	-0.013869	0.046229
quantile	50	0.500000	0.001029	0.000874	-0.001055	0.002110
cdf	50	0.001000	0.000160	0.000004	0.000006	0.006369
cdf	50	0.010000	0.000010	-0.000002	0.000001	0.000121
cdf	50	0.100000	0.000500	0.000019	-0.000006	0.000060
cdf	50	0.200000	0.000670	0.000385	0.000404	0.002021
cdf	50	0.300000	0.001220	-0.000565	-0.000313	0.001045
cdf	50	0.500000	-0.001130	0.000013	-0.000580	0.001159
quantile	100	0.001000	0.000135	-0.000056	-0.000035	0.035088
quantile	100	0.010000	0.000331	-0.000006	0.000042	0.004232
quantile	100	0.100000	0.000658	0.000751	0.001020	0.010201
quantile	100	0.200000	0.001183	0.000756	0.000565	0.002827
quantile	100	0.300000	0.000474	-0.000654	-0.000943	0.003144
quantile	100	0.500000	0.000067	-0.001080	0.008411	0.016823
cdf	100	0.001000	-0.000120	0.000007	-0.000003	0.003304
cdf	100	0.010000	-0.000390	-0.000030	-0.000038	0.003778
cdf	100	0.100000	-0.000540	-0.000041	0.000067	0.000668
cdf	100	0.200000	-0.001170	0.000323	-0.000462	0.002312
cdf	100	0.300000	-0.000430	-0.000095	0.000176	0.000586
cdf	100	0.500000	-0.000110	-0.000300	0.002432	0.004864
# 1.887357us per point
# 847 centroids
# 1.830271us per point
# 835 centroids
# 2.146251us per point
# 863 centroids
gamma	2	0.00100000	0.0008800000000	0.9978500000	188	108
gamma	2	0.01000000	-0.01000000000	0.9888500000	188	108
gamma	2	0.10000000	0.07174000000	0.8988500000	188	108
gamma	2	0.20000000	0.1724300000	0.7999900000	188	108
gamma	2	0.30000000	0.1041400000	0.6999900000	188	108
gamma	2	0.50000000	0.03798000000	0.4999900000	188	108
gamma	2	0.70000000	-0.0005100000000	0.3000000000	188	108
gamma	2	0.80000000	-0.8000000000	0.2000000000	188	108
gamma	2	0.90000000	0.06937000000	0.1000000000	188	108
gamma	2	0.99000000	0.008020000000	0.01000000000	188	108
gamma	2	0.99900000	-0.0009000000000	0.001000000000	188	108
gamma	5	0.00100000	0.0001700000000	0.8297000000	388	268
gamma	5	0.01000000	0.0006500000000	0.8207000000	388	268
gamma	5	0.10000000	-0.1000000000	0.7307000000	388	268
gamma	5	0.20000000	0.01033000000	0.6832200000	388	268
gamma	5	0.30000000	-0.3000000000	0.5832200000	388	268
gamma	5	0.50000000	0.02103000000	0.4676200000	388	268
gamma	5	0.70000000	0.01584000000	0.2988100000	388	268
gamma	5	0.80000000	0.01627000000	0.1988100000	388	268
gamma	5	0.90000000	0.02333000000	0.1000000000	388	268
gamma	5	0.99000000	0.001340000000	0.01000000000	388	268
gamma	5	0.99900000	9.000000000e-05	0.001000000000	388	268
gamma	10	0.00100000	7.000000000e-05	0.4793400000	664	492
gamma	10	0.01000000	-0.01000000000	0.4703400000	664	492
gamma	10	0.10000000	0.0003100000000	0.4151300000	664	492
gamma	10	0.20000000	0.005280000000	0.3521400000	664	492
gamma	10	0.30000000	-0.3000000000	0.3343500000	664	492
gamma	10	0.50000000	-0.5000000000	0.2752200000	664	492
gamma	10	0.70000000	0.009810000000	0.2274100000	664	492
gamma	10	0.80000000	0.001900000000	0.1663400000	664	492
gamma	10	0.90000000	-0.005280000000	0.09881000000	664	492
gamma	10	0.99000000	-0.002390000000	0.01000000000	664	492
gamma	10	0.99900000	-4.000000000e-05	0.001000000000	664	492
gamma	20	0.00100000	-0.001000000000	0.2064700000	1164	812
gamma	20	0.01000000	-0.003830000000	0.1974700000	1164	812
gamma	20	0.10000000	0.001700000000	0.1383700000	1164	812
gamma	20	0.20000000	2.000000000e-05	0.09286000000	1164	812
gamma	20	0.30000000	-0.003600000000	0.06034000000	1164	812
gamma	20	0.50000000	-0.002320000000	0.05039000000	1164	812
gamma	20	0.70000000	0.009350000000	0.02505000000	1164	812
gamma	20	0.80000000	-0.004190000000	0.005890000000	1164	812
gamma	20	0.90000000	0.004210000000	0.06667000000	1164	812
gamma	20	0.99000000	0.0005600000000	0.009990000000	1164	812
gamma	20	0.99900000	0.000000000	0.001000000000	1164	812
gamma	50	0.00100000	-1.000000000e-05	-0.001000000000	2463	2332
gamma	50	0.01000000	0.0001700000000	-0.01000000000	2463	2332
gamma	50	0.10000000	0.0006200000000	0.03656000000	2463	2332
gamma	50	0.20000000	-0.02591000000	0.007310000000	2463	2332
gamma	50	0.30000000	0.002660000000	0.007160000000	2463	2332
gamma	50	0.50000000	-0.02686000000	0.01387000000	2463	2332
gamma	50	0.70000000	0.0009500000000	0.005920000000	2463	2332
gamma	50	0.80000000	0.0004200000000	0.006990000000	2463	2332
gamma	50	0.90000000	-0.0007400000000	0.008450000000	2463	2332
gamma	50	0.99000000	0.0003400000000	0.009980000000	2463	2332
gamma	50	0.99900000	-5.000000000e-05	0.001000000000	2463	2332
gamma	100	0.00100000	0.000000000	-0.001000000000	4533	4268
gamma	100	0.01000000	0.0002200000000	-0.01000000000	4533	4268
gamma	100	0.10000000	-0.0009200000000	0.006220000000	4533	4268
gamma	100	0.20000000	-0.003420000000	0.008160000000	4533	4268
gamma	100	0.30000000	0.0001900000000	0.005820000000	4533	4268
gamma	100	0.50000000	-0.002890000000	0.01392000000	4533	4268
gamma	100	0.70000000	0.001640000000	0.01071000000	4533	4268
gamma	100	0.80000000	0.001210000000	0.005350000000	4533	4268
gamma	100	0.90000000	0.0005600000000	0.007760000000	4533	4268
gamma	100	0.99000000	-1.000000000e-05	0.008670000000	4533	4268
gamma	100	0.99900000	-3.000000000e-05	0.001000000000	4533	4268
gamma	200	0.00100000	-1.500000000e-05	-0.001000000000	8014	8972
gamma	200	0.01000000	-7.000000000e-05	-0.01000000000	8014	8972
gamma	200	0.10000000	-0.0002100000000	0.003170000000	8014	8972
gamma	200	0.20000000	0.000000000	0.001210000000	8014	8972
gamma	200	0.30000000	0.002030000000	0.001060000000	8014	8972
gamma	200	0.50000000	-0.0006200000000	0.002060000000	8014	8972
gamma	200	0.70000000	0.000000000	0.001010000000	8014	8972
gamma	200	0.80000000	-0.0002800000000	0.004860000000	8014	8972
gamma	200	0.90000000	-9.000000000e-05	0.002970000000	8014	8972
gamma	200	0.99000000	-5.000000000e-05	0.006780000000	8014	8972
gamma	200	0.99900000	-1.500000000e-05	0.001000000000	8014	8972
gamma	500	0.00100000	-1.500000000e-05	-0.001000000000	17230	21132
gamma	500	0.01000000	-3.000000000e-05	-0.01000000000	17230	21132
gamma	500	0.10000000	-0.0003100000000	0.001570000000	17230	21132
gamma	500	0.20000000	-7.000000000e-05	0.004610000000	17230	21132
gamma	500	0.30000000	-0.0004200000000	0.002590000000	17230	21132
gamma	500	0.50000000	-0.0002000000000	0.003200000000	17230	21132
gamma	500	0.70000000	0.001160000000	0.003070000000	17230	21132
gamma	500	0.80000000	0.0003100000000	0.002070000000	17230	21132
gamma	500	0.90000000	-0.0001400000000	0.004470000000	17230	21132
gamma	500	0.99000000	-4.000000000e-05	0.002720000000	17230	21132
gamma	500	0.99900000	-1.500000000e-05	0.0009600000000	17230	21132
gamma	1000	0.00100000	-1.500000000e-05	-0.001000000000	30626	46956
gamma	1000	0.01000000	-4.000000000e-05	-0.01000000000	30626	46956
gamma	1000	0.10000000	4.000000000e-05	0.0005500000000	30626	46956
gamma	1000	0.20000000	-0.0001800000000	0.001490000000	30626	46956
gamma	1000	0.30000000	6.000000000e-05	0.0006500000000	30626	46956
gamma	1000	0.50000000	-0.0003300000000	0.001440000000	30626	46956
gamma	1000	0.70000000	-0.0001400000000	0.001480000000	30626	46956
gamma	1000	0.80000000	-2.000000000e-05	0.001270000000	30626	46956
gamma	1000	0.90000000	1.000000000e-05	0.0009300000000	30626	46956
gamma	1000	0.99000000	-5.000000000e-05	0.0003500000000	30626	46956
gamma	1000	0.99900000	-1.500000000e-05	0.001000000000	30626	46956
gamma	2000	0.00100000	-1.500000000e-05	-0.001000000000	54881	88012
gamma	2000	0.01000000	-1.500000000e-05	-0.01000000000	54881	88012
gamma	2000	0.10000000	3.000000000e-05	0.0004400000000	54881	88012
gamma	2000	0.20000000	-0.0001000000000	0.0007700000000	54881	88012
gamma	2000	0.30000000	0.0002500000000	0.0008000000000	54881	88012
gamma	2000	0.50000000	5.000000000e-05	0.001020000000	54881	88012
gamma	2000	0.70000000	-0.0001700000000	0.001030000000	54881	88012
gamma	2000	0.80000000	-3.000000000e-05	0.0009800000000	54881	88012
gamma	2000	0.90000000	-6.000000000e-05	0.0008500000000	54881	88012
gamma	2000	0.99000000	-1.500000000e-05	0.0005300000000	54881	88012
gamma	2000	0.99900000	-1.500000000e-05	0.0004800000000	54881	88012
uniform	2	0.00100000	-0.0003800000000	0.2494600000	179	124
uniform	2	0.01000000	-0.009380000000	0.2404600000	179	124
uniform	2	0.10000000	0.02127000000	0.4002600000	179	124
uniform	2	0.20000000	-0.02844000000	0.3002600000	179	124
uniform	2	0.30000000	-0.04303000000	0.2002600000	179	124
uniform	2	0.50000000	-0.1464900000	0.0002600000000	179	124
uniform	2	0.70000000	-0.04894000000	0.3000000000	179	124
uniform	2	0.80000000	-0.03059000000	0.2000000000	179	124
uniform	2	0.90000000	-0.01745000000	0.1000000000	179	124
uniform	2	0.99000000	0.0004700000000	0.01000000000	179	124
uniform	2	0.99900000	0.0002400000000	0.001000000000	179	124
uniform	5	0.00100000	-0.0002300000000	0.1240900000	385	236
uniform	5	0.01000000	-0.003830000000	0.1150900000	385	236
uniform	5	0.10000000	-0.001980000000	0.02509000000	385	236
uniform	5	0.20000000	-0.03871000000	0.05050000000	385	236
uniform	5	0.30000000	0.04497000000	0.07565000000	385	236
uniform	5	0.50000000	0.1473700000	0.0009300000000	385	236
uniform	5	0.70000000	0.0002100000000	0.1755000000	385	236
uniform	5	0.80000000	-0.007560000000	0.07550000000	385	236
uniform	5	0.90000000	0.06830000000	0.1000000000	385	236
uniform	5	0.99000000	0.002160000000	0.01000000000	385	236
uniform	5	0.99900000	-7.000000000e-05	0.001000000000	385	236
uniform	10	0.00100000	-0.0001300000000	0.06288000000	622	476
uniform	10	0.01000000	0.0007100000000	0.05388000000	622	476
uniform	10	0.10000000	0.003620000000	0.02666000000	622	476
uniform	10	0.20000000	-0.007800000000	0.05005000000	622	476
uniform	10	0.30000000	0.01425000000	0.01329000000	622	476
uniform	10	0.50000000	-0.02350000000	0.0007800000000	622	476
uniform	10	0.70000000	0.04107000000	0.05098000000	622	476
uniform	10	0.80000000	-0.04723000000	0.01500000000	622	476
uniform	10	0.90000000	-0.01329000000	0.03921000000	622	476
uniform	10	0.99000000	-0.001410000000	0.01000000000	622	476
uniform	10	0.99900000	6.000000000e-05	0.001000000000	622	476
uniform	20	0.00100000	-0.0001100000000	0.06097000000	1114	844
uniform	20	0.01000000	-0.0002300000000	0.05197000000	1114	844
uniform	20	0.10000000	-0.004450000000	0.02562000000	1114	844
uniform	20	0.20000000	-0.003820000000	0.05008000000	1114	844
uniform	20	0.30000000	0.006590000000	0.07421000000	1114	844
uniform	20	0.50000000	-0.03528000000	0.03168000000	1114	844
uniform	20	0.70000000	-0.008910000000	0.05160000000	1114	844
uniform	20	0.80000000	-0.009070000000	0.07568000000	1114	844
uniform	20	0.90000000	-0.004470000000	0.1000000000	1114	844
uniform	20	0.99000000	-0.0002300000000	0.01000000000	1114	844
uniform	20	0.99900000	0.0001200000000	0.001000000000	1114	844
uniform	50	0.00100000	-8.000000000e-05	0.01441000000	2460	2380
uniform	50	0.01000000	1.000000000e-05	0.005410000000	2460	2380
uniform	50	0.10000000	0.0007000000000	0.009500000000	2460	2380
uniform	50	0.20000000	0.003660000000	0.004310000000	2460	2380
uniform	50	0.30000000	-0.01139000000	0.01324000000	2460	2380
uniform	50	0.50000000	0.005480000000	0.01406000000	2460	2380
uniform	50	0.70000000	0.009270000000	0.01858000000	2460	2380
uniform	50	0.80000000	-0.003900000000	0.01305000000	2460	2380
uniform	50	0.90000000	0.0008600000000	0.006450000000	2460	2380
uniform	50	0.99000000	7.000000000e-05	0.01000000000	2460	2380
uniform	50	0.99900000	-3.000000000e-05	0.001000000000	2460	2380
uniform	100	0.00100000	-4.000000000e-05	0.006550000000	4398	4620
uniform	100	0.01000000	-9.000000000e-05	0.005800000000	4398	4620
uniform	100	0.10000000	-0.0007000000000	0.001750000000	4398	4620
uniform	100	0.20000000	0.0004000000000	0.002210000000	4398	4620
uniform	100	0.30000000	-0.002120000000	0.002940000000	4398	4620
uniform	100	0.50000000	-0.001510000000	0.006930000000	4398	4620
uniform	100	0.70000000	-0.002000000000	0.002910000000	4398	4620
uniform	100	0.80000000	-0.001500000000	0.004430000000	4398	4620
uniform	100	0.90000000	-0.003180000000	0.006540000000	4398	4620
uniform	100	0.99000000	0.000000000	0.01000000000	4398	4620
uniform	100	0.99900000	-2.000000000e-05	0.001000000000	4398	4620
uniform	200	0.00100000	-1.500000000e-05	0.002880000000	8112	9388
uniform	200	0.01000000	-5.000000000e-05	0.001520000000	8112	9388
uniform	200	0.10000000	-0.001280000000	0.003960000000	8112	9388
uniform	200	0.20000000	-0.0003400000000	0.001110000000	8112	9388
uniform	200	0.30000000	-0.0002400000000	0.002290000000	8112	9388
uniform	200	0.50000000	0.0001100000000	0.003620000000	8112	9388
uniform	200	0.70000000	-0.0002100000000	0.003050000000	8112	9388
uniform	200	0.80000000	-4.000000000e-05	0.004470000000	8112	9388
uniform	200	0.90000000	-0.0005000000000	0.005230000000	8112	9388
uniform	200	0.99000000	2.000000000e-05	0.002170000000	8112	9388
uniform	200	0.99900000	-1.500000000e-05	0.001000000000	8112	9388
uniform	500	0.00100000	-1.500000000e-05	0.0009800000000	17356	23212
uniform	500	0.01000000	-3.000000000e-05	0.001630000000	17356	23212
uniform	500	0.10000000	-2.000000000e-05	0.002400000000	17356	23212
uniform	500	0.20000000	8.000000000e-05	0.002140000000	17356	23212
uniform	500	0.30000000	0.0005900000000	0.003700000000	17356	23212
uniform	500	0.50000000	0.0002800000000	0.0009100000000	17356	23212
uniform	500	0.70000000	-0.0001600000000	0.001520000000	17356	23212
uniform	500	0.80000000	8.000000000e-05	0.002240000000	17356	23212
uniform	500	0.90000000	0.0001400000000	0.001060000000	17356	23212
uniform	500	0.99000000	-7.000000000e-05	0.002440000000	17356	23212
uniform	500	0.99900000	-1.500000000e-05	0.001000000000	17356	23212
uniform	1000	0.00100000	-1.500000000e-05	9.000000000e-05	30666	46860
uniform	1000	0.01000000	-3.000000000e-05	0.001090000000	30666	46860
uniform	1000	0.10000000	-0.0001800000000	0.0005900000000	30666	46860
uniform	1000	0.20000000	0.0001400000000	0.0003500000000	30666	46860
uniform	1000	0.30000000	0.0005200000000	0.0007400000000	30666	46860
uniform	1000	0.50000000	-0.0002900000000	0.001030000000	30666	46860
uniform	1000	0.70000000	0.0001700000000	0.0008900000000	30666	46860
uniform	1000	0.80000000	0.0001300000000	0.001000000000	30666	46860
uniform	1000	0.90000000	0.0001800000000	0.001330000000	30666	46860
uniform	1000	0.99000000	0.000000000	0.002180000000	30666	46860
uniform	1000	0.99900000	-1.500000000e-05	0.001000000000	30666	46860
uniform	2000	0.00100000	-1.500000000e-05	0.0001100000000	54811	88220
uniform	2000	0.01000000	-1.500000000e-05	0.0007600000000	54811	88220
uniform	2000	0.10000000	-1.000000000e-05	0.0006200000000	54811	88220
uniform	2000	0.20000000	-0.0002600000000	0.001480000000	54811	88220
uniform	2000	0.30000000	-6.000000000e-05	0.0009300000000	54811	88220
uniform	2000	0.50000000	-0.0002100000000	0.0004300000000	54811	88220
uniform	2000	0.70000000	6.000000000e-05	0.0007600000000	54811	88220
uniform	2000	0.80000000	0.0002800000000	0.001970000000	54811	88220
uniform	2000	0.90000000	-6.000000000e-05	0.001120000000	54811	88220
uniform	2000	0.99000000	-1.500000000e-05	0.001790000000	54811	88220
uniform	2000	0.99900000	-1.500000000e-05	0.001000000000	54811	88220
# 23.828976us per point
# 4693 centroids
Tests run: 11, Failures: 0, Errors: 0, Skipped: 1, Time elapsed: 14.902 sec - in com.clearspring.analytics.stream.quantile.TDigestTest
Running com.clearspring.analytics.stream.quantile.QDigestTest
a: 0 .. 0: 3, 1 .. 1: 3
b: 0 .. 0: 4, 1 .. 1: 1, 0 .. 3: 1
ab: 0 .. 0: 4, 1 .. 1: 1, 0 .. 1: 6, 0 .. 3: 1
c: 0 .. 0: 7, 1 .. 1: 4, 0 .. 3: 1
Tests run: 3, Failures: 0, Errors: 0, Skipped: 0, Time elapsed: 0.343 sec - in com.clearspring.analytics.stream.quantile.QDigestTest
Running com.clearspring.analytics.stream.quantile.GroupTreeTest
0:0.0(1)	1:0.0(1)	2:1.0(1)	3:1.0(1)	4:2.0(1)	5:2.5(2)	6:3.0(1)	7:3.0(1)	8:4.0(1)	9:4.0(1)	10:5.0(1)	Tests run: 6, Failures: 0, Errors: 0, Skipped: 0, Time elapsed: 0.094 sec - in com.clearspring.analytics.stream.quantile.GroupTreeTest
Running com.clearspring.analytics.stream.frequency.ConservativeAddSketchTest
Confidence : 1.0   Errors : 0  Error margin : 7501
Total error : 13117189  Average error : 874
Beat base for : 99 percent of values with a total delta of 22878077
Confidence : 1.0   Errors : 0  Error margin : 101
Total error : 15152227  Average error : 16
Beat base for : 100 percent of values with a total delta of 20593638
Tests run: 3, Failures: 0, Errors: 0, Skipped: 0, Time elapsed: 3.88 sec - in com.clearspring.analytics.stream.frequency.ConservativeAddSketchTest
Running com.clearspring.analytics.stream.frequency.CountMinSketchTest
1.0
Tests run: 5, Failures: 0, Errors: 0, Skipped: 0, Time elapsed: 6.779 sec - in com.clearspring.analytics.stream.frequency.CountMinSketchTest
Running com.clearspring.analytics.stream.TestStochasticTopper
Gaussian:
-3
7
3
-5
-1
Geometric:
0
1
2
3
6
Zipfian:
1
2
3
4
8
0: 25015
1: 18909
2: 13879
3: 10452
4: 7951
5: 5979
6: 4488
7: 3420
8: 2499
9: 1870
10: 1444
11: 1061
12: 753
13: 571
14: 401
15: 336
16: 227
17: 195
18: 133
19: 113
2147483638: 0
2147483639: 0
2147483640: 0
2147483641: 0
2147483642: 0
2147483643: 0
2147483644: 0
2147483645: 0
2147483646: 0
2147483647: 0
Tests run: 4, Failures: 0, Errors: 0, Skipped: 0, Time elapsed: 0.078 sec - in com.clearspring.analytics.stream.TestStochasticTopper
Running com.clearspring.analytics.stream.cardinality.TestAdaptiveCounting
Tests run: 6, Failures: 0, Errors: 0, Skipped: 1, Time elapsed: 0.258 sec - in com.clearspring.analytics.stream.cardinality.TestAdaptiveCounting
Running com.clearspring.analytics.stream.cardinality.TestLogLog
Baseline estimate: 4984253
time: 1114
0.0224401
time: 18046
100000000
98593234
0.01406766
Tests run: 5, Failures: 0, Errors: 0, Skipped: 1, Time elapsed: 19.339 sec - in com.clearspring.analytics.stream.cardinality.TestLogLog
Running com.clearspring.analytics.stream.cardinality.TestCountThenEstimate
Tests run: 7, Failures: 0, Errors: 0, Skipped: 0, Time elapsed: 0.063 sec - in com.clearspring.analytics.stream.cardinality.TestCountThenEstimate
Running com.clearspring.analytics.stream.cardinality.TestHyperLogLog
Baseline estimate: 5010606
Expect estimate: 5010606 is between 4939062.5 and 5060937.5
time: 1227
0.070378
time: 12160
0.00509756
Tests run: 8, Failures: 0, Errors: 0, Skipped: 1, Time elapsed: 13.651 sec - in com.clearspring.analytics.stream.cardinality.TestHyperLogLog
Running com.clearspring.analytics.stream.cardinality.TestHyperLogLogPlus
Size: 13726
4-16: 0 -> 0
4-17: 0 -> 0
4-18: 0 -> 0
4-19: 0 -> 0
4-20: 0 -> 0
4-21: 0 -> 0
4-22: 0 -> 0
4-23: 0 -> 0
4-24: 0 -> 0
4-25: 0 -> 0
4-26: 0 -> 0
4-27: 0 -> 0
4-28: 0 -> 0
4-29: 0 -> 0
4-30: 0 -> 0
4-31: 0 -> 0
4-32: 0 -> 0
5-16: 0 -> 0
5-17: 0 -> 0
5-18: 0 -> 0
5-19: 0 -> 0
5-20: 0 -> 0
5-21: 0 -> 0
5-22: 0 -> 0
5-23: 0 -> 0
5-24: 0 -> 0
5-25: 0 -> 0
5-26: 0 -> 0
5-27: 0 -> 0
5-28: 0 -> 0
5-29: 0 -> 0
5-30: 0 -> 0
5-31: 0 -> 0
5-32: 0 -> 0
6-16: 0 -> 0
6-17: 0 -> 0
6-18: 0 -> 0
6-19: 0 -> 0
6-20: 0 -> 0
6-21: 0 -> 0
6-22: 0 -> 0
6-23: 0 -> 0
6-24: 0 -> 0
6-25: 0 -> 0
6-26: 0 -> 0
6-27: 0 -> 0
6-28: 0 -> 0
6-29: 0 -> 0
6-30: 0 -> 0
6-31: 0 -> 0
6-32: 0 -> 0
7-16: 0 -> 0
7-17: 0 -> 0
7-18: 0 -> 0
7-19: 0 -> 0
7-20: 0 -> 0
7-21: 0 -> 0
7-22: 0 -> 0
7-23: 0 -> 0
7-24: 0 -> 0
7-25: 0 -> 0
7-26: 0 -> 0
7-27: 0 -> 0
7-28: 0 -> 0
7-29: 0 -> 0
7-30: 0 -> 0
7-31: 0 -> 0
7-32: 0 -> 0
8-16: 0 -> 0
8-17: 0 -> 0
8-18: 0 -> 0
8-19: 0 -> 0
8-20: 0 -> 0
8-21: 0 -> 0
8-22: 0 -> 0
8-23: 0 -> 0
8-24: 0 -> 0
8-25: 0 -> 0
8-26: 0 -> 0
8-27: 0 -> 0
8-28: 0 -> 0
8-29: 0 -> 0
8-30: 0 -> 0
8-31: 0 -> 0
8-32: 0 -> 0
9-16: 0 -> 0
9-17: 0 -> 0
9-18: 0 -> 0
9-19: 0 -> 0
9-20: 0 -> 0
9-21: 0 -> 0
9-22: 0 -> 0
9-23: 0 -> 0
9-24: 0 -> 0
9-25: 0 -> 0
9-26: 0 -> 0
9-27: 0 -> 0
9-28: 0 -> 0
9-29: 0 -> 0
9-30: 0 -> 0
9-31: 0 -> 0
9-32: 0 -> 0
10-16: 0 -> 0
10-17: 0 -> 0
10-18: 0 -> 0
10-19: 0 -> 0
10-20: 0 -> 0
10-21: 0 -> 0
10-22: 0 -> 0
10-23: 0 -> 0
10-24: 0 -> 0
10-25: 0 -> 0
10-26: 0 -> 0
10-27: 0 -> 0
10-28: 0 -> 0
10-29: 0 -> 0
10-30: 0 -> 0
10-31: 0 -> 0
10-32: 0 -> 0
11-16: 0 -> 0
11-17: 0 -> 0
11-18: 0 -> 0
11-19: 0 -> 0
11-20: 0 -> 0
11-21: 0 -> 0
11-22: 0 -> 0
11-23: 0 -> 0
11-24: 0 -> 0
11-25: 0 -> 0
11-26: 0 -> 0
11-27: 0 -> 0
11-28: 0 -> 0
11-29: 0 -> 0
11-30: 0 -> 0
11-31: 0 -> 0
11-32: 0 -> 0
12-16: 0 -> 0
12-17: 0 -> 0
12-18: 0 -> 0
12-19: 0 -> 0
12-20: 0 -> 0
12-21: 0 -> 0
12-22: 0 -> 0
12-23: 0 -> 0
12-24: 0 -> 0
12-25: 0 -> 0
12-26: 0 -> 0
12-27: 0 -> 0
12-28: 0 -> 0
12-29: 0 -> 0
12-30: 0 -> 0
12-31: 0 -> 0
12-32: 0 -> 0
13-16: 0 -> 0
13-17: 0 -> 0
13-18: 0 -> 0
13-19: 0 -> 0
13-20: 0 -> 0
13-21: 0 -> 0
13-22: 0 -> 0
13-23: 0 -> 0
13-24: 0 -> 0
13-25: 0 -> 0
13-26: 0 -> 0
13-27: 0 -> 0
13-28: 0 -> 0
13-29: 0 -> 0
13-30: 0 -> 0
13-31: 0 -> 0
13-32: 0 -> 0
14-16: 0 -> 0
14-17: 0 -> 0
14-18: 0 -> 0
14-19: 0 -> 0
14-20: 0 -> 0
14-21: 0 -> 0
14-22: 0 -> 0
14-23: 0 -> 0
14-24: 0 -> 0
14-25: 0 -> 0
14-26: 0 -> 0
14-27: 0 -> 0
14-28: 0 -> 0
14-29: 0 -> 0
14-30: 0 -> 0
14-31: 0 -> 0
14-32: 0 -> 0
15-16: 0 -> 0
15-17: 0 -> 0
15-18: 0 -> 0
15-19: 0 -> 0
15-20: 0 -> 0
15-21: 0 -> 0
15-22: 0 -> 0
15-23: 0 -> 0
15-24: 0 -> 0
15-25: 0 -> 0
15-26: 0 -> 0
15-27: 0 -> 0
15-28: 0 -> 0
15-29: 0 -> 0
15-30: 0 -> 0
15-31: 0 -> 0
15-32: 0 -> 0
16-16: 0 -> 0
16-17: 0 -> 0
16-18: 0 -> 0
16-19: 0 -> 0
16-20: 0 -> 0
16-21: 0 -> 0
16-22: 0 -> 0
16-23: 0 -> 0
16-24: 0 -> 0
16-25: 0 -> 0
16-26: 0 -> 0
16-27: 0 -> 0
16-28: 0 -> 0
16-29: 0 -> 0
16-30: 0 -> 0
16-31: 0 -> 0
16-32: 0 -> 0
17-17: 0 -> 0
17-18: 0 -> 0
17-19: 0 -> 0
17-20: 0 -> 0
17-21: 0 -> 0
17-22: 0 -> 0
17-23: 0 -> 0
17-24: 0 -> 0
17-25: 0 -> 0
17-26: 0 -> 0
17-27: 0 -> 0
17-28: 0 -> 0
17-29: 0 -> 0
17-30: 0 -> 0
17-31: 0 -> 0
17-32: 0 -> 0
18-18: 0 -> 0
18-19: 0 -> 0
18-20: 0 -> 0
18-21: 0 -> 0
18-22: 0 -> 0
18-23: 0 -> 0
18-24: 0 -> 0
18-25: 0 -> 0
18-26: 0 -> 0
18-27: 0 -> 0
18-28: 0 -> 0
18-29: 0 -> 0
18-30: 0 -> 0
18-31: 0 -> 0
18-32: 0 -> 0
19-19: 0 -> 0
19-20: 0 -> 0
19-21: 0 -> 0
19-22: 0 -> 0
19-23: 0 -> 0
19-24: 0 -> 0
19-25: 0 -> 0
19-26: 0 -> 0
19-27: 0 -> 0
19-28: 0 -> 0
19-29: 0 -> 0
19-30: 0 -> 0
19-31: 0 -> 0
19-32: 0 -> 0
20-20: 0 -> 0
20-21: 0 -> 0
20-22: 0 -> 0
20-23: 0 -> 0
20-24: 0 -> 0
20-25: 0 -> 0
20-26: 0 -> 0
20-27: 0 -> 0
20-28: 0 -> 0
20-29: 0 -> 0
20-30: 0 -> 0
20-31: 0 -> 0
20-32: 0 -> 0
4-16: 1 -> 1
4-17: 1 -> 1
4-18: 1 -> 1
4-19: 1 -> 1
4-20: 1 -> 1
4-21: 1 -> 1
4-22: 1 -> 1
4-23: 1 -> 1
4-24: 1 -> 1
4-25: 1 -> 1
4-26: 1 -> 1
4-27: 1 -> 1
4-28: 1 -> 1
4-29: 1 -> 1
4-30: 1 -> 1
4-31: 1 -> 0
4-32: 1 -> 9223372036854775807
5-16: 1 -> 1
5-17: 1 -> 1
5-18: 1 -> 1
5-19: 1 -> 1
5-20: 1 -> 1
5-21: 1 -> 1
5-22: 1 -> 1
5-23: 1 -> 1
5-24: 1 -> 1
5-25: 1 -> 1
5-26: 1 -> 1
5-27: 1 -> 1
5-28: 1 -> 1
5-29: 1 -> 1
5-30: 1 -> 1
5-31: 1 -> 0
5-32: 1 -> 9223372036854775807
6-16: 1 -> 1
6-17: 1 -> 1
6-18: 1 -> 1
6-19: 1 -> 1
6-20: 1 -> 1
6-21: 1 -> 1
6-22: 1 -> 1
6-23: 1 -> 1
6-24: 1 -> 1
6-25: 1 -> 1
6-26: 1 -> 1
6-27: 1 -> 1
6-28: 1 -> 1
6-29: 1 -> 1
6-30: 1 -> 1
6-31: 1 -> 0
6-32: 1 -> 9223372036854775807
7-16: 1 -> 1
7-17: 1 -> 1
7-18: 1 -> 1
7-19: 1 -> 1
7-20: 1 -> 1
7-21: 1 -> 1
7-22: 1 -> 1
7-23: 1 -> 1
7-24: 1 -> 1
7-25: 1 -> 1
7-26: 1 -> 1
7-27: 1 -> 1
7-28: 1 -> 1
7-29: 1 -> 1
7-30: 1 -> 1
7-31: 1 -> 0
7-32: 1 -> 9223372036854775807
8-16: 1 -> 1
8-17: 1 -> 1
8-18: 1 -> 1
8-19: 1 -> 1
8-20: 1 -> 1
8-21: 1 -> 1
8-22: 1 -> 1
8-23: 1 -> 1
8-24: 1 -> 1
8-25: 1 -> 1
8-26: 1 -> 1
8-27: 1 -> 1
8-28: 1 -> 1
8-29: 1 -> 1
8-30: 1 -> 1
8-31: 1 -> 0
8-32: 1 -> 9223372036854775807
9-16: 1 -> 1
9-17: 1 -> 1
9-18: 1 -> 1
9-19: 1 -> 1
9-20: 1 -> 1
9-21: 1 -> 1
9-22: 1 -> 1
9-23: 1 -> 1
9-24: 1 -> 1
9-25: 1 -> 1
9-26: 1 -> 1
9-27: 1 -> 1
9-28: 1 -> 1
9-29: 1 -> 1
9-30: 1 -> 1
9-31: 1 -> 0
9-32: 1 -> 9223372036854775807
10-16: 1 -> 1
10-17: 1 -> 1
10-18: 1 -> 1
10-19: 1 -> 1
10-20: 1 -> 1
10-21: 1 -> 1
10-22: 1 -> 1
10-23: 1 -> 1
10-24: 1 -> 1
10-25: 1 -> 1
10-26: 1 -> 1
10-27: 1 -> 1
10-28: 1 -> 1
10-29: 1 -> 1
10-30: 1 -> 1
10-31: 1 -> 0
10-32: 1 -> 9223372036854775807
11-16: 1 -> 1
11-17: 1 -> 1
11-18: 1 -> 1
11-19: 1 -> 1
11-20: 1 -> 1
11-21: 1 -> 1
11-22: 1 -> 1
11-23: 1 -> 1
11-24: 1 -> 1
11-25: 1 -> 1
11-26: 1 -> 1
11-27: 1 -> 1
11-28: 1 -> 1
11-29: 1 -> 1
11-30: 1 -> 1
11-31: 1 -> 0
11-32: 1 -> 9223372036854775807
12-16: 1 -> 1
12-17: 1 -> 1
12-18: 1 -> 1
12-19: 1 -> 1
12-20: 1 -> 1
12-21: 1 -> 1
12-22: 1 -> 1
12-23: 1 -> 1
12-24: 1 -> 1
12-25: 1 -> 1
12-26: 1 -> 1
12-27: 1 -> 1
12-28: 1 -> 1
12-29: 1 -> 1
12-30: 1 -> 1
12-31: 1 -> 0
12-32: 1 -> 9223372036854775807
13-16: 1 -> 1
13-17: 1 -> 1
13-18: 1 -> 1
13-19: 1 -> 1
13-20: 1 -> 1
13-21: 1 -> 1
13-22: 1 -> 1
13-23: 1 -> 1
13-24: 1 -> 1
13-25: 1 -> 1
13-26: 1 -> 1
13-27: 1 -> 1
13-28: 1 -> 1
13-29: 1 -> 1
13-30: 1 -> 1
13-31: 1 -> 0
13-32: 1 -> 9223372036854775807
14-16: 1 -> 1
14-17: 1 -> 1
14-18: 1 -> 1
14-19: 1 -> 1
14-20: 1 -> 1
14-21: 1 -> 1
14-22: 1 -> 1
14-23: 1 -> 1
14-24: 1 -> 1
14-25: 1 -> 1
14-26: 1 -> 1
14-27: 1 -> 1
14-28: 1 -> 1
14-29: 1 -> 1
14-30: 1 -> 1
14-31: 1 -> 0
14-32: 1 -> 9223372036854775807
15-16: 1 -> 1
15-17: 1 -> 1
15-18: 1 -> 1
15-19: 1 -> 1
15-20: 1 -> 1
15-21: 1 -> 1
15-22: 1 -> 1
15-23: 1 -> 1
15-24: 1 -> 1
15-25: 1 -> 1
15-26: 1 -> 1
15-27: 1 -> 1
15-28: 1 -> 1
15-29: 1 -> 1
15-30: 1 -> 1
15-31: 1 -> 0
15-32: 1 -> 9223372036854775807
16-16: 1 -> 1
16-17: 1 -> 1
16-18: 1 -> 1
16-19: 1 -> 1
16-20: 1 -> 1
16-21: 1 -> 1
16-22: 1 -> 1
16-23: 1 -> 1
16-24: 1 -> 1
16-25: 1 -> 1
16-26: 1 -> 1
16-27: 1 -> 1
16-28: 1 -> 1
16-29: 1 -> 1
16-30: 1 -> 1
16-31: 1 -> 0
16-32: 1 -> 9223372036854775807
17-17: 1 -> 1
17-18: 1 -> 1
17-19: 1 -> 1
17-20: 1 -> 1
17-21: 1 -> 1
17-22: 1 -> 1
17-23: 1 -> 1
17-24: 1 -> 1
17-25: 1 -> 1
17-26: 1 -> 1
17-27: 1 -> 1
17-28: 1 -> 1
17-29: 1 -> 1
17-30: 1 -> 1
17-31: 1 -> 0
17-32: 1 -> 9223372036854775807
18-18: 1 -> 1
18-19: 1 -> 1
18-20: 1 -> 1
18-21: 1 -> 1
18-22: 1 -> 1
18-23: 1 -> 1
18-24: 1 -> 1
18-25: 1 -> 1
18-26: 1 -> 1
18-27: 1 -> 1
18-28: 1 -> 1
18-29: 1 -> 1
18-30: 1 -> 1
18-31: 1 -> 0
18-32: 1 -> 9223372036854775807
19-19: 1 -> 1
19-20: 1 -> 1
19-21: 1 -> 1
19-22: 1 -> 1
19-23: 1 -> 1
19-24: 1 -> 1
19-25: 1 -> 1
19-26: 1 -> 1
19-27: 1 -> 1
19-28: 1 -> 1
19-29: 1 -> 1
19-30: 1 -> 1
19-31: 1 -> 0
19-32: 1 -> 9223372036854775807
20-20: 1 -> 1
20-21: 1 -> 1
20-22: 1 -> 1
20-23: 1 -> 1
20-24: 1 -> 1
20-25: 1 -> 1
20-26: 1 -> 1
20-27: 1 -> 1
20-28: 1 -> 1
20-29: 1 -> 1
20-30: 1 -> 1
20-31: 1 -> 0
20-32: 1 -> 9223372036854775807
4-16: 10 -> 10
4-17: 10 -> 10
4-18: 10 -> 10
4-19: 10 -> 10
4-20: 10 -> 10
4-21: 10 -> 10
4-22: 10 -> 10
4-23: 10 -> 10
4-24: 10 -> 10
4-25: 10 -> 10
4-26: 10 -> 10
4-27: 10 -> 10
4-28: 10 -> 10
4-29: 10 -> 10
4-30: 10 -> 10
4-31: 10 -> 0
4-32: 10 -> 0
5-16: 10 -> 10
5-17: 10 -> 10
5-18: 10 -> 10
5-19: 10 -> 10
5-20: 10 -> 10
5-21: 10 -> 10
5-22: 10 -> 10
5-23: 10 -> 10
5-24: 10 -> 10
5-25: 10 -> 10
5-26: 10 -> 10
5-27: 10 -> 10
5-28: 10 -> 10
5-29: 10 -> 10
5-30: 10 -> 10
5-31: 10 -> 0
5-32: 10 -> 0
6-16: 10 -> 10
6-17: 10 -> 10
6-18: 10 -> 10
6-19: 10 -> 10
6-20: 10 -> 10
6-21: 10 -> 10
6-22: 10 -> 10
6-23: 10 -> 10
6-24: 10 -> 10
6-25: 10 -> 10
6-26: 10 -> 10
6-27: 10 -> 10
6-28: 10 -> 10
6-29: 10 -> 10
6-30: 10 -> 10
6-31: 10 -> 0
6-32: 10 -> 0
7-16: 10 -> 10
7-17: 10 -> 10
7-18: 10 -> 10
7-19: 10 -> 10
7-20: 10 -> 10
7-21: 10 -> 10
7-22: 10 -> 10
7-23: 10 -> 10
7-24: 10 -> 10
7-25: 10 -> 10
7-26: 10 -> 10
7-27: 10 -> 10
7-28: 10 -> 10
7-29: 10 -> 10
7-30: 10 -> 10
7-31: 10 -> 0
7-32: 10 -> 0
8-16: 10 -> 10
8-17: 10 -> 10
8-18: 10 -> 10
8-19: 10 -> 10
8-20: 10 -> 10
8-21: 10 -> 10
8-22: 10 -> 10
8-23: 10 -> 10
8-24: 10 -> 10
8-25: 10 -> 10
8-26: 10 -> 10
8-27: 10 -> 10
8-28: 10 -> 10
8-29: 10 -> 10
8-30: 10 -> 10
8-31: 10 -> 0
8-32: 10 -> 0
9-16: 10 -> 10
9-17: 10 -> 10
9-18: 10 -> 10
9-19: 10 -> 10
9-20: 10 -> 10
9-21: 10 -> 10
9-22: 10 -> 10
9-23: 10 -> 10
9-24: 10 -> 10
9-25: 10 -> 10
9-26: 10 -> 10
9-27: 10 -> 10
9-28: 10 -> 10
9-29: 10 -> 10
9-30: 10 -> 10
9-31: 10 -> 0
9-32: 10 -> 0
10-16: 10 -> 10
10-17: 10 -> 10
10-18: 10 -> 10
10-19: 10 -> 10
10-20: 10 -> 10
10-21: 10 -> 10
10-22: 10 -> 10
10-23: 10 -> 10
10-24: 10 -> 10
10-25: 10 -> 10
10-26: 10 -> 10
10-27: 10 -> 10
10-28: 10 -> 10
10-29: 10 -> 10
10-30: 10 -> 10
10-31: 10 -> 0
10-32: 10 -> 0
11-16: 10 -> 10
11-17: 10 -> 10
11-18: 10 -> 10
11-19: 10 -> 10
11-20: 10 -> 10
11-21: 10 -> 10
11-22: 10 -> 10
11-23: 10 -> 10
11-24: 10 -> 10
11-25: 10 -> 10
11-26: 10 -> 10
11-27: 10 -> 10
11-28: 10 -> 10
11-29: 10 -> 10
11-30: 10 -> 10
11-31: 10 -> 0
11-32: 10 -> 0
12-16: 10 -> 10
12-17: 10 -> 10
12-18: 10 -> 10
12-19: 10 -> 10
12-20: 10 -> 10
12-21: 10 -> 10
12-22: 10 -> 10
12-23: 10 -> 10
12-24: 10 -> 10
12-25: 10 -> 10
12-26: 10 -> 10
12-27: 10 -> 10
12-28: 10 -> 10
12-29: 10 -> 10
12-30: 10 -> 10
12-31: 10 -> 0
12-32: 10 -> 0
13-16: 10 -> 10
13-17: 10 -> 10
13-18: 10 -> 10
13-19: 10 -> 10
13-20: 10 -> 10
13-21: 10 -> 10
13-22: 10 -> 10
13-23: 10 -> 10
13-24: 10 -> 10
13-25: 10 -> 10
13-26: 10 -> 10
13-27: 10 -> 10
13-28: 10 -> 10
13-29: 10 -> 10
13-30: 10 -> 10
13-31: 10 -> 0
13-32: 10 -> 0
14-16: 10 -> 10
14-17: 10 -> 10
14-18: 10 -> 10
14-19: 10 -> 10
14-20: 10 -> 10
14-21: 10 -> 10
14-22: 10 -> 10
14-23: 10 -> 10
14-24: 10 -> 10
14-25: 10 -> 10
14-26: 10 -> 10
14-27: 10 -> 10
14-28: 10 -> 10
14-29: 10 -> 10
14-30: 10 -> 10
14-31: 10 -> 0
14-32: 10 -> 0
15-16: 10 -> 10
15-17: 10 -> 10
15-18: 10 -> 10
15-19: 10 -> 10
15-20: 10 -> 10
15-21: 10 -> 10
15-22: 10 -> 10
15-23: 10 -> 10
15-24: 10 -> 10
15-25: 10 -> 10
15-26: 10 -> 10
15-27: 10 -> 10
15-28: 10 -> 10
15-29: 10 -> 10
15-30: 10 -> 10
15-31: 10 -> 0
15-32: 10 -> 0
16-16: 10 -> 10
16-17: 10 -> 10
16-18: 10 -> 10
16-19: 10 -> 10
16-20: 10 -> 10
16-21: 10 -> 10
16-22: 10 -> 10
16-23: 10 -> 10
16-24: 10 -> 10
16-25: 10 -> 10
16-26: 10 -> 10
16-27: 10 -> 10
16-28: 10 -> 10
16-29: 10 -> 10
16-30: 10 -> 10
16-31: 10 -> 0
16-32: 10 -> 0
17-17: 10 -> 10
17-18: 10 -> 10
17-19: 10 -> 10
17-20: 10 -> 10
17-21: 10 -> 10
17-22: 10 -> 10
17-23: 10 -> 10
17-24: 10 -> 10
17-25: 10 -> 10
17-26: 10 -> 10
17-27: 10 -> 10
17-28: 10 -> 10
17-29: 10 -> 10
17-30: 10 -> 10
17-31: 10 -> 0
17-32: 10 -> 0
18-18: 10 -> 10
18-19: 10 -> 10
18-20: 10 -> 10
18-21: 10 -> 10
18-22: 10 -> 10
18-23: 10 -> 10
18-24: 10 -> 10
18-25: 10 -> 10
18-26: 10 -> 10
18-27: 10 -> 10
18-28: 10 -> 10
18-29: 10 -> 10
18-30: 10 -> 10
18-31: 10 -> 0
18-32: 10 -> 0
19-19: 10 -> 10
19-20: 10 -> 10
19-21: 10 -> 10
19-22: 10 -> 10
19-23: 10 -> 10
19-24: 10 -> 10
19-25: 10 -> 10
19-26: 10 -> 10
19-27: 10 -> 10
19-28: 10 -> 10
19-29: 10 -> 10
19-30: 10 -> 10
19-31: 10 -> 0
19-32: 10 -> 0
20-20: 10 -> 10
20-21: 10 -> 10
20-22: 10 -> 10
20-23: 10 -> 10
20-24: 10 -> 10
20-25: 10 -> 10
20-26: 10 -> 10
20-27: 10 -> 10
20-28: 10 -> 10
20-29: 10 -> 10
20-30: 10 -> 10
20-31: 10 -> 0
20-32: 10 -> 0
4-16: 100 -> 101
4-17: 100 -> 89
4-18: 100 -> 74
4-19: 100 -> 94
4-20: 100 -> 94
4-21: 100 -> 93
4-22: 100 -> 81
4-23: 100 -> 73
4-24: 100 -> 130
4-25: 100 -> 84
4-26: 100 -> 123
4-27: 100 -> 104
4-28: 100 -> 109
4-29: 100 -> 86
4-30: 100 -> 108
4-31: 100 -> 81
4-32: 100 -> 124
5-16: 100 -> 94
5-17: 100 -> 95
5-18: 100 -> 112
5-19: 100 -> 86
5-20: 100 -> 111
5-21: 100 -> 94
5-22: 100 -> 92
5-23: 100 -> 84
5-24: 100 -> 106
5-25: 100 -> 96
5-26: 100 -> 79
5-27: 100 -> 104
5-28: 100 -> 100
5-29: 100 -> 79
5-30: 100 -> 75
5-31: 100 -> 95
5-32: 100 -> 80
6-16: 100 -> 95
6-17: 100 -> 73
6-18: 100 -> 81
6-19: 100 -> 105
6-20: 100 -> 91
6-21: 100 -> 75
6-22: 100 -> 108
6-23: 100 -> 96
6-24: 100 -> 104
6-25: 100 -> 84
6-26: 100 -> 89
6-27: 100 -> 74
6-28: 100 -> 64
6-29: 100 -> 49
6-30: 100 -> 49
6-31: 100 -> 44
6-32: 100 -> 52
7-16: 100 -> 101
7-17: 100 -> 105
7-18: 100 -> 100
7-19: 100 -> 96
7-20: 100 -> 108
7-21: 100 -> 100
7-22: 100 -> 97
7-23: 100 -> 101
7-24: 100 -> 102
7-25: 100 -> 104
7-26: 100 -> 65
7-27: 100 -> 37
7-28: 100 -> 17
7-29: 100 -> 8
7-30: 100 -> 4
7-31: 100 -> 2
7-32: 100 -> 1
8-16: 100 -> 100
8-17: 100 -> 100
8-18: 100 -> 100
8-19: 100 -> 100
8-20: 100 -> 100
8-21: 100 -> 100
8-22: 100 -> 100
8-23: 100 -> 100
8-24: 100 -> 100
8-25: 100 -> 100
8-26: 100 -> 100
8-27: 100 -> 100
8-28: 100 -> 100
8-29: 100 -> 100
8-30: 100 -> 100
8-31: 100 -> 0
8-32: 100 -> 0
9-16: 100 -> 100
9-17: 100 -> 100
9-18: 100 -> 100
9-19: 100 -> 100
9-20: 100 -> 100
9-21: 100 -> 100
9-22: 100 -> 100
9-23: 100 -> 100
9-24: 100 -> 100
9-25: 100 -> 100
9-26: 100 -> 100
9-27: 100 -> 100
9-28: 100 -> 100
9-29: 100 -> 100
9-30: 100 -> 100
9-31: 100 -> 0
9-32: 100 -> 0
10-16: 100 -> 100
10-17: 100 -> 100
10-18: 100 -> 100
10-19: 100 -> 100
10-20: 100 -> 100
10-21: 100 -> 100
10-22: 100 -> 100
10-23: 100 -> 100
10-24: 100 -> 100
10-25: 100 -> 100
10-26: 100 -> 100
10-27: 100 -> 100
10-28: 100 -> 100
10-29: 100 -> 100
10-30: 100 -> 100
10-31: 100 -> 0
10-32: 100 -> 0
11-16: 100 -> 100
11-17: 100 -> 100
11-18: 100 -> 100
11-19: 100 -> 100
11-20: 100 -> 100
11-21: 100 -> 100
11-22: 100 -> 100
11-23: 100 -> 100
11-24: 100 -> 100
11-25: 100 -> 100
11-26: 100 -> 100
11-27: 100 -> 100
11-28: 100 -> 100
11-29: 100 -> 100
11-30: 100 -> 100
11-31: 100 -> 0
11-32: 100 -> 0
12-16: 100 -> 100
12-17: 100 -> 100
12-18: 100 -> 100
12-19: 100 -> 100
12-20: 100 -> 100
12-21: 100 -> 100
12-22: 100 -> 100
12-23: 100 -> 100
12-24: 100 -> 100
12-25: 100 -> 100
12-26: 100 -> 100
12-27: 100 -> 100
12-28: 100 -> 100
12-29: 100 -> 100
12-30: 100 -> 100
12-31: 100 -> 0
12-32: 100 -> 0
13-16: 100 -> 100
13-17: 100 -> 100
13-18: 100 -> 100
13-19: 100 -> 100
13-20: 100 -> 100
13-21: 100 -> 100
13-22: 100 -> 100
13-23: 100 -> 100
13-24: 100 -> 100
13-25: 100 -> 100
13-26: 100 -> 100
13-27: 100 -> 100
13-28: 100 -> 100
13-29: 100 -> 100
13-30: 100 -> 100
13-31: 100 -> 0
13-32: 100 -> 0
14-16: 100 -> 100
14-17: 100 -> 99
14-18: 100 -> 100
14-19: 100 -> 100
14-20: 100 -> 100
14-21: 100 -> 100
14-22: 100 -> 100
14-23: 100 -> 100
14-24: 100 -> 100
14-25: 100 -> 100
14-26: 100 -> 100
14-27: 100 -> 100
14-28: 100 -> 100
14-29: 100 -> 100
14-30: 100 -> 100
14-31: 100 -> 0
14-32: 100 -> 0
15-16: 100 -> 100
15-17: 100 -> 100
15-18: 100 -> 100
15-19: 100 -> 100
15-20: 100 -> 100
15-21: 100 -> 100
15-22: 100 -> 100
15-23: 100 -> 100
15-24: 100 -> 100
15-25: 100 -> 100
15-26: 100 -> 100
15-27: 100 -> 100
15-28: 100 -> 100
15-29: 100 -> 100
15-30: 100 -> 100
15-31: 100 -> 0
15-32: 100 -> 0
16-16: 100 -> 100
16-17: 100 -> 100
16-18: 100 -> 100
16-19: 100 -> 100
16-20: 100 -> 100
16-21: 100 -> 100
16-22: 100 -> 100
16-23: 100 -> 100
16-24: 100 -> 100
16-25: 100 -> 100
16-26: 100 -> 100
16-27: 100 -> 100
16-28: 100 -> 100
16-29: 100 -> 100
16-30: 100 -> 100
16-31: 100 -> 0
16-32: 100 -> 0
17-17: 100 -> 100
17-18: 100 -> 100
17-19: 100 -> 100
17-20: 100 -> 100
17-21: 100 -> 100
17-22: 100 -> 100
17-23: 100 -> 100
17-24: 100 -> 100
17-25: 100 -> 100
17-26: 100 -> 100
17-27: 100 -> 100
17-28: 100 -> 100
17-29: 100 -> 100
17-30: 100 -> 100
17-31: 100 -> 0
17-32: 100 -> 0
18-18: 100 -> 100
18-19: 100 -> 100
18-20: 100 -> 100
18-21: 100 -> 100
18-22: 100 -> 100
18-23: 100 -> 100
18-24: 100 -> 100
18-25: 100 -> 100
18-26: 100 -> 100
18-27: 100 -> 100
18-28: 100 -> 100
18-29: 100 -> 100
18-30: 100 -> 100
18-31: 100 -> 0
18-32: 100 -> 0
19-19: 100 -> 100
19-20: 100 -> 100
19-21: 100 -> 100
19-22: 100 -> 100
19-23: 100 -> 100
19-24: 100 -> 100
19-25: 100 -> 100
19-26: 100 -> 100
19-27: 100 -> 100
19-28: 100 -> 100
19-29: 100 -> 100
19-30: 100 -> 100
19-31: 100 -> 0
19-32: 100 -> 0
20-20: 100 -> 100
20-21: 100 -> 100
20-22: 100 -> 100
20-23: 100 -> 100
20-24: 100 -> 100
20-25: 100 -> 100
20-26: 100 -> 100
20-27: 100 -> 100
20-28: 100 -> 100
20-29: 100 -> 100
20-30: 100 -> 100
20-31: 100 -> 0
20-32: 100 -> 0
4-16: 1000 -> 1092
4-17: 1000 -> 1255
4-18: 1000 -> 737
4-19: 1000 -> 1476
4-20: 1000 -> 1770
4-21: 1000 -> 1314
4-22: 1000 -> 959
4-23: 1000 -> 1113
4-24: 1000 -> 973
4-25: 1000 -> 741
4-26: 1000 -> 803
4-27: 1000 -> 1159
4-28: 1000 -> 658
4-29: 1000 -> 1082
4-30: 1000 -> 760
4-31: 1000 -> 721
4-32: 1000 -> 1013
5-16: 1000 -> 1034
5-17: 1000 -> 916
5-18: 1000 -> 933
5-19: 1000 -> 869
5-20: 1000 -> 1198
5-21: 1000 -> 883
5-22: 1000 -> 939
5-23: 1000 -> 954
5-24: 1000 -> 840
5-25: 1000 -> 840
5-26: 1000 -> 824
5-27: 1000 -> 802
5-28: 1000 -> 1009
5-29: 1000 -> 897
5-30: 1000 -> 1003
5-31: 1000 -> 781
5-32: 1000 -> 913
6-16: 1000 -> 893
6-17: 1000 -> 1005
6-18: 1000 -> 962
6-19: 1000 -> 953
6-20: 1000 -> 851
6-21: 1000 -> 911
6-22: 1000 -> 1118
6-23: 1000 -> 977
6-24: 1000 -> 1079
6-25: 1000 -> 880
6-26: 1000 -> 1017
6-27: 1000 -> 908
6-28: 1000 -> 757
6-29: 1000 -> 956
6-30: 1000 -> 901
6-31: 1000 -> 831
6-32: 1000 -> 1025
7-16: 1000 -> 1418
7-17: 1000 -> 957
7-18: 1000 -> 1038
7-19: 1000 -> 955
7-20: 1000 -> 1065
7-21: 1000 -> 903
7-22: 1000 -> 976
7-23: 1000 -> 999
7-24: 1000 -> 967
7-25: 1000 -> 837
7-26: 1000 -> 959
7-27: 1000 -> 1279
7-28: 1000 -> 939
7-29: 1000 -> 901
7-30: 1000 -> 940
7-31: 1000 -> 921
7-32: 1000 -> 828
8-16: 1000 -> 1072
8-17: 1000 -> 1093
8-18: 1000 -> 1001
8-19: 1000 -> 1058
8-20: 1000 -> 986
8-21: 1000 -> 1038
8-22: 1000 -> 962
8-23: 1000 -> 994
8-24: 1000 -> 905
8-25: 1000 -> 958
8-26: 1000 -> 913
8-27: 1000 -> 990
8-28: 1000 -> 808
8-29: 1000 -> 881
8-30: 1000 -> 821
8-31: 1000 -> 780
8-32: 1000 -> 798
9-16: 1000 -> 990
9-17: 1000 -> 1027
9-18: 1000 -> 997
9-19: 1000 -> 978
9-20: 1000 -> 1001
9-21: 1000 -> 964
9-22: 1000 -> 1026
9-23: 1000 -> 950
9-24: 1000 -> 1009
9-25: 1000 -> 968
9-26: 1000 -> 872
9-27: 1000 -> 810
9-28: 1000 -> 709
9-29: 1000 -> 608
9-30: 1000 -> 622
9-31: 1000 -> 618
9-32: 1000 -> 598
10-16: 1000 -> 962
10-17: 1000 -> 983
10-18: 1000 -> 1010
10-19: 1000 -> 994
10-20: 1000 -> 989
10-21: 1000 -> 1018
10-22: 1000 -> 989
10-23: 1000 -> 977
10-24: 1000 -> 986
10-25: 1000 -> 1017
10-26: 1000 -> 665
10-27: 1000 -> 470
10-28: 1000 -> 319
10-29: 1000 -> 254
10-30: 1000 -> 225
10-31: 1000 -> 206
10-32: 1000 -> 202
11-16: 1000 -> 999
11-17: 1000 -> 1000
11-18: 1000 -> 999
11-19: 1000 -> 1000
11-20: 1000 -> 998
11-21: 1000 -> 1000
11-22: 1000 -> 1000
11-23: 1000 -> 1000
11-24: 1000 -> 1000
11-25: 1000 -> 1000
11-26: 1000 -> 1000
11-27: 1000 -> 1000
11-28: 1000 -> 1000
11-29: 1000 -> 1000
11-30: 1000 -> 1000
11-31: 1000 -> 0
11-32: 1000 -> 0
12-16: 1000 -> 998
12-17: 1000 -> 1001
12-18: 1000 -> 1000
12-19: 1000 -> 1001
12-20: 1000 -> 999
12-21: 1000 -> 999
12-22: 1000 -> 1000
12-23: 1000 -> 1000
12-24: 1000 -> 1000
12-25: 1000 -> 1000
12-26: 1000 -> 1000
12-27: 1000 -> 1000
12-28: 1000 -> 1000
12-29: 1000 -> 1000
12-30: 1000 -> 1000
12-31: 1000 -> 0
12-32: 1000 -> 0
13-16: 1000 -> 1001
13-17: 1000 -> 995
13-18: 1000 -> 1000
13-19: 1000 -> 1001
13-20: 1000 -> 1000
13-21: 1000 -> 1000
13-22: 1000 -> 1000
13-23: 1000 -> 1000
13-24: 1000 -> 1000
13-25: 1000 -> 1000
13-26: 1000 -> 1000
13-27: 1000 -> 1000
13-28: 1000 -> 1000
13-29: 1000 -> 1000
13-30: 1000 -> 1000
13-31: 1000 -> 0
13-32: 1000 -> 0
14-16: 1000 -> 995
14-17: 1000 -> 995
14-18: 1000 -> 1002
14-19: 1000 -> 1000
14-20: 1000 -> 999
14-21: 1000 -> 1000
14-22: 1000 -> 1000
14-23: 1000 -> 1000
14-24: 1000 -> 1000
14-25: 1000 -> 1000
14-26: 1000 -> 1000
14-27: 1000 -> 1000
14-28: 1000 -> 1000
14-29: 1000 -> 1000
14-30: 1000 -> 1000
14-31: 1000 -> 0
14-32: 1000 -> 0
15-16: 1000 -> 1003
15-17: 1000 -> 1000
15-18: 1000 -> 1002
15-19: 1000 -> 1000
15-20: 1000 -> 999
15-21: 1000 -> 1000
15-22: 1000 -> 1000
15-23: 1000 -> 1000
15-24: 1000 -> 1000
15-25: 1000 -> 1000
15-26: 1000 -> 1000
15-27: 1000 -> 1000
15-28: 1000 -> 1000
15-29: 1000 -> 1000
15-30: 1000 -> 1000
15-31: 1000 -> 0
15-32: 1000 -> 0
16-16: 1000 -> 998
16-17: 1000 -> 1000
16-18: 1000 -> 1001
16-19: 1000 -> 1001
16-20: 1000 -> 1000
16-21: 1000 -> 1000
16-22: 1000 -> 1000
16-23: 1000 -> 1000
16-24: 1000 -> 1000
16-25: 1000 -> 1000
16-26: 1000 -> 1000
16-27: 1000 -> 1000
16-28: 1000 -> 1000
16-29: 1000 -> 1000
16-30: 1000 -> 1000
16-31: 1000 -> 0
16-32: 1000 -> 0
17-17: 1000 -> 997
17-18: 1000 -> 999
17-19: 1000 -> 999
17-20: 1000 -> 1000
17-21: 1000 -> 1000
17-22: 1000 -> 1000
17-23: 1000 -> 999
17-24: 1000 -> 1000
17-25: 1000 -> 1000
17-26: 1000 -> 1000
17-27: 1000 -> 1000
17-28: 1000 -> 1000
17-29: 1000 -> 999
17-30: 1000 -> 1000
17-31: 1000 -> 0
17-32: 1000 -> 0
18-18: 1000 -> 1001
18-19: 1000 -> 1001
18-20: 1000 -> 1000
18-21: 1000 -> 1000
18-22: 1000 -> 999
18-23: 1000 -> 999
18-24: 1000 -> 1000
18-25: 1000 -> 1000
18-26: 1000 -> 1000
18-27: 1000 -> 1000
18-28: 1000 -> 1000
18-29: 1000 -> 1000
18-30: 1000 -> 1000
18-31: 1000 -> 0
18-32: 1000 -> 0
19-19: 1000 -> 1000
19-20: 1000 -> 1000
19-21: 1000 -> 1000
19-22: 1000 -> 1000
19-23: 1000 -> 1000
19-24: 1000 -> 1000
19-25: 1000 -> 1000
19-26: 1000 -> 1000
19-27: 1000 -> 1000
19-28: 1000 -> 1000
19-29: 1000 -> 1000
19-30: 1000 -> 1000
19-31: 1000 -> 0
19-32: 1000 -> 0
20-20: 1000 -> 1000
20-21: 1000 -> 999
20-22: 1000 -> 1000
20-23: 1000 -> 1000
20-24: 1000 -> 1000
20-25: 1000 -> 1000
20-26: 1000 -> 1000
20-27: 1000 -> 1000
20-28: 1000 -> 1000
20-29: 1000 -> 1000
20-30: 1000 -> 1000
20-31: 1000 -> 0
20-32: 1000 -> 0
4-16: 10000 -> 7650
4-17: 10000 -> 14429
4-18: 10000 -> 10572
4-19: 10000 -> 6818
4-20: 10000 -> 15176
4-21: 10000 -> 12687
4-22: 10000 -> 10692
4-23: 10000 -> 13538
4-24: 10000 -> 15704
4-25: 10000 -> 7101
4-26: 10000 -> 9853
4-27: 10000 -> 9106
4-28: 10000 -> 9634
4-29: 10000 -> 8593
4-30: 10000 -> 11113
4-31: 10000 -> 7164
4-32: 10000 -> 9472
5-16: 10000 -> 8926
5-17: 10000 -> 6402
5-18: 10000 -> 8950
5-19: 10000 -> 8806
5-20: 10000 -> 10346
5-21: 10000 -> 9303
5-22: 10000 -> 11201
5-23: 10000 -> 15069
5-24: 10000 -> 8819
5-25: 10000 -> 10748
5-26: 10000 -> 8413
5-27: 10000 -> 10316
5-28: 10000 -> 10808
5-29: 10000 -> 7355
5-30: 10000 -> 9255
5-31: 10000 -> 12815
5-32: 10000 -> 9644
6-16: 10000 -> 12915
6-17: 10000 -> 8646
6-18: 10000 -> 9792
6-19: 10000 -> 9554
6-20: 10000 -> 10439
6-21: 10000 -> 9635
6-22: 10000 -> 12449
6-23: 10000 -> 10296
6-24: 10000 -> 12361
6-25: 10000 -> 8364
6-26: 10000 -> 11404
6-27: 10000 -> 8018
6-28: 10000 -> 10393
6-29: 10000 -> 9037
6-30: 10000 -> 10042
6-31: 10000 -> 11446
6-32: 10000 -> 10880
7-16: 10000 -> 8655
7-17: 10000 -> 10679
7-18: 10000 -> 10934
7-19: 10000 -> 10556
7-20: 10000 -> 8983
7-21: 10000 -> 10191
7-22: 10000 -> 9706
7-23: 10000 -> 9653
7-24: 10000 -> 9924
7-25: 10000 -> 10537
7-26: 10000 -> 11246
7-27: 10000 -> 9784
7-28: 10000 -> 9569
7-29: 10000 -> 10675
7-30: 10000 -> 9637
7-31: 10000 -> 10070
7-32: 10000 -> 10840
8-16: 10000 -> 10624
8-17: 10000 -> 9095
8-18: 10000 -> 10720
8-19: 10000 -> 10105
8-20: 10000 -> 10690
8-21: 10000 -> 9904
8-22: 10000 -> 9212
8-23: 10000 -> 10615
8-24: 10000 -> 10584
8-25: 10000 -> 9527
8-26: 10000 -> 10186
8-27: 10000 -> 10116
8-28: 10000 -> 11467
8-29: 10000 -> 10564
8-30: 10000 -> 10212
8-31: 10000 -> 10529
8-32: 10000 -> 9781
9-16: 10000 -> 10999
9-17: 10000 -> 9837
9-18: 10000 -> 10164
9-19: 10000 -> 10233
9-20: 10000 -> 9430
9-21: 10000 -> 9791
9-22: 10000 -> 9712
9-23: 10000 -> 10208
9-24: 10000 -> 10301
9-25: 10000 -> 9961
9-26: 10000 -> 9382
9-27: 10000 -> 9766
9-28: 10000 -> 10440
9-29: 10000 -> 9805
9-30: 10000 -> 9185
9-31: 10000 -> 9690
9-32: 10000 -> 9807
10-16: 10000 -> 9707
10-17: 10000 -> 10042
10-18: 10000 -> 9848
10-19: 10000 -> 10046
10-20: 10000 -> 10503
10-21: 10000 -> 9849
10-22: 10000 -> 10712
10-23: 10000 -> 10155
10-24: 10000 -> 10146
10-25: 10000 -> 10470
10-26: 10000 -> 10556
10-27: 10000 -> 10071
10-28: 10000 -> 9703
10-29: 10000 -> 9521
10-30: 10000 -> 9763
10-31: 10000 -> 9059
10-32: 10000 -> 9086
11-16: 10000 -> 9784
11-17: 10000 -> 9884
11-18: 10000 -> 10234
11-19: 10000 -> 9899
11-20: 10000 -> 10434
11-21: 10000 -> 9978
11-22: 10000 -> 9752
11-23: 10000 -> 10125
11-24: 10000 -> 10047
11-25: 10000 -> 10359
11-26: 10000 -> 9655
11-27: 10000 -> 9379
11-28: 10000 -> 8912
11-29: 10000 -> 8826
11-30: 10000 -> 8574
11-31: 10000 -> 8325
11-32: 10000 -> 7960
12-16: 10000 -> 10350
12-17: 10000 -> 10005
12-18: 10000 -> 10014
12-19: 10000 -> 10019
12-20: 10000 -> 10337
12-21: 10000 -> 10025
12-22: 10000 -> 9985
12-23: 10000 -> 10132
12-24: 10000 -> 10149
12-25: 10000 -> 9995
12-26: 10000 -> 8877
12-27: 10000 -> 7943
12-28: 10000 -> 7529
12-29: 10000 -> 6916
12-30: 10000 -> 6690
12-31: 10000 -> 6604
12-32: 10000 -> 6528
13-16: 10000 -> 10067
13-17: 10000 -> 10006
13-18: 10000 -> 9941
13-19: 10000 -> 10101
13-20: 10000 -> 10131
13-21: 10000 -> 9913
13-22: 10000 -> 9976
13-23: 10000 -> 10093
13-24: 10000 -> 9938
13-25: 10000 -> 9925
13-26: 10000 -> 7958
13-27: 10000 -> 5347
13-28: 10000 -> 4205
13-29: 10000 -> 3642
13-30: 10000 -> 3379
13-31: 10000 -> 3264
13-32: 10000 -> 3150
14-16: 10000 -> 10034
14-17: 10000 -> 10026
14-18: 10000 -> 9991
14-19: 10000 -> 9985
14-20: 10000 -> 10005
14-21: 10000 -> 10005
14-22: 10000 -> 10003
14-23: 10000 -> 10001
14-24: 10000 -> 10001
14-25: 10000 -> 10000
14-26: 10000 -> 9997
14-27: 10000 -> 9999
14-28: 10000 -> 10000
14-29: 10000 -> 9998
14-30: 10000 -> 9999
14-31: 10000 -> 0
14-32: 10000 -> 0
15-16: 10000 -> 9995
15-17: 10000 -> 9995
15-18: 10000 -> 10017
15-19: 10000 -> 10003
15-20: 10000 -> 9986
15-21: 10000 -> 9999
15-22: 10000 -> 9999
15-23: 10000 -> 10002
15-24: 10000 -> 9998
15-25: 10000 -> 10001
15-26: 10000 -> 9999
15-27: 10000 -> 10000
15-28: 10000 -> 9998
15-29: 10000 -> 9999
15-30: 10000 -> 9996
15-31: 10000 -> 0
15-32: 10000 -> 0
16-16: 10000 -> 9980
16-17: 10000 -> 9969
16-18: 10000 -> 10003
16-19: 10000 -> 9999
16-20: 10000 -> 10006
16-21: 10000 -> 9998
16-22: 10000 -> 10002
16-23: 10000 -> 9996
16-24: 10000 -> 9998
16-25: 10000 -> 9999
16-26: 10000 -> 10000
16-27: 10000 -> 9997
16-28: 10000 -> 9999
16-29: 10000 -> 9995
16-30: 10000 -> 10000
16-31: 10000 -> 0
16-32: 10000 -> 0
17-17: 10000 -> 9974
17-18: 10000 -> 10006
17-19: 10000 -> 9996
17-20: 10000 -> 10001
17-21: 10000 -> 10007
17-22: 10000 -> 10004
17-23: 10000 -> 10002
17-24: 10000 -> 10001
17-25: 10000 -> 10000
17-26: 10000 -> 9998
17-27: 10000 -> 9999
17-28: 10000 -> 9999
17-29: 10000 -> 9999
17-30: 10000 -> 9998
17-31: 10000 -> 0
17-32: 10000 -> 0
18-18: 10000 -> 10014
18-19: 10000 -> 10009
18-20: 10000 -> 9989
18-21: 10000 -> 10000
18-22: 10000 -> 10001
18-23: 10000 -> 10000
18-24: 10000 -> 9995
18-25: 10000 -> 10001
18-26: 10000 -> 9999
18-27: 10000 -> 9997
18-28: 10000 -> 9997
18-29: 10000 -> 10000
18-30: 10000 -> 9999
18-31: 10000 -> 0
18-32: 10000 -> 0
19-19: 10000 -> 9983
19-20: 10000 -> 9996
19-21: 10000 -> 10002
19-22: 10000 -> 10001
19-23: 10000 -> 10001
19-24: 10000 -> 10001
19-25: 10000 -> 9998
19-26: 10000 -> 9998
19-27: 10000 -> 9998
19-28: 10000 -> 10000
19-29: 10000 -> 9998
19-30: 10000 -> 9995
19-31: 10000 -> 0
19-32: 10000 -> 0
20-20: 10000 -> 10006
20-21: 10000 -> 9995
20-22: 10000 -> 9992
20-23: 10000 -> 9999
20-24: 10000 -> 9999
20-25: 10000 -> 10000
20-26: 10000 -> 10001
20-27: 10000 -> 10000
20-28: 10000 -> 9998
20-29: 10000 -> 9999
20-30: 10000 -> 9995
20-31: 10000 -> 0
20-32: 10000 -> 0
4-16: 100000 -> 113460
4-17: 100000 -> 117006
4-18: 100000 -> 141803
4-19: 100000 -> 107791
4-20: 100000 -> 93315
4-21: 100000 -> 89790
4-22: 100000 -> 157298
4-23: 100000 -> 103588
4-24: 100000 -> 77869
4-25: 100000 -> 122066
4-26: 100000 -> 135628
4-27: 100000 -> 112629
4-28: 100000 -> 97758
4-29: 100000 -> 75149
4-30: 100000 -> 94486
4-31: 100000 -> 88040
4-32: 100000 -> 65266
5-16: 100000 -> 108495
5-17: 100000 -> 92077
5-18: 100000 -> 102408
5-19: 100000 -> 84872
5-20: 100000 -> 100808
5-21: 100000 -> 128668
5-22: 100000 -> 89095
5-23: 100000 -> 72632
5-24: 100000 -> 112575
5-25: 100000 -> 123092
5-26: 100000 -> 128414
5-27: 100000 -> 96842
5-28: 100000 -> 108150
5-29: 100000 -> 111236
5-30: 100000 -> 85492
5-31: 100000 -> 90649
5-32: 100000 -> 59284
6-16: 100000 -> 126302
6-17: 100000 -> 102668
6-18: 100000 -> 102696
6-19: 100000 -> 107223
6-20: 100000 -> 107735
6-21: 100000 -> 89117
6-22: 100000 -> 94393
6-23: 100000 -> 91363
6-24: 100000 -> 98894
6-25: 100000 -> 109191
6-26: 100000 -> 112408
6-27: 100000 -> 117193
6-28: 100000 -> 85807
6-29: 100000 -> 99138
6-30: 100000 -> 108507
6-31: 100000 -> 113582
6-32: 100000 -> 83300
7-16: 100000 -> 88410
7-17: 100000 -> 107339
7-18: 100000 -> 99078
7-19: 100000 -> 98283
7-20: 100000 -> 137646
7-21: 100000 -> 103071
7-22: 100000 -> 98653
7-23: 100000 -> 108316
7-24: 100000 -> 81720
7-25: 100000 -> 101728
7-26: 100000 -> 81207
7-27: 100000 -> 105225
7-28: 100000 -> 96291
7-29: 100000 -> 114254
7-30: 100000 -> 98820
7-31: 100000 -> 108278
7-32: 100000 -> 95631
8-16: 100000 -> 98886
8-17: 100000 -> 96373
8-18: 100000 -> 101286
8-19: 100000 -> 111934
8-20: 100000 -> 104661
8-21: 100000 -> 93630
8-22: 100000 -> 97413
8-23: 100000 -> 103228
8-24: 100000 -> 100871
8-25: 100000 -> 92259
8-26: 100000 -> 92244
8-27: 100000 -> 94715
8-28: 100000 -> 97957
8-29: 100000 -> 95906
8-30: 100000 -> 93741
8-31: 100000 -> 88015
8-32: 100000 -> 103528
9-16: 100000 -> 98811
9-17: 100000 -> 102434
9-18: 100000 -> 101450
9-19: 100000 -> 97976
9-20: 100000 -> 92444
9-21: 100000 -> 94668
9-22: 100000 -> 95336
9-23: 100000 -> 102898
9-24: 100000 -> 102872
9-25: 100000 -> 98395
9-26: 100000 -> 100629
9-27: 100000 -> 97665
9-28: 100000 -> 101883
9-29: 100000 -> 96447
9-30: 100000 -> 100875
9-31: 100000 -> 93157
9-32: 100000 -> 101208
10-16: 100000 -> 102751
10-17: 100000 -> 102183
10-18: 100000 -> 98441
10-19: 100000 -> 97676
10-20: 100000 -> 102185
10-21: 100000 -> 100222
10-22: 100000 -> 97775
10-23: 100000 -> 93666
10-24: 100000 -> 102474
10-25: 100000 -> 104578
10-26: 100000 -> 99518
10-27: 100000 -> 101754
10-28: 100000 -> 103646
10-29: 100000 -> 98010
10-30: 100000 -> 97885
10-31: 100000 -> 98683
10-32: 100000 -> 97106
11-16: 100000 -> 101724
11-17: 100000 -> 95011
11-18: 100000 -> 97148
11-19: 100000 -> 102317
11-20: 100000 -> 103954
11-21: 100000 -> 101898
11-22: 100000 -> 103165
11-23: 100000 -> 97054
11-24: 100000 -> 97156
11-25: 100000 -> 98864
11-26: 100000 -> 101175
11-27: 100000 -> 96831
11-28: 100000 -> 105210
11-29: 100000 -> 99898
11-30: 100000 -> 100493
11-31: 100000 -> 102633
11-32: 100000 -> 98552
12-16: 100000 -> 100291
12-17: 100000 -> 99911
12-18: 100000 -> 99800
12-19: 100000 -> 97634
12-20: 100000 -> 99878
12-21: 100000 -> 96338
12-22: 100000 -> 98486
12-23: 100000 -> 99117
12-24: 100000 -> 97089
12-25: 100000 -> 102855
12-26: 100000 -> 102609
12-27: 100000 -> 98817
12-28: 100000 -> 96052
12-29: 100000 -> 97166
12-30: 100000 -> 99397
12-31: 100000 -> 97069
12-32: 100000 -> 100578
13-16: 100000 -> 99770
13-17: 100000 -> 100239
13-18: 100000 -> 100879
13-19: 100000 -> 99578
13-20: 100000 -> 99643
13-21: 100000 -> 99553
13-22: 100000 -> 99284
13-23: 100000 -> 100800
13-24: 100000 -> 100771
13-25: 100000 -> 100905
13-26: 100000 -> 99569
13-27: 100000 -> 98490
13-28: 100000 -> 99480
13-29: 100000 -> 95069
13-30: 100000 -> 94034
13-31: 100000 -> 94446
13-32: 100000 -> 94196
14-16: 100000 -> 100689
14-17: 100000 -> 98598
14-18: 100000 -> 100568
14-19: 100000 -> 99235
14-20: 100000 -> 100218
14-21: 100000 -> 101583
14-22: 100000 -> 100728
14-23: 100000 -> 100596
14-24: 100000 -> 100672
14-25: 100000 -> 100507
14-26: 100000 -> 97068
14-27: 100000 -> 95421
14-28: 100000 -> 94244
14-29: 100000 -> 90365
14-30: 100000 -> 89447
14-31: 100000 -> 89373
14-32: 100000 -> 87623
15-16: 100000 -> 100121
15-17: 100000 -> 99711
15-18: 100000 -> 101185
15-19: 100000 -> 99673
15-20: 100000 -> 100127
15-21: 100000 -> 99075
15-22: 100000 -> 99818
15-23: 100000 -> 99768
15-24: 100000 -> 100219
15-25: 100000 -> 100073
15-26: 100000 -> 93196
15-27: 100000 -> 85815
15-28: 100000 -> 78409
15-29: 100000 -> 75834
15-30: 100000 -> 73570
15-31: 100000 -> 72844
15-32: 100000 -> 71780
16-16: 100000 -> 100434
16-17: 100000 -> 100279
16-18: 100000 -> 100217
16-19: 100000 -> 99698
16-20: 100000 -> 99790
16-21: 100000 -> 100236
16-22: 100000 -> 100342
16-23: 100000 -> 100230
16-24: 100000 -> 99723
16-25: 100000 -> 100415
16-26: 100000 -> 84942
16-27: 100000 -> 71280
16-28: 100000 -> 60287
16-29: 100000 -> 54626
16-30: 100000 -> 49692
16-31: 100000 -> 48568
16-32: 100000 -> 48640
17-17: 100000 -> 100069
17-18: 100000 -> 99944
17-19: 100000 -> 99801
17-20: 100000 -> 100139
17-21: 100000 -> 100031
17-22: 100000 -> 99947
17-23: 100000 -> 100367
17-24: 100000 -> 99895
17-25: 100000 -> 100223
17-26: 100000 -> 65311
17-27: 100000 -> 35696
17-28: 100000 -> 17467
17-29: 100000 -> 8459
17-30: 100000 -> 4161
17-31: 100000 -> 2064
17-32: 100000 -> 1028
18-18: 100000 -> 99975
18-19: 100000 -> 99968
18-20: 100000 -> 99960
18-21: 100000 -> 100090
18-22: 100000 -> 100007
18-23: 100000 -> 100001
18-24: 100000 -> 100017
18-25: 100000 -> 100004
18-26: 100000 -> 99927
18-27: 100000 -> 99896
18-28: 100000 -> 99864
18-29: 100000 -> 99856
18-30: 100000 -> 99860
18-31: 100000 -> 0
18-32: 100000 -> 0
19-19: 100000 -> 100021
19-20: 100000 -> 99963
19-21: 100000 -> 100055
19-22: 100000 -> 99985
19-23: 100000 -> 99994
19-24: 100000 -> 100002
19-25: 100000 -> 99986
19-26: 100000 -> 99915
19-27: 100000 -> 99880
19-28: 100000 -> 99852
19-29: 100000 -> 99845
19-30: 100000 -> 99841
19-31: 100000 -> 0
19-32: 100000 -> 0
20-20: 100000 -> 99987
20-21: 100000 -> 99990
20-22: 100000 -> 99984
20-23: 100000 -> 99976
20-24: 100000 -> 100005
20-25: 100000 -> 100010
20-26: 100000 -> 99894
20-27: 100000 -> 99901
20-28: 100000 -> 99865
20-29: 100000 -> 99843
20-30: 100000 -> 99853
20-31: 100000 -> 0
20-32: 100000 -> 0
104408
expected: 10000000, estimate: 10005526, time: 1359
Percentage error  5.526E-4
Expect estimate: 70630 is between 68293.75 and 71706.25
104408
Expect estimate: 20004 is between 19878.125 and 20121.875
Expect estimate: 16004 is between 15902.5 and 16097.5
Percentage error  2.5E-4
p=4
hllcardinality=0 cardinality=0
0 : 0
p=5
hllcardinality=0 cardinality=0
0 : 0
p=6
hllcardinality=0 cardinality=0
0 : 0
p=7
hllcardinality=0 cardinality=0
0 : 0
p=8
hllcardinality=0 cardinality=0
0 : 0
p=9
hllcardinality=0 cardinality=0
0 : 0
p=10
hllcardinality=0 cardinality=0
0 : 0
p=11
hllcardinality=0 cardinality=0
0 : 0
p=12
hllcardinality=0 cardinality=0
0 : 0
p=13
hllcardinality=0 cardinality=0
0 : 0
p=14
hllcardinality=0 cardinality=0
0 : 0
p=15
hllcardinality=0 cardinality=0
0 : 0
p=16
hllcardinality=0 cardinality=0
0 : 0
p=17
hllcardinality=0 cardinality=0
0 : 0
p=18
hllcardinality=0 cardinality=0
0 : 0
p=19
hllcardinality=0 cardinality=0
0 : 0
p=20
hllcardinality=0 cardinality=0
0 : 0
p=21
hllcardinality=0 cardinality=0
0 : 0
p=22
hllcardinality=0 cardinality=0
0 : 0
p=23
hllcardinality=0 cardinality=0
0 : 0
p=4
hllcardinality=1 cardinality=1
1 : 1
p=5
hllcardinality=1 cardinality=1
1 : 1
p=6
hllcardinality=1 cardinality=1
1 : 1
p=7
hllcardinality=1 cardinality=1
1 : 1
p=8
hllcardinality=1 cardinality=1
1 : 1
p=9
hllcardinality=1 cardinality=1
1 : 1
p=10
hllcardinality=1 cardinality=1
1 : 1
p=11
hllcardinality=1 cardinality=1
1 : 1
p=12
hllcardinality=1 cardinality=1
1 : 1
p=13
hllcardinality=1 cardinality=1
1 : 1
p=14
hllcardinality=1 cardinality=1
1 : 1
p=15
hllcardinality=1 cardinality=1
1 : 1
p=16
hllcardinality=1 cardinality=1
1 : 1
p=17
hllcardinality=1 cardinality=1
1 : 1
p=18
hllcardinality=1 cardinality=1
1 : 1
p=19
hllcardinality=1 cardinality=1
1 : 1
p=20
hllcardinality=1 cardinality=1
1 : 1
p=21
hllcardinality=1 cardinality=1
1 : 1
p=22
hllcardinality=1 cardinality=1
1 : 1
p=23
hllcardinality=1 cardinality=1
1 : 1
p=4
hllcardinality=9 cardinality=10
9 : 9
p=5
hllcardinality=11 cardinality=10
11 : 11
p=6
hllcardinality=11 cardinality=10
11 : 11
p=7
hllcardinality=10 cardinality=10
10 : 10
p=8
hllcardinality=10 cardinality=10
10 : 10
p=9
hllcardinality=10 cardinality=10
10 : 10
p=10
hllcardinality=10 cardinality=10
10 : 10
p=11
hllcardinality=10 cardinality=10
10 : 10
p=12
hllcardinality=10 cardinality=10
10 : 10
p=13
hllcardinality=10 cardinality=10
10 : 10
p=14
hllcardinality=10 cardinality=10
10 : 10
p=15
hllcardinality=10 cardinality=10
10 : 10
p=16
hllcardinality=10 cardinality=10
10 : 10
p=17
hllcardinality=10 cardinality=10
10 : 10
p=18
hllcardinality=10 cardinality=10
10 : 10
p=19
hllcardinality=10 cardinality=10
10 : 10
p=20
hllcardinality=10 cardinality=10
10 : 10
p=21
hllcardinality=10 cardinality=10
10 : 10
p=22
hllcardinality=10 cardinality=10
10 : 10
p=23
hllcardinality=10 cardinality=10
10 : 10
p=4
hllcardinality=107 cardinality=100
107 : 107
p=5
hllcardinality=83 cardinality=100
83 : 83
p=6
hllcardinality=103 cardinality=100
103 : 103
p=7
hllcardinality=113 cardinality=100
113 : 113
p=8
hllcardinality=97 cardinality=100
97 : 97
p=9
hllcardinality=104 cardinality=100
104 : 104
p=10
hllcardinality=105 cardinality=100
105 : 105
p=11
hllcardinality=99 cardinality=100
99 : 99
p=12
hllcardinality=100 cardinality=100
100 : 100
p=13
hllcardinality=100 cardinality=100
100 : 100
p=14
hllcardinality=100 cardinality=100
100 : 100
p=15
hllcardinality=100 cardinality=100
100 : 100
p=16
hllcardinality=100 cardinality=100
100 : 100
p=17
hllcardinality=99 cardinality=100
99 : 99
p=18
hllcardinality=100 cardinality=100
100 : 100
p=19
hllcardinality=100 cardinality=100
100 : 100
p=20
hllcardinality=100 cardinality=100
100 : 100
p=21
hllcardinality=100 cardinality=100
100 : 100
p=22
hllcardinality=100 cardinality=100
100 : 100
p=23
hllcardinality=100 cardinality=100
100 : 100
p=4
hllcardinality=788 cardinality=1000
788 : 788
p=5
hllcardinality=818 cardinality=1000
818 : 818
p=6
hllcardinality=1065 cardinality=1000
1065 : 1065
p=7
hllcardinality=940 cardinality=1000
940 : 940
p=8
hllcardinality=1045 cardinality=1000
1045 : 1045
p=9
hllcardinality=1073 cardinality=1000
1073 : 1073
p=10
hllcardinality=980 cardinality=1000
980 : 980
p=11
hllcardinality=1006 cardinality=1000
1006 : 1006
p=12
hllcardinality=1010 cardinality=1000
1010 : 1010
p=13
hllcardinality=1000 cardinality=1000
1000 : 1000
p=14
hllcardinality=996 cardinality=1000
996 : 996
p=15
hllcardinality=1001 cardinality=1000
1001 : 1001
p=16
hllcardinality=1004 cardinality=1000
1004 : 1004
p=17
hllcardinality=1000 cardinality=1000
1000 : 1000
p=18
hllcardinality=1001 cardinality=1000
1001 : 1001
p=19
hllcardinality=1000 cardinality=1000
1000 : 1000
p=20
hllcardinality=1000 cardinality=1000
1000 : 1000
p=21
hllcardinality=1000 cardinality=1000
1000 : 1000
p=22
hllcardinality=1000 cardinality=1000
1000 : 1000
p=23
hllcardinality=1000 cardinality=1000
1000 : 1000
p=4
hllcardinality=8111 cardinality=10000
8111 : 8111
p=5
hllcardinality=11601 cardinality=10000
11601 : 11601
p=6
hllcardinality=10692 cardinality=10000
10692 : 10692
p=7
hllcardinality=8604 cardinality=10000
8604 : 8604
p=8
hllcardinality=10599 cardinality=10000
10599 : 10599
p=9
hllcardinality=10179 cardinality=10000
10179 : 10179
p=10
hllcardinality=10306 cardinality=10000
10306 : 10306
p=11
hllcardinality=9949 cardinality=10000
9949 : 9949
p=12
hllcardinality=10048 cardinality=10000
10048 : 10048
p=13
hllcardinality=10110 cardinality=10000
10110 : 10110
p=14
hllcardinality=9947 cardinality=10000
9947 : 9947
p=15
hllcardinality=9950 cardinality=10000
9950 : 9950
p=16
hllcardinality=10001 cardinality=10000
10001 : 10001
p=17
hllcardinality=10022 cardinality=10000
10022 : 10022
p=18
hllcardinality=9988 cardinality=10000
9988 : 9988
p=19
hllcardinality=10005 cardinality=10000
10005 : 10005
p=20
hllcardinality=9992 cardinality=10000
9992 : 9992
p=21
hllcardinality=10004 cardinality=10000
10004 : 10004
p=22
hllcardinality=10001 cardinality=10000
10001 : 10001
p=23
hllcardinality=10004 cardinality=10000
10004 : 10004
p=4
hllcardinality=97180 cardinality=100000
97180 : 97180
p=5
hllcardinality=91671 cardinality=100000
91671 : 91671
p=6
hllcardinality=103211 cardinality=100000
103211 : 103211
p=7
hllcardinality=97265 cardinality=100000
97265 : 97265
p=8
hllcardinality=93135 cardinality=100000
93135 : 93135
p=9
hllcardinality=95168 cardinality=100000
95168 : 95168
p=10
hllcardinality=99196 cardinality=100000
99196 : 99196
p=11
hllcardinality=104349 cardinality=100000
104349 : 104349
p=12
hllcardinality=100248 cardinality=100000
100248 : 100248
p=13
hllcardinality=98331 cardinality=100000
98331 : 98331
p=14
hllcardinality=99998 cardinality=100000
99998 : 99998
p=15
hllcardinality=100679 cardinality=100000
100679 : 100679
p=16
hllcardinality=99669 cardinality=100000
99669 : 99669
p=17
hllcardinality=100421 cardinality=100000
100421 : 100421
p=18
hllcardinality=99874 cardinality=100000
99874 : 99874
p=19
hllcardinality=99901 cardinality=100000
99901 : 99901
p=20
hllcardinality=100019 cardinality=100000
100019 : 100019
p=21
hllcardinality=99924 cardinality=100000
99924 : 99924
p=22
hllcardinality=99944 cardinality=100000
99944 : 99944
p=23
hllcardinality=99992 cardinality=100000
99992 : 99992
p=4
hllcardinality=758964 cardinality=1000000
758964 : 758964
p=5
hllcardinality=936083 cardinality=1000000
936083 : 936083
p=6
hllcardinality=994166 cardinality=1000000
994166 : 994166
p=7
hllcardinality=975101 cardinality=1000000
975101 : 975101
p=8
hllcardinality=966806 cardinality=1000000
966806 : 966806
p=9
hllcardinality=994316 cardinality=1000000
994316 : 994316
p=10
hllcardinality=1009527 cardinality=1000000
1009527 : 1009527
p=11
hllcardinality=1076228 cardinality=1000000
1076228 : 1076228
p=12
hllcardinality=985842 cardinality=1000000
985842 : 985842
p=13
hllcardinality=990578 cardinality=1000000
990578 : 990578
p=14
hllcardinality=1003803 cardinality=1000000
1003803 : 1003803
p=15
hllcardinality=1001369 cardinality=1000000
1001369 : 1001369
p=16
hllcardinality=1000996 cardinality=1000000
1000996 : 1000996
p=17
hllcardinality=998778 cardinality=1000000
998778 : 998778
p=18
hllcardinality=1003570 cardinality=1000000
1003570 : 1003570
p=19
hllcardinality=997708 cardinality=1000000
997708 : 997708
p=20
hllcardinality=1000011 cardinality=1000000
1000011 : 1000011
p=21
hllcardinality=998840 cardinality=1000000
998840 : 998840
p=22
hllcardinality=999886 cardinality=1000000
999886 : 999886
p=23
hllcardinality=1000123 cardinality=1000000
1000123 : 1000123
Expect estimate: 199966 is between 198781.25 and 201218.75
Expect estimate: 14988 is between 14634.375 and 15365.625
Tests run: 20, Failures: 0, Errors: 0, Skipped: 0, Time elapsed: 29.89 sec - in com.clearspring.analytics.stream.cardinality.TestHyperLogLogPlus
Running com.clearspring.analytics.stream.cardinality.TestLinearCounting
Tests run: 8, Failures: 0, Errors: 0, Skipped: 0, Time elapsed: 0.008 sec - in com.clearspring.analytics.stream.cardinality.TestLinearCounting
Running com.clearspring.analytics.stream.cardinality.RegisterSetTest
Tests run: 5, Failures: 0, Errors: 0, Skipped: 0, Time elapsed: 0 sec - in com.clearspring.analytics.stream.cardinality.RegisterSetTest
Running com.clearspring.analytics.stream.cardinality.TestAndGraphResults
Tests run: 1, Failures: 0, Errors: 0, Skipped: 1, Time elapsed: 0 sec - in com.clearspring.analytics.stream.cardinality.TestAndGraphResults
Running com.clearspring.analytics.stream.cardinality.TestICardinality
size: 65536 bytes
991444
% Error: 0.8555999999999999
Tests run: 2, Failures: 0, Errors: 0, Skipped: 0, Time elapsed: 0.126 sec - in com.clearspring.analytics.stream.cardinality.TestICardinality
Running com.clearspring.analytics.stream.TestStreamSummary
Geometric:
0
1
2
3
4
[{24923:[{0:0}]},{18901:[{1:0}]},{13881:[{2:0}]},{10545:[{3:0}]},{8033:[{4:0}]},{5860:[{5:15}]},{4485:[{6:4204}]},{4458:[{14:4457}]},{4457:[{7:4446},{11:4456}]}]
[{1:[{X:0}]}]
[{2:[{X:0}]}]
[{2:[{X:0}]},{1:[{Y:0}]}]
[{2:[{X:0}]},{1:[{Y:0},{Z:0}]}]
[{2:[{X:0},{A:1}]},{1:[{Z:0}]}]
[{2:[{X:0},{A:1},{B:1}]}]
[{3:[{C:2}]},{2:[{A:1},{B:1}]}]
[{3:[{C:2},{X:2}]},{2:[{B:1}]}]
[{4:[{X:2}]},{3:[{C:2}]},{2:[{B:1}]}]
[{4:[{X:2}]},{3:[{C:2},{A:2}]}]
[{4:[{X:2},{A:2}]},{3:[{C:2}]}]
[{5:[{A:2}]},{4:[{X:2}]},{3:[{C:2}]}]
Insert with counts vs. single inserts:
[{45:[{D:15}]},{25:[{C:0}]},{21:[{A:20}]}]
[{45:[{D:15}]},{25:[{C:0}]},{21:[{A:20}]}]
Tests run: 8, Failures: 0, Errors: 0, Skipped: 0, Time elapsed: 0.027 sec - in com.clearspring.analytics.stream.TestStreamSummary
Running com.clearspring.analytics.stream.TestSampleSet
Tests run: 4, Failures: 0, Errors: 0, Skipped: 0, Time elapsed: 0 sec - in com.clearspring.analytics.stream.TestSampleSet
Running com.clearspring.analytics.stream.membership.BloomFilterTest
1/11 - got 0.00716, math says 0.00819
2/11 - got 0.00353, math says 0.00509
3/11 - got 0.00223, math says 0.00314
4/11 - got 0.00184, math says 0.00194
5/11 - got 0.00125, math says 0.0012
6/11 - got 6.5E-4, math says 7.44E-4
7/11 - got 5.1E-4, math says 4.59E-4
8/11 - got 3.9E-4, math says 2.84E-4
9/11 - got 2.4E-4, math says 1.76E-4
10/11 - got 2.4E-4, math says 1.09E-4
11/11 - got 2.8E-4, math says 6.71E-5
expectedFalsePositiveProbability
Tests run: 15, Failures: 0, Errors: 0, Skipped: 4, Time elapsed: 4.744 sec - in com.clearspring.analytics.stream.membership.BloomFilterTest
Running com.clearspring.analytics.stream.membership.Base64Test
Tests run: 1, Failures: 0, Errors: 0, Skipped: 0, Time elapsed: 0.092 sec - in com.clearspring.analytics.stream.membership.Base64Test
Running com.clearspring.analytics.stream.membership.FilterTest
Tests run: 1, Failures: 0, Errors: 0, Skipped: 0, Time elapsed: 0.049 sec - in com.clearspring.analytics.stream.membership.FilterTest
Running com.clearspring.analytics.util.TestDoublyLinkedList
Tests run: 7, Failures: 0, Errors: 0, Skipped: 0, Time elapsed: 0.002 sec - in com.clearspring.analytics.util.TestDoublyLinkedList

Results :

Tests run: 138, Failures: 0, Errors: 0, Skipped: 9

[INFO] ------------------------------------------------------------------------
[INFO] BUILD SUCCESS
[INFO] ------------------------------------------------------------------------
[INFO] Total time: 01:36 min
[INFO] Finished at: 2017-01-05T20:40:32-06:00
[INFO] Final Memory: 29M/1930M
[INFO] ------------------------------------------------------------------------
