52c2b20ae9f59208612198001c48140d6dcc20ed
de72eb2ed1b140318a50d1767ea756c6bdf54a43
e862ef2347836f2b6c71b00b1384e27c4c6ef0f0
a6e1979ea2adbde89623388b503c551298749f21
8f06fc2f5b774f0a27fc8afecc7a6b199ba18b0f
ec5ee3dc77b5aca0b701179edfa4f1f3be3be7e2
945ccf67449b706d6b3489c6f789454151ee2d48
72d1743e29248502d773f6ad3646d26248ba3af3
786dd4d0c4f84effb0b0b8e2dac643a0b19a5027
fd31e0153d2c156da17ed8fe1da94917dddcda70
e1f732a6dc9ad194ca6c89bab45ad2d54c963a1b
9ae844dbf476eba54ac52d9842cba0505c4c6666
a3c53da9fc627967007b548e1392b78a6de84d15
05313a611175bb74565552715d10216d3d8b7be3
27e738871f46f486aa8949e8827e81dd28e29205
3851f46884e916474818d00295f524ed6db29b21
d62104c350876cbe4f78e96bae7a8af45258eb1e
4a3d6760cdfc4d3210080a8964d7e1fde5d5a56c
1c1181ec4d90b4da137fdbc1f335ef00610f4519
436337dcc38f953bdd0c593fd32211c70bcf3cca
abf6474cecca2a20a4b8b4ae519ce59a8a0a4475
ae631881af2807ac5aac8fa60399d48aa77dff30
b0f1e8c75058c8709622bc48beb57e628c9c7f49
123b9db35f55e9aabf7201c34c13cafec6fdc316
448c89d3a05558e95cdf9d83fe9a636a8667f186
f9650450e0f947f1bc7f123ec2da58bc8bfdaaf3
45d6c392de8b797bb46bc76ce2a5761f30a30879
f8dca0b74cf0847f03206aff71a6e599c38f91ee
ac5b903b99c80c14dd37854e7663c22df83fe0d6
84139c09b0049fca08aa538c62839c35df1e5bd6
97424dc1b7694e2807405a5974615e4dfa840d00
dbce21381ab9bdfdb1ed5285e66c0e8390f67113
f62b20d5121ff184b6af5618f77d0864832e81fb
7363c4040d4d0bfc89761c904f4332c69420099c
f82acf29b671027e598f8fd988b72b77bb691558
3db36bf96881a5133b4610f1c97d925dd7df4e67
3353ecd157cf4e7f5a916ca03e0cac0d38399ca1
2ad70a401a88ba28fc9a08e49f81a430af472cde
09d0ffbaeceab55c1ff1be36708512a61d6484ce
93c47c26e63076bc7cb16f3cf442c7e0e0c5051c
97cc07755ae99cae5bc163040c80c5d172f68edf
3a1821ce1ea983f9b4853ad4c39a9f05b4ff8769
38ce3ab56230524109b1f66976ab21d27e027c96
30d4550336bbc026a5a7901175ebd30464c9f4b5
f1d1693bebf758234e28e05c5f6d0a9a5083a87e
6dd3a262f35c0908cdc2706e9508596ebf28608c
d464d82da3213f1b501064c881f650fbc1645ff0
edb9fba8f89a36b2a7c698c8277204aca3ba77bd
3248fc1483a303ac767436bf00266e191501e2a5
33b4015c47b4a6d3671205b3d742a342cdfc53af
2434b31b9945a2175090927c01bf21910ca19ba0
b3553dd5dbdb850e5818244af5fc86daa3011eba
6f80a93eaa51917c14796c96f6a184bb45505e1a
400df09affd7b138823d0438d1118579f014c167
88906e21957f5297069dbd558b1c08ff036bc488
47a8a1e852f69dd4f929bf7bbda1dfa8e8717519
0ca23931f4be280ee81abc565a960e8c3d3b2854
bedcf7ec6461a8a30a83534e4daccb20d6287dc7
c4193c6e4ad3e5f526df5d1e0748abffcfd08bb2
89e8cdd1f1e602c2f367d7ea67749c74e6110f6e
4f585bb11aae98e433068e9736502de49da5ed6a
c9bec5ce66db09420d2dd1191a6dcaca844b5087
dba639465e33ca3511c1619152341050c9dd8f0c
1416718949a9c79b859677eb0c8da7eb399e43e2
b19355c40f70c4caeeb5b7c0e804b5f7550b6407
43a6189c381c64f6c4308b4b19f5f05ab42c257d
4475a0022d22d7a0433983546f89e7f58c713382
43e1ab6e21b76f08526fb926a71d6dd70aaec5ae
8c0391c2f38e1884b7c1e5ab6f714450302a0683
12f80ff3ac3d7d5b2dccf4f3ec4f9c93ec21c37d
0bde583caa3de5cd7d8def1f41130bfe268673d7
7cf868d7925a88c02f3e2b7565f377e634ea2056
3ba4695aa9c2e39a26ebc83bdf5452a5351f10bf
0f656aa336092cfb1662560da39c07bf575b2ebe
6bcbadcc35c5f78cc04d6916beab6c5e10a1a016
7cbfb4191000e170066c25f27b4e48fecf5a6823
30dceb57c89c88894d4a879eb0ffbf9820ca7af4
c76c21c7e2b0dfe254a4006a9581ef451a473e5d
814adea11a32ac12cba4c1689a1335f694566f25
0b2b3ecc1b5963ad5c34b151252c9659de9bc5a0
712de710fe52d0847d42dfd06b5c2f79e198c062
2b5fac9ff515dd53cb3f42f6e94a9fbe3081e80c
1ebedc77333998aa40030f5bba5c044bc98c94e0
4c3436fecd86a9fe609393b70602c08adbab41d7
c75b006dda746f7dd996664aacd3cfaf2bbe2f3e
8c4a8709ae8e9f10675d67e60eeed4c7283e3fd9
5342cd32e54d1326cd39945915d8fa36e55f90fe
0915644b3af949d3dfcc6d43a5d51fdb719c1a17
b0766fe20004e025a409fec43eb46edf42c96ee1
c75ed1c01ecc9580d766d13cb54c849013e8fa83
7bc446a2ebd453e98a70777042ffa49aecdb1302
a2042657406bddbd50fd6d884be65e1b4999b8a3
0b5b1be810baf881d835ef2a96d55f54f537a6a5
f740290ca049e11fcb61439469d354a97272dc41
8a1c1118558c8a4ec4d0b972d0c58906eaa3dd87
e6543480ad73e45c7f02710b0ee15352664e118a
861879edc67cdf244d1f7d1ea927f7c1a9399263
6641cc08d9568fcd6a291cab8cb0a7c4860e43b6
8408716a7f2909eab4618ac2ab6e9a1565a993d0
6a6504247671ee1c36f35b24f5a87d75d92b79b1
