f0da1031af227ab0bca2e37aaf593138e32469c3 [FaultTracer] Extracted changes: 0 1 1 1 0 0 0 0 0 0 0 0 0 0 0 0 0 0 0 0 0 0 0 0 0 0 0 0
4d76778c64b4418211b1cddba4f612831f469a75 [FaultTracer] Extracted changes: 0 0 0 0 0 0 0 0 0 0 0 0 0 0 0 0 0 0 0 0 0 0 0 0 0 0 0 0
f542c63dbff0f530cb072282be4b5b8fb1383015 [FaultTracer] Extracted changes: 0 11 2 0 0 0 0 0 0 1 0 0 0 0 0 1 0 0 0 0 0 1 0 0 0 0 0 1
fddbc62ebd4998db1fed686c3d7b632963a77abe [FaultTracer] Extracted changes: 0 0 1 0 0 0 0 0 0 1 0 0 0 0 0 0 0 0 0 0 0 1 0 0 0 0 0 0
4cc64ad14434adc455c77d0b59ca657b5d2065dd [FaultTracer] Extracted changes: 11 0 0 0 0 0 0 0 0 0 0 0 0 0 0 0 0 0 0 0 0 0 0 0 0 0 0 0
9697eadb5a379230d14b359d97651b38f0092aa0 [FaultTracer] Extracted changes: 0 0 0 0 0 0 0 0 0 0 0 0 0 0 0 0 0 0 0 0 0 0 0 0 0 0 0 0
9ce77f1d1d5cf53fa07728f58f640c5e24db0fd9 [FaultTracer] Extracted changes: 0 2 6 5 0 0 0 0 0 0 0 0 0 0 0 2 0 0 0 0 0 0 0 0 0 0 0 1
a11e1e0b6cbb5de7a292705d86267fb50fbed8ff [FaultTracer] Extracted changes: 0 0 1 0 0 0 0 0 0 0 0 0 0 0 0 1 0 0 0 0 0 0 0 0 0 0 0 1
b10ac03321076bb6a71fac9d2124220abdbbcd3c [FaultTracer] Extracted changes: 0 0 0 0 0 0 0 0 0 0 0 0 0 0 0 0 0 0 0 0 0 0 0 0 0 0 0 0
999c67a99a41a152993b8730b7d039818b3f3aec [FaultTracer] Extracted changes: 0 0 5 0 0 0 0 0 0 1 0 0 0 0 4 4 0 0 0 0 0 1 0 0 0 0 3 3
4fc27a4a2b8a9bd1c5fb7bea46cd07c73eaf5201 [FaultTracer] Extracted changes: 0 0 2 0 0 0 0 0 0 0 0 0 0 0 2 0 0 0 0 0 0 0 0 0 0 0 2 0
2c1d256cfc1a744a7192052727656ad891958fcc [FaultTracer] Extracted changes: 0 0 0 0 0 0 0 0 0 0 0 0 0 0 0 0 0 0 0 0 0 0 0 0 0 0 0 0
1c4de1ade67a10ee55bb734a7f12c40462ed3092 [FaultTracer] Extracted changes: 0 0 0 0 0 0 0 0 0 0 0 0 0 0 0 0 0 0 0 0 0 0 0 0 0 0 0 0
855179034f2ff3f31e2ebf67f3f3cfb05d39c725 [FaultTracer] Extracted changes: 0 0 0 0 0 0 0 0 0 0 0 0 0 0 0 0 0 0 0 0 0 0 0 0 0 0 0 0
e8eba49d54bd1191d85513bf644b1cc95e4eb7bc [FaultTracer] Extracted changes: 0 0 0 0 0 0 0 0 0 0 0 0 0 0 0 0 0 0 0 0 0 0 0 0 0 0 0 0
75548654c6c493064c86e2c081fc418a0579780e [FaultTracer] Extracted changes: 0 0 0 0 0 0 0 0 0 0 0 0 0 0 0 0 0 0 0 0 0 0 0 0 0 0 0 0
ef9fdcd344806af5a17f0b0cfe39e78eb7098ac3 [FaultTracer] Extracted changes: 0 0 0 0 0 0 0 0 0 0 0 0 0 0 0 0 0 0 0 0 0 0 0 0 0 0 0 0
b665c0e246b9101a3e5b0a8d3a24becb8d526e61 [FaultTracer] Extracted changes: 0 0 1 0 0 0 0 0 0 0 0 0 0 0 0 1 0 0 0 0 0 0 0 0 0 0 0 1
6669c08cbee8196537c8fa1ab5e40b1fbba15685 [FaultTracer] Extracted changes: 0 0 0 0 0 0 0 0 0 0 0 0 0 0 0 0 0 0 0 0 0 0 0 0 0 0 0 0
61565eeab4b8334547ae19eebf4016a9e901d82b [FaultTracer] Extracted changes: 0 0 0 0 0 0 0 0 0 0 0 0 0 0 0 0 0 0 0 0 0 0 0 0 0 0 0 0
fe7a96e8f1df4503dd2412c314f354b90595e58d [FaultTracer] Extracted changes: 0 0 0 0 0 0 0 0 0 0 0 0 0 0 0 0 0 0 0 0 0 0 0 0 0 0 0 0
bcf5938f3f5d62bc03f7c4c714f2bb2cdaafaa69 [FaultTracer] Extracted changes: 0 0 0 0 0 0 0 0 0 0 0 0 0 0 0 0 0 0 0 0 0 0 0 0 0 0 0 0
a9391c1784cf57a788e273d663c47f89003e737c [FaultTracer] Extracted changes: 0 0 0 0 0 0 0 0 0 0 0 0 0 0 0 0 0 0 0 0 0 0 0 0 0 0 0 0
a44d3f4f5003a8bdc6a3a85618ea29060ec02e19 [FaultTracer] Extracted changes: 0 0 0 0 0 0 0 0 0 0 0 0 0 0 0 0 0 0 0 0 0 0 0 0 0 0 0 0
bcd22ef8c4b4f17d20e1c16414e923e755314c1a [FaultTracer] Extracted changes: 0 0 0 0 0 0 0 0 0 0 0 0 0 0 0 0 0 0 0 0 0 0 0 0 0 0 0 0
6d49fd8f91d81558c7767d846a3d6e6bf475093e [FaultTracer] Extracted changes: 0 0 0 0 0 0 0 0 0 0 0 0 0 0 0 0 0 0 0 0 0 0 0 0 0 0 0 0
138baa5a0d3e5e2771a431a25e140e288613050f [FaultTracer] Extracted changes: 0 0 0 0 0 0 0 0 0 0 0 0 0 0 0 0 0 0 0 0 0 0 0 0 0 0 0 0
3284211f07ffbbe393f8235300e656e558885d4e [FaultTracer] Extracted changes: 0 0 0 0 0 0 0 0 0 0 0 0 0 0 0 0 0 0 0 0 0 0 0 0 0 0 0 0
66c05ebe1d754b5310ef86afa98e4566c8b39cb5 [FaultTracer] Extracted changes: 0 0 0 0 0 0 0 0 0 0 0 0 0 0 0 0 0 0 0 0 0 0 0 0 0 0 0 0
dd012646a22bd5611d7b3e2352cb785004c08033 [FaultTracer] Extracted changes: 0 0 0 0 0 0 0 0 0 0 0 0 0 0 0 0 0 0 0 0 0 0 0 0 0 0 0 0
f47f8b2188d8cbe6819154af47e2ec89e74a27e7 [FaultTracer] Extracted changes: 0 0 0 0 0 0 0 0 0 0 0 0 0 0 0 0 0 0 0 0 0 0 0 0 0 0 0 0
63882393aa33104ca74c675de9caabeb809c6a6b [FaultTracer] Extracted changes: 0 0 0 0 0 0 0 0 0 0 0 0 0 0 0 0 0 0 0 0 0 0 0 0 0 0 0 0
fbb26a2064d2af4e721ffa71169064e701ee7d8e [FaultTracer] Extracted changes: 0 0 0 0 0 0 0 0 0 0 0 0 0 0 0 0 0 0 0 0 0 0 0 0 0 0 0 0
462ed8c8a0ae317529cfdaa41b47636492cc97a9 [FaultTracer] Extracted changes: 0 0 0 0 0 0 0 0 0 0 0 0 0 0 0 0 0 0 0 0 0 0 0 0 0 0 0 0
0d132cb448c2354368366b65b80d3ee8fbfc8a77 [FaultTracer] Extracted changes: 0 0 0 0 0 0 0 0 0 0 0 0 0 0 0 0 0 0 0 0 0 0 0 0 0 0 0 0
baa6c1786c90f8dcfdb49968470a5a4b866ed8d1 [FaultTracer] Extracted changes: 0 0 0 0 0 0 0 0 0 0 0 0 0 0 0 0 0 0 0 0 0 0 0 0 0 0 0 0
1d03f5fde1e312f3af236468f340adacf33a0dbe [FaultTracer] Extracted changes: 0 0 0 0 0 0 0 0 0 0 0 0 0 0 0 0 0 0 0 0 0 0 0 0 0 0 0 0
d31ae8988e0cd9b6e0750b48852f068b71c39dbd [FaultTracer] Extracted changes: 0 0 0 0 0 0 0 0 0 0 0 0 0 0 0 0 0 0 0 0 0 0 0 0 0 0 0 0
0c2bbb453b95fe2b42a7ced29d0581b59e7621e2 [FaultTracer] Extracted changes: 0 0 2 0 0 0 0 0 0 0 0 0 0 0 1 1 0 0 0 0 0 0 0 0 0 0 1 1
16b1d2715eb5fd10ef392b9e83e633b11e6a10b7 [FaultTracer] Extracted changes: 0 0 0 0 0 0 0 0 0 0 0 0 0 0 0 0 0 0 0 0 0 0 0 0 0 0 0 0
c706c7da0b356e1b8835c60e8d474e1dc3e18108 [FaultTracer] Extracted changes: 0 0 0 0 0 0 0 0 0 0 0 0 0 0 0 0 0 0 0 0 0 0 0 0 0 0 0 0
64c2ea7a1639c8dd9c837c3f40a00771efc1ac9e [FaultTracer] Extracted changes: 0 0 0 0 0 0 0 0 0 0 0 0 0 0 0 0 0 0 0 0 0 0 0 0 0 0 0 0
44629126ac9b08e6df70ed3e2674840a855fb7c3 [FaultTracer] Extracted changes: 0 0 1 0 0 0 0 0 0 1 0 0 0 0 0 0 0 0 0 0 0 1 0 0 0 0 0 0
f5fa31004719344d5926939a8fc02a2128d49bcc [FaultTracer] Extracted changes: 0 0 0 0 0 0 0 0 0 0 0 0 0 0 0 0 0 0 0 0 0 0 0 0 0 0 0 0
c4cc63643c873a99fc9b6e51be72d7e5e54a7c33 [FaultTracer] Extracted changes: 0 0 0 0 0 0 0 0 0 0 0 0 0 0 0 0 0 0 0 0 0 0 0 0 0 0 0 0
0700d9a822f4d5c87da62ea472ad2aa5ff80c375 [FaultTracer] Extracted changes: 0 0 0 0 0 0 0 0 0 0 0 0 0 0 0 0 0 0 0 0 0 0 0 0 0 0 0 0
68643de0e384ae89a95ed6c401b2f71553cacf62 [FaultTracer] Extracted changes: 0 0 0 0 0 0 0 0 0 0 0 0 0 0 0 0 0 0 0 0 0 0 0 0 0 0 0 0
ee5235e84ef92fe0c51d0d115b90350cfbf991e1 [FaultTracer] Extracted changes: 0 0 0 0 0 0 0 0 0 0 0 0 0 0 0 0 0 0 0 0 0 0 0 0 0 0 0 0
a7253678aeb17a5f24300099bd06835387f57249 [FaultTracer] Extracted changes: 0 0 1 0 0 0 0 0 0 0 0 0 0 0 1 0 0 0 0 0 0 0 0 0 0 0 1 0
f6a7cde748c53838be7eba4a9a09aff65e546aa1 [FaultTracer] Extracted changes: 0 0 1 0 0 0 0 0 0 0 0 0 0 0 1 0 0 0 0 0 0 0 0 0 0 0 1 0
64d5c0f8f1a56f641031922290e53450ac447d19 [FaultTracer] Extracted changes: 0 0 1 0 0 0 0 0 0 0 0 0 0 0 1 0 0 0 0 0 0 0 0 0 0 0 1 0
19f058fb8f492cf997155e322ec843d06ce786cf [FaultTracer] Extracted changes: 0 0 0 0 0 0 0 0 0 0 0 0 0 0 0 0 0 0 0 0 0 0 0 0 0 0 0 0
744839dd20981fd85692758a7ec7bb3ce93d4ccd [FaultTracer] Extracted changes: 0 0 0 0 0 0 0 0 0 0 0 0 0 0 0 0 0 0 0 0 0 0 0 0 0 0 0 0
52590b09046ce1f5193f7ba365745236c22f2dc9 [FaultTracer] Extracted changes: 0 0 0 0 0 0 0 0 0 0 0 0 0 0 0 0 0 0 0 0 0 0 0 0 0 0 0 0
66a2599f33e715177d1886e924078df5a501667f [FaultTracer] Extracted changes: 0 0 0 0 0 0 0 0 0 0 0 0 0 0 0 0 0 0 0 0 0 0 0 0 0 0 0 0
e00ed1049fdddf7e7e28c38392f4950a619034a9 [FaultTracer] Extracted changes: 0 0 0 0 0 0 0 0 0 0 0 0 0 0 0 0 0 0 0 0 0 0 0 0 0 0 0 0
42e937e9a8015213409f63d7704bcce3ac91af00 [FaultTracer] Extracted changes: 0 0 5 0 0 0 0 0 0 0 0 0 0 0 5 0 0 0 0 0 0 0 0 0 0 0 5 0
23331ee7d8d5f607e7f8a7df4775a473c72a6d06 [FaultTracer] Extracted changes: 0 0 2 0 0 0 0 0 0 1 0 0 0 0 2 1 0 0 0 0 0 1 0 0 0 0 2 1
a5b7a1e6023167a388887f0fe4e305d378c009a9 [FaultTracer] Extracted changes: 0 0 11 11 0 0 0 0 0 0 0 0 0 0 0 0 0 0 0 0 0 0 0 0 0 0 0 0
b89bf6fad4ee58f0e615d5ef2ff76e1e5363fb8a [FaultTracer] Extracted changes: 0 1 13 5 0 0 0 0 0 0 0 0 0 0 8 0 0 0 0 0 0 0 0 0 0 0 8 0
14eb6188fcc47479aa2fbe6c8c8d0f036314ae5e [FaultTracer] Extracted changes: 0 0 0 0 0 0 0 0 0 0 0 0 0 0 0 0 0 0 0 0 0 0 0 0 0 0 0 0
0aef89f24fc2b64675405f65fc0a96e8cca25d8d [FaultTracer] Extracted changes: 0 0 0 0 0 0 0 0 0 0 0 0 0 0 0 0 0 0 0 0 0 0 0 0 0 0 0 0
915377aec2faf51cfe7f4f473464ae71f70b8642 [FaultTracer] Extracted changes: 0 0 0 0 0 0 0 0 0 0 0 0 0 0 0 0 0 0 0 0 0 0 0 0 0 0 0 0
a55ed705ff8f849d823153df1f0732c95f5b054b [FaultTracer] Extracted changes: 0 0 0 0 0 0 0 0 0 0 0 0 0 0 0 0 0 0 0 0 0 0 0 0 0 0 0 0
37bb905b11e699136394f93a4c3ddfdcc26b6cc2 [FaultTracer] Extracted changes: 0 0 1 0 0 0 0 0 0 0 0 0 0 0 0 0 0 0 0 0 0 0 0 0 0 0 0 0
c194b9a46e6c3220ac0b67b7b89ba8b33b75857b [FaultTracer] Extracted changes: 0 0 0 0 0 0 0 0 0 0 0 0 0 0 0 0 0 0 0 0 0 0 0 0 0 0 0 0
8ed2bb490f4ef785ae3f92451c0a36bedfaab0c1 [FaultTracer] Extracted changes: 0 0 0 0 0 0 0 0 0 0 0 0 0 0 0 0 0 0 0 0 0 0 0 0 0 0 0 0
15160657c66a2a0edd0557d80b088efc600b581a [FaultTracer] Extracted changes: 0 0 0 0 0 0 0 0 0 0 0 0 0 0 0 0 0 0 0 0 0 0 0 0 0 0 0 0
844dbe2c9617e1a0553175999237234d1809d87d [FaultTracer] Extracted changes: 0 0 5 0 0 0 0 0 0 0 0 0 0 0 0 16 0 0 0 0 0 0 0 0 0 0 0 5
22d5cfa209b325641fa31049da624317d22d34b6 [FaultTracer] Extracted changes: 0 0 0 0 0 0 0 0 0 0 0 0 0 0 0 0 0 0 0 0 0 0 0 0 0 0 0 0
c7b646b77e6316aaba79fd5c8f79fd2ca050f180 [FaultTracer] Extracted changes: 0 0 0 0 0 0 0 0 0 0 0 0 0 0 0 0 0 0 0 0 0 0 0 0 0 0 0 0
a43456f3ecd47c2a1899069f2b8064c5e2b1bc69 [FaultTracer] Extracted changes: 0 0 0 0 0 0 0 0 0 0 0 0 0 0 0 0 0 0 0 0 0 0 0 0 0 0 0 0
e5bdf5782a08f61a8395e0f6df5f2afacd7cde83 [FaultTracer] Extracted changes: 0 0 0 0 0 0 0 0 0 0 0 0 0 0 0 0 0 0 0 0 0 0 0 0 0 0 0 0
b6ed636830515a8c079240c562ebd60904f31b9d [FaultTracer] Extracted changes: 0 0 0 0 0 0 0 0 0 0 0 0 0 0 0 0 0 0 0 0 0 0 0 0 0 0 0 0
dfae83c687e57238ea8c96c91577707cff6f789e [FaultTracer] Extracted changes: 0 0 0 0 0 0 0 0 0 0 0 0 0 0 0 0 0 0 0 0 0 0 0 0 0 0 0 0
8d0e1eb7f659bb60450bb6b4e88cc9ae6211c7ad [FaultTracer] Extracted changes: 0 0 1 0 0 0 0 0 0 0 0 0 0 0 0 1 0 0 0 0 0 0 0 0 0 0 0 1
9fb5d17dd18e464e6b6a8bff09078ab7c013a16b [FaultTracer] Extracted changes: 0 1 3 1 0 0 0 0 0 0 0 0 0 0 0 9 0 0 0 0 0 0 0 0 0 0 0 2
7240e5b0e470644a631af27486fd7cab641b3814 [FaultTracer] Extracted changes: 0 0 5 0 0 0 0 0 0 2 0 4 0 0 0 4 0 0 0 0 0 2 0 1 0 0 0 4
d59c748f38f35c162e21d9c2e2d083dc8ce4426c [FaultTracer] Extracted changes: 0 0 2 0 0 0 0 0 0 0 0 1 0 0 1 0 0 0 0 0 0 0 0 1 0 0 1 0
2794794ff74320d52fc7034f8625c429b807265e [FaultTracer] Extracted changes: 0 0 1 0 0 0 0 0 0 0 0 0 0 0 0 1 0 0 0 0 0 0 0 0 0 0 0 1
0ba4c136fbef6f0be286ae3d427eac794e0516cb [FaultTracer] Extracted changes: 0 0 1 0 0 0 0 0 0 0 0 0 0 0 0 1 0 0 0 0 0 0 0 0 0 0 0 1
2faba4a245e13af4665e54fd2df66df0b82cdd8d [FaultTracer] Extracted changes: 0 0 0 0 0 0 0 0 0 0 0 0 0 0 0 0 0 0 0 0 0 0 0 0 0 0 0 0
5825a8044f019a9bc43d9c0cd5e167a1d498b209 [FaultTracer] Extracted changes: 0 0 0 0 0 0 0 0 0 0 0 0 0 0 0 0 0 0 0 0 0 0 0 0 0 0 0 0
8ab51e6d86f81cfa22eede0fbd70549b841bb713 [FaultTracer] Extracted changes: 0 0 0 0 0 0 0 0 0 0 0 0 0 0 0 0 0 0 0 0 0 0 0 0 0 0 0 0
b47095618768e2120f720797ff0906665401bc7e [FaultTracer] Extracted changes: 0 0 0 0 0 0 0 0 0 0 0 0 0 0 0 0 0 0 0 0 0 0 0 0 0 0 0 0
39d3580a11ba2b87783a1082d316b7b995c19eae [FaultTracer] Extracted changes: 0 0 0 0 0 0 0 0 0 0 0 0 0 0 0 0 0 0 0 0 0 0 0 0 0 0 0 0
2f629e65002acd13634c3520794616921d60f61a [FaultTracer] Extracted changes: 0 0 2 0 0 0 0 0 0 0 0 0 0 0 0 2 0 0 0 0 0 0 0 0 0 0 0 2
0691d5b3f711714b1334b3ef779da91d802deb38 [FaultTracer] Extracted changes: 0 0 1 0 0 0 0 0 0 0 0 0 0 0 0 0 0 0 0 0 0 0 0 0 0 0 0 0
ddd7110d2422832b0b277b53b5feb7a56dac51fa [FaultTracer] Extracted changes: 3 2 6 1 0 0 0 0 0 2 0 0 0 0 4 4 0 0 0 0 0 2 0 0 0 0 2 4
fe2a765297eb525037f896f6fb186b8517fb9ec4 [FaultTracer] Extracted changes: 0 0 0 0 0 0 0 0 0 0 0 0 0 0 0 0 0 0 0 0 0 0 0 0 0 0 0 0
1df27f4e5c675c6f75c706ba8d476224d8736f39 [FaultTracer] Extracted changes: 0 0 1 0 0 0 0 0 0 0 0 0 0 0 0 1 0 0 0 0 0 0 0 0 0 0 0 1
5da1debdcc76d247c4dbc8cdf25cb62cc8fd834f [FaultTracer] Extracted changes: 0 0 1 0 0 0 0 0 0 0 0 0 0 0 0 3 0 0 0 0 0 0 0 0 0 0 0 1
383986fde06327ac92061d16289358f371e61825 [FaultTracer] Extracted changes: 0 0 1 0 0 0 0 0 0 0 0 0 0 0 0 1 0 0 0 0 0 0 0 0 0 0 0 1
e3012e3fc8f5f438ed310da142a876e368fe3a75 [FaultTracer] Extracted changes: 0 4 0 0 0 0 0 0 0 0 0 0 0 0 0 0 0 0 0 0 0 0 0 0 0 0 0 0
6c82fb2c6bf00db6c6e5de0acbfcf0729e128b45 [FaultTracer] Extracted changes: 0 0 1 0 0 0 0 0 0 1 0 0 0 0 0 0 0 0 0 0 0 1 0 0 0 0 0 0
