6113248d96cca1b377f4ece00dfbd408e12a7913 [FaultTracer] Extracted changes: 1 1 1 0 0 0 0 0 0 0 0 0 0 0 0 3 0 0 0 0 0 0 0 0 0 0 0 1
dd41072886f4330f8a18990350c041bb9cc4459d [FaultTracer] Extracted changes: 0 10 2 0 0 0 0 0 0 0 0 4 1 0 0 0 0 0 0 0 0 0 0 1 1 0 0 0
3fc73e5bbc2729e04d0c6abeffb45aa43796ce5d [FaultTracer] Extracted changes: 0 0 0 0 0 0 0 0 0 0 0 0 0 0 0 0 0 0 0 0 0 0 0 0 0 0 0 0
886af7064164f7cdca106550bf6478846062ad81 [FaultTracer] Extracted changes: 0 0 0 0 0 0 0 0 0 0 0 0 0 0 0 0 0 0 0 0 0 0 0 0 0 0 0 0
468f3bdf87072216522363633f31a4d8a6b37ab0 [FaultTracer] Extracted changes: 0 0 1 0 0 0 0 0 0 0 0 0 0 0 0 1 0 0 0 0 0 0 0 0 0 0 0 1
fc935506cc3aefc6a0f6f1cb08bfaf14ab9a4ad8 [FaultTracer] Extracted changes: 0 0 1 0 0 0 0 0 0 0 0 0 0 0 0 2 0 0 0 0 0 0 0 0 0 0 0 1
52d2f38583cf1fa84a84dba1d2453c320f9f0109 [FaultTracer] Extracted changes: 0 0 1 0 0 0 0 0 0 1 0 1 0 0 0 1 0 0 0 0 0 1 0 1 0 0 0 1
c6a1ea97e780729b7af75b148737fd29120f4908 [FaultTracer] Extracted changes: 0 0 7 0 0 0 0 0 0 0 0 2 1 0 7 3 0 0 0 0 0 0 0 2 1 0 6 2
d0e8dd965ca902c94cafb9bbf4d76d66d5254eee [FaultTracer] Extracted changes: 0 1 453 453 0 0 0 0 0 0 0 0 0 0 0 0 0 0 0 0 0 0 0 0 0 0 0 0
01448b673179e257bd8cb163173c40510e1faebe [FaultTracer] Extracted changes: 0 0 0 0 0 0 0 0 0 0 0 0 0 0 0 0 0 0 0 0 0 0 0 0 0 0 0 0
2833e110ff71e16985b432da475653d8ff197842 [FaultTracer] Extracted changes: 0 0 0 0 0 0 0 0 0 0 0 0 0 0 0 0 0 0 0 0 0 0 0 0 0 0 0 0
37964d7e1e4253dfd054fdb2713716294f373cb8 [FaultTracer] Extracted changes: 0 0 0 0 0 0 0 0 0 0 0 0 0 0 0 0 0 0 0 0 0 0 0 0 0 0 0 0
00532a426e330a5d9335d45449a75ac0de70fb22 [FaultTracer] Extracted changes: 0 0 0 0 0 0 0 0 0 0 0 0 0 0 0 0 0 0 0 0 0 0 0 0 0 0 0 0
b0c94892d4a490d4a6b1005f556e6c963ca2ea21 [FaultTracer] Extracted changes: 0 0 0 0 0 0 0 0 0 0 0 0 0 0 0 0 0 0 0 0 0 0 0 0 0 0 0 0
cec6755b48d1d4bb5ee098bb347e1336e27c99e4 [FaultTracer] Extracted changes: 0 0 0 0 0 0 0 0 0 0 0 0 0 0 0 0 0 0 0 0 0 0 0 0 0 0 0 0
6a409feec75b6abcd37656bd8e862f12de2b57aa [FaultTracer] Extracted changes: 0 0 0 0 0 0 0 0 0 0 0 0 0 0 0 0 0 0 0 0 0 0 0 0 0 0 0 0
7dee6a02236ef0ff6227178905a6ed8c51dc32e8 [FaultTracer] Extracted changes: 0 0 0 0 0 0 0 0 0 0 0 0 0 0 0 0 0 0 0 0 0 0 0 0 0 0 0 0
9328003b54448d57e45d4632cddbc3f1e8c4d123 [FaultTracer] Extracted changes: 0 0 0 0 0 0 0 0 0 0 0 0 0 0 0 0 0 0 0 0 0 0 0 0 0 0 0 0
1a05f21dfa9e7eaa69a92169fe0e55c893782e5f [FaultTracer] Extracted changes: 0 0 0 0 0 0 0 0 0 0 0 0 0 0 0 0 0 0 0 0 0 0 0 0 0 0 0 0
ac0b4c25af756cb15a27b3e4c14f736bf20a9e60 [FaultTracer] Extracted changes: 0 0 0 0 0 0 0 0 0 0 0 0 0 0 0 0 0 0 0 0 0 0 0 0 0 0 0 0
4717cb4d857706b55bcfb46f46bc50a9fd47209e [FaultTracer] Extracted changes: 0 0 0 0 0 0 0 0 0 0 0 0 0 0 0 0 0 0 0 0 0 0 0 0 0 0 0 0
b10765ec35f76c97dd008de5ab3406325ed74fa1 [FaultTracer] Extracted changes: 0 0 0 0 0 0 0 0 0 0 0 0 0 0 0 0 0 0 0 0 0 0 0 0 0 0 0 0
ede821015a1869f55f923d6d2f729e889c610014 [FaultTracer] Extracted changes: 0 0 0 0 0 0 0 0 0 0 0 0 0 0 0 0 0 0 0 0 0 0 0 0 0 0 0 0
328a11695ea92e1fe13a928c8cab259b43121622 [FaultTracer] Extracted changes: 0 0 0 0 0 0 0 0 0 0 0 0 0 0 0 0 0 0 0 0 0 0 0 0 0 0 0 0
f6c8a3554e7bcf4e95d3e108c92bd9f146a680d5 [FaultTracer] Extracted changes: 0 0 0 0 0 0 0 0 0 0 0 0 0 0 0 0 0 0 0 0 0 0 0 0 0 0 0 0
0311ea672d34be21c476bc410e30d240cb60493d [FaultTracer] Extracted changes: 0 0 0 0 0 0 0 0 0 0 0 0 0 0 0 0 0 0 0 0 0 0 0 0 0 0 0 0
b71dfec827877008ac7437052bdf069e511c69f9 [FaultTracer] Extracted changes: 0 0 0 0 0 0 0 0 0 0 0 0 0 0 0 0 0 0 0 0 0 0 0 0 0 0 0 0
a57d93c9a2e44e974500395077b5c5ed635d98a1 [FaultTracer] Extracted changes: 0 0 2 0 0 0 0 0 0 0 0 0 0 0 0 1 0 0 0 0 0 0 0 0 0 0 0 1
d4b13958a824d03062873e7f3a60545ceb31a750 [FaultTracer] Extracted changes: 0 0 0 0 0 0 0 0 0 0 0 0 0 0 0 0 0 0 0 0 0 0 0 0 0 0 0 0
08d309fdda202f1459e109c8cf0eb30ecf02861b [FaultTracer] Extracted changes: 0 0 2 0 0 1 0 0 0 2 1 1 0 0 9 8 0 1 0 0 0 1 1 1 0 0 2 2
9750a75ee7bb071f717101c991e24931c93686c5 [FaultTracer] Extracted changes: 0 0 0 0 0 0 0 0 0 0 0 0 0 0 0 0 0 0 0 0 0 0 0 0 0 0 0 0
21e691553bc8f4a5f5471f46b8a5f260f5bdb703 [FaultTracer] Extracted changes: 0 0 0 0 0 0 0 0 0 0 0 0 0 0 0 0 0 0 0 0 0 0 0 0 0 0 0 0
b9ba98fa09f84d917e428bfe13325688505ec245 [FaultTracer] Extracted changes: 0 0 1 0 0 0 0 0 0 0 0 0 0 0 0 0 0 0 0 0 0 0 0 0 0 0 0 0
af689d1e2517b8b4f83159e7e96bb8ad59b00bec [FaultTracer] Extracted changes: 0 0 0 0 0 0 0 0 0 0 0 0 0 0 0 0 0 0 0 0 0 0 0 0 0 0 0 0
915bc8ca263e884ef23891af2699412bc7521b7b [FaultTracer] Extracted changes: 0 0 0 0 0 0 0 0 0 0 0 0 0 0 0 0 0 0 0 0 0 0 0 0 0 0 0 0
dd7c6323d666cb8a5d8f0f6ae440e69a7b388a8b [FaultTracer] Extracted changes: 0 0 0 0 0 0 0 0 0 0 0 0 0 0 0 0 0 0 0 0 0 0 0 0 0 0 0 0
46eb48b22f01915eb9e1cce61305b25d7d3793ae [FaultTracer] Extracted changes: 0 0 0 0 0 0 0 0 0 0 0 0 0 0 0 0 0 0 0 0 0 0 0 0 0 0 0 0
0b4928c831f37d4a3a399e80a787b1e1d2921edf [FaultTracer] Extracted changes: 0 0 0 0 0 0 0 0 0 0 0 0 0 0 0 0 0 0 0 0 0 0 0 0 0 0 0 0
14553dd05ac78430b04efa62f4ef6abde50a7a63 [FaultTracer] Extracted changes: 0 0 0 0 0 0 0 0 0 0 0 0 0 0 0 0 0 0 0 0 0 0 0 0 0 0 0 0
30d749a72250d891409e2b569325618a6fc337a7 [FaultTracer] Extracted changes: 0 0 0 0 0 0 0 0 0 0 0 0 0 0 0 0 0 0 0 0 0 0 0 0 0 0 0 0
8780e36116b415c071f95c6bf642fbc196478c58 [FaultTracer] Extracted changes: 114 0 0 0 0 0 0 0 0 0 0 0 0 0 0 0 0 0 0 0 0 0 0 0 0 0 0 0
697be9a5b21445cf658e8a39c1178474c467a175 [FaultTracer] Extracted changes: 0 0 0 0 0 0 0 0 0 0 0 0 0 0 0 0 0 0 0 0 0 0 0 0 0 0 0 0
d63ab12d89e1debfdb51cfbf94c5318bb9ec8ff7 [FaultTracer] Extracted changes: 0 0 0 0 0 0 0 0 0 0 0 0 0 0 0 0 0 0 0 0 0 0 0 0 0 0 0 0
b669547fc13c6d3c876de71cd039968dffc18f86 [FaultTracer] Extracted changes: 0 0 0 0 0 0 0 0 0 0 0 0 0 0 0 0 0 0 0 0 0 0 0 0 0 0 0 0
dfedcef4a550d7bc2f677d95e5ae72a69ad8d025 [FaultTracer] Extracted changes: 0 0 0 0 0 0 0 0 0 0 0 0 0 0 0 0 0 0 0 0 0 0 0 0 0 0 0 0
9960acfb9ff0f461bf9a4e9ba360dbdb69f38be5 [FaultTracer] Extracted changes: 0 0 0 0 0 0 0 0 0 0 0 0 0 0 0 0 0 0 0 0 0 0 0 0 0 0 0 0
6a97ed7316da3eab3e73959d4f466bcb8c77cc1b [FaultTracer] Extracted changes: 0 0 0 0 0 0 0 0 0 0 0 0 0 0 0 0 0 0 0 0 0 0 0 0 0 0 0 0
161272baebea0dc35032ba093f2e588fda3544e2 [FaultTracer] Extracted changes: 0 0 0 0 0 0 0 0 0 0 0 0 0 0 0 0 0 0 0 0 0 0 0 0 0 0 0 0
f6d190654e29abcd0cc0bef87ea7fcfa67629e1b [FaultTracer] Extracted changes: 0 0 0 0 0 0 0 0 0 0 0 0 0 0 0 0 0 0 0 0 0 0 0 0 0 0 0 0
08f2fb3db2de6101e504fab435aa8c991e113ba1 [FaultTracer] Extracted changes: 0 0 0 0 0 0 0 0 0 0 0 0 0 0 0 0 0 0 0 0 0 0 0 0 0 0 0 0
d8692f24f2e525847cc3683358d699fbac43e10f [FaultTracer] Extracted changes: 0 0 0 0 0 0 0 0 0 0 0 0 0 0 0 0 0 0 0 0 0 0 0 0 0 0 0 0
0356b92fa071934d8ba4c5e1b9ab1d0cabe71135 [FaultTracer] Extracted changes: 0 0 2 0 0 0 0 0 1 1 0 0 1 0 1 1 0 0 0 0 1 1 0 0 1 0 1 1
07576bfa83e14bc856d423dc6f469467dede6f75 [FaultTracer] Extracted changes: 0 0 1 1 0 0 0 0 0 0 0 0 0 0 0 0 0 0 0 0 0 0 0 0 0 0 0 0
dd90512032875930ed81145714011c227fec740c [FaultTracer] Extracted changes: 0 0 0 0 0 0 0 0 0 0 0 0 0 0 0 0 0 0 0 0 0 0 0 0 0 0 0 0
95bd0fe7b9f2d37836d88d1c04aba0beeba8e921 [FaultTracer] Extracted changes: 0 0 0 0 0 0 0 0 0 0 0 0 0 0 0 0 0 0 0 0 0 0 0 0 0 0 0 0
18f07f090e0d864d3c2c80efbb5ec6ee4019d5dd [FaultTracer] Extracted changes: 0 0 0 0 0 0 0 0 0 0 0 0 0 0 0 0 0 0 0 0 0 0 0 0 0 0 0 0
