47ed8d9207be8362463b9113de0c83bca871345e [FaultTracer] Extracted changes: 0 0 3 0 0 0 0 0 0 0 0 0 0 0 3 2 0 0 0 0 0 0 0 0 0 0 1 2
1d635088f697178660b6e1c9a89d2b7d3bbe2d29 [FaultTracer] Extracted changes: 0 0 0 0 0 0 0 0 0 0 0 0 0 0 0 0 0 0 0 0 0 0 0 0 0 0 0 0
2bfd81a2b1b777e252ba76f7363bb9ba8e4ac707 [FaultTracer] Extracted changes: 0 0 1 0 0 0 0 0 0 0 0 0 0 2 2 0 0 0 0 0 0 0 0 0 0 1 1 0
a4a62ed7c1e3c7aae09324f0ad1c6078f0fba471 [FaultTracer] Extracted changes: 0 0 1 0 0 0 0 0 0 0 0 0 0 0 1 1 0 0 0 0 0 0 0 0 0 0 1 1
b3a68ca842841c4b9713462d5f01742cf71a6b4a [FaultTracer] Extracted changes: 0 0 1 0 0 0 0 0 0 0 0 0 0 3 2 0 0 0 0 0 0 0 0 0 0 1 1 0
2d868410eead061d59de524bada4de9e3d2bb442 [FaultTracer] Extracted changes: 0 0 1 0 0 0 0 0 0 0 0 0 0 0 0 1 0 0 0 0 0 0 0 0 0 0 0 1
813aa11d505b9507b6795d36070806cb2d96e5c2 [FaultTracer] Extracted changes: 0 0 2 0 0 0 0 0 0 0 0 0 0 0 0 2 0 0 0 0 0 0 0 0 0 0 0 2
88b29fa46bcf6f56df4213e1ba7810735a28d755 [FaultTracer] Extracted changes: 0 0 2 0 0 0 0 1 1 0 0 0 1 0 0 0 0 0 0 1 1 0 0 0 1 0 0 0
eca374db08ffbb3dd8de746632fbd74acb8f2c92 [FaultTracer] Extracted changes: 0 1 1 0 0 0 0 0 0 0 0 0 0 0 1 0 0 0 0 0 0 0 0 0 0 0 1 0
9a87c766bb3137a50656871e5dee5a309543bc7d [FaultTracer] Extracted changes: 0 5 20 4 0 0 0 0 0 1 1 1 0 0 3 17 0 0 0 0 0 1 1 1 0 0 3 14
bf803b119be94bfd71902ea5db06075aada82672 [FaultTracer] Extracted changes: 0 0 4 4 0 0 0 0 0 0 0 0 0 0 0 0 0 0 0 0 0 0 0 0 0 0 0 0
b72d8677bfa9aa177b9b973fc76322080f5de470 [FaultTracer] Extracted changes: 0 0 0 0 0 0 0 0 0 0 0 0 0 0 0 0 0 0 0 0 0 0 0 0 0 0 0 0
030b9a7234812154b67d1145a435efc34d102465 [FaultTracer] Extracted changes: 0 0 0 0 0 0 0 0 0 0 0 0 0 0 0 0 0 0 0 0 0 0 0 0 0 0 0 0
dd9cb37df54a3016e8efb283732012ae14bea1cf [FaultTracer] Extracted changes: 0 0 1 0 0 0 0 0 0 0 0 0 0 0 0 0 0 0 0 0 0 0 0 0 0 0 0 0
4ebd5b61720a680e8507f0a4f1eebf0d654e8e09 [FaultTracer] Extracted changes: 0 0 0 0 0 0 0 0 0 0 0 0 0 0 0 0 0 0 0 0 0 0 0 0 0 0 0 0
ab7fd6c92a05dbd20e874f7ee23c452218f09280 [FaultTracer] Extracted changes: 0 0 0 0 0 0 0 0 0 0 0 0 0 0 0 0 0 0 0 0 0 0 0 0 0 0 0 0
afa12022716391a9faa574b43d5e75b7f7f4f958 [FaultTracer] Extracted changes: 0 1 10 0 0 0 0 0 4 4 0 0 1 3 18 40 0 0 0 0 2 2 0 0 1 3 5 9
a7294ccd794d2d3f55b67b75b9798de151451fb8 [FaultTracer] Extracted changes: 0 0 0 0 0 0 0 0 0 0 0 0 0 0 0 0 0 0 0 0 0 0 0 0 0 0 0 0
799a38a89fdbfe50d98c079409db72afce7494e2 [FaultTracer] Extracted changes: 0 0 0 0 0 0 0 0 0 0 0 0 0 0 0 0 0 0 0 0 0 0 0 0 0 0 0 0
763dfdfe8934b4ee9e6be9e6103e1c0437192754 [FaultTracer] Extracted changes: 0 0 1 0 0 0 1 0 0 0 0 0 1 0 0 0 0 0 1 0 0 0 0 0 1 0 0 0
9ce4e1a371418e5eacc69227885815f9a4221c65 [FaultTracer] Extracted changes: 0 0 5 0 0 0 0 0 0 2 0 0 2 7 37 9 0 0 0 0 0 2 0 0 2 3 5 5
c9b1c8f9662f865a613632e1d390922050130b60 [FaultTracer] Extracted changes: 0 0 4 0 0 0 1 0 0 0 0 0 0 0 1 2 0 0 1 0 0 0 0 0 0 0 1 2
564345179f3f33d249daca36f0054773996d5782 [FaultTracer] Extracted changes: 0 0 1 1 0 0 0 0 0 0 0 0 0 0 0 0 0 0 0 0 0 0 0 0 0 0 0 0
c7f7da754a911302dcaa6935be6fded84e1ac348 [FaultTracer] Extracted changes: 0 0 0 0 0 0 0 0 0 0 0 0 0 0 0 0 0 0 0 0 0 0 0 0 0 0 0 0
75da8c1c9584aa9a5f1962186ee9f7c320456bd3 [FaultTracer] Extracted changes: 0 0 0 0 0 0 0 0 0 0 0 0 0 0 0 0 0 0 0 0 0 0 0 0 0 0 0 0
6b5d0732518dd073d58845ada585e88e13739c4e [FaultTracer] Extracted changes: 0 0 0 0 0 0 0 0 0 0 0 0 0 0 0 0 0 0 0 0 0 0 0 0 0 0 0 0
85a4fdd0ead28ad4c2f489116b34166c2761e4a3 [FaultTracer] Extracted changes: 0 0 0 0 0 0 0 0 0 0 0 0 0 0 0 0 0 0 0 0 0 0 0 0 0 0 0 0
7b62d0155efebb2748918a5e4f67ac0ee2e759da [FaultTracer] Extracted changes: 0 4 0 0 0 0 0 0 0 0 0 0 0 0 0 0 0 0 0 0 0 0 0 0 0 0 0 0
4cbb388ba9099be121f81d75000acc3af93bf993 [FaultTracer] Extracted changes: 0 0 0 0 0 0 0 0 0 0 0 0 0 0 0 0 0 0 0 0 0 0 0 0 0 0 0 0
2a8061f4ad8903a9c6d46b404973bdbd84385d39 [FaultTracer] Extracted changes: 0 0 0 0 0 0 0 0 0 0 0 0 0 0 0 0 0 0 0 0 0 0 0 0 0 0 0 0
6f4f676c4b730f7639deef9af205b596fa0aab8e [FaultTracer] Extracted changes: 0 0 2 2 0 0 0 0 0 0 0 0 0 0 0 0 0 0 0 0 0 0 0 0 0 0 0 0
87497c72460c9c58f829a372d741b386fc2ac8f8 [FaultTracer] Extracted changes: 0 0 2 2 0 0 0 0 0 0 0 0 0 0 0 0 0 0 0 0 0 0 0 0 0 0 0 0
921d0d60d40d8fbda29f14a64e848c70026ea32e [FaultTracer] Extracted changes: 0 0 13 7 0 0 0 0 0 0 0 0 0 6 6 0 0 0 0 0 0 0 0 0 0 6 6 0
ffae3bdbb6740e336a223a82a3dd545c24cde7b5 [FaultTracer] Extracted changes: 0 0 0 0 0 0 0 0 0 0 0 0 0 0 0 0 0 0 0 0 0 0 0 0 0 0 0 0
f9e72000a17eb9d524b38a9f2c982c037dd94891 [FaultTracer] Extracted changes: 0 0 1 0 0 0 0 0 0 1 0 0 0 0 3 3 0 0 0 0 0 1 0 0 0 0 1 1
581b474f4b194731eb9cb22cdde7330a1ec81c3b [FaultTracer] Extracted changes: 0 0 1 0 0 0 0 0 0 3 0 0 0 0 3 3 0 0 0 0 0 1 0 0 0 0 1 1
e0d17fed51f5018fc34578699d824c20efc44368 [FaultTracer] Extracted changes: 0 0 1 0 0 0 0 0 0 4 0 0 0 0 3 3 0 0 0 0 0 1 0 0 0 0 1 1
4fc5b3402c58d6a4b317bf23b896ea91d22af6fe [FaultTracer] Extracted changes: 4 0 0 0 0 0 0 0 0 0 0 0 0 0 0 0 0 0 0 0 0 0 0 0 0 0 0 0
ca01fdf5808dcaf5bdb6e1c09a7de70a0adc0d28 [FaultTracer] Extracted changes: 0 0 1 1 0 0 0 0 0 0 0 0 0 0 0 0 0 0 0 0 0 0 0 0 0 0 0 0
d8e2f892e48423fda73204be3ec239d282e71c65 [FaultTracer] Extracted changes: 0 0 0 0 0 0 0 0 0 0 0 0 0 0 0 0 0 0 0 0 0 0 0 0 0 0 0 0
aaabfe8d2d8d8c963310cdbd8fd0e81c50006992 [FaultTracer] Extracted changes: 0 0 0 0 0 0 0 0 0 0 0 0 0 0 0 0 0 0 0 0 0 0 0 0 0 0 0 0
b95df5ad1ecfe158f4acbd6e62c8429e35969ae2 [FaultTracer] Extracted changes: 3 0 0 0 0 0 0 0 0 0 0 0 0 0 0 0 0 0 0 0 0 0 0 0 0 0 0 0
8d6d088622f8e4ea89e66ccbe097510fb4c932fd [FaultTracer] Extracted changes: 0 0 0 0 0 0 0 0 0 0 0 0 0 0 0 0 0 0 0 0 0 0 0 0 0 0 0 0
81585a3c46bb05e86e11d88ba25d14b90d488577 [FaultTracer] Extracted changes: 0 0 0 0 0 0 0 0 0 0 0 0 0 0 0 0 0 0 0 0 0 0 0 0 0 0 0 0
f0943a7242041a16c8f7fca845592e48bb19ac74 [FaultTracer] Extracted changes: 0 0 0 0 0 0 0 0 0 0 0 0 0 0 0 0 0 0 0 0 0 0 0 0 0 0 0 0
8bcf7e23a62878d1efe3bbc1c57287d25d161bab [FaultTracer] Extracted changes: 0 0 0 0 0 0 0 0 0 0 0 0 0 0 0 0 0 0 0 0 0 0 0 0 0 0 0 0
d1123894d33922e7c8ca838f9dac9bdceefa3f7a [FaultTracer] Extracted changes: 0 0 2 0 0 0 0 0 0 0 0 0 0 0 0 2 0 0 0 0 0 0 0 0 0 0 0 2
fb83ba3fdb46537a36832a900f124d4c400f7ed9 [FaultTracer] Extracted changes: 0 0 3 0 0 0 0 0 0 0 0 0 0 0 0 3 0 0 0 0 0 0 0 0 0 0 0 3
e779883b29a67d411493f985de984ffb8088ca05 [FaultTracer] Extracted changes: 0 0 1 0 0 0 0 0 0 0 0 0 1 0 0 0 0 0 0 0 0 0 0 0 1 0 0 0
a71c820baeb91025eaa7f07b172a39500c6f5692 [FaultTracer] Extracted changes: 0 0 1 0 0 0 0 0 0 0 0 0 0 1 1 1 0 0 0 0 0 0 0 0 0 1 1 1
a4eff51bedd73a0ea56afc23b1021187dd03561b [FaultTracer] Extracted changes: 0 0 9 0 0 0 0 0 0 0 0 0 1 1 1 10 0 0 0 0 0 0 0 0 1 1 1 8
8f6bedeb724fa78583c26423aaece05cfddc04c9 [FaultTracer] Extracted changes: 0 0 7 0 0 0 0 0 0 0 0 0 1 1 1 6 0 0 0 0 0 0 0 0 1 1 1 6
2fcfce303989ae14b5b51f4c9fc92e97bc540ba8 [FaultTracer] Extracted changes: 0 0 11 0 0 0 0 0 0 1 0 2 1 2 3 13 0 0 0 0 0 1 0 1 1 2 2 10
e38bbb9f4191d0d21dea0ba31fdc131b97a5597b [FaultTracer] Extracted changes: 0 0 9 0 0 0 0 0 0 0 0 0 1 1 1 10 0 0 0 0 0 0 0 0 1 1 1 8
dcd8015fa6baefaa9ca3d6c9bd792c7f0bde08ac [FaultTracer] Extracted changes: 0 0 4 0 0 0 0 0 0 1 2 0 0 3 1 5 0 0 0 0 0 1 1 0 0 2 1 4
fdc116f0bcda6d1fffbbe505d0687b0406e92fa6 [FaultTracer] Extracted changes: 0 0 2 0 0 0 0 0 0 1 0 2 0 1 2 3 0 0 0 0 0 1 0 1 0 1 1 2
3e5c248f739b7978c057b0fbd3d0117f4bc2302c [FaultTracer] Extracted changes: 0 0 0 0 0 0 0 0 0 0 0 0 0 0 0 0 0 0 0 0 0 0 0 0 0 0 0 0
953c23242b0d84dd7802dbbc2c457b897d832537 [FaultTracer] Extracted changes: 0 0 0 0 0 0 0 0 0 0 0 0 0 0 0 0 0 0 0 0 0 0 0 0 0 0 0 0
d7e7b226d87bae7d71072802dfca8b80b55fea19 [FaultTracer] Extracted changes: 0 0 0 0 0 0 0 0 0 0 0 0 0 0 0 0 0 0 0 0 0 0 0 0 0 0 0 0
41b21f83d91e30fa5e679c071f5e7ec9240781be [FaultTracer] Extracted changes: 0 0 0 0 0 0 0 0 0 0 0 0 0 0 0 0 0 0 0 0 0 0 0 0 0 0 0 0
a614e852048ecda642ef1de00ce80a3193bae9e0 [FaultTracer] Extracted changes: 0 0 1 0 0 0 0 0 0 0 0 0 0 0 2 0 0 0 0 0 0 0 0 0 0 0 1 0
8a8ca83f25bffb9927f67469f2230ed0067d1256 [FaultTracer] Extracted changes: 0 0 1 0 0 0 0 0 0 0 0 0 0 0 0 1 0 0 0 0 0 0 0 0 0 0 0 1
66608db56c41e91ee34fdc1e6157d69b69893fad [FaultTracer] Extracted changes: 0 0 1 0 0 0 0 0 0 0 0 0 0 0 0 1 0 0 0 0 0 0 0 0 0 0 0 1
75676e5d4e295faf4217932223892e8808f8f873 [FaultTracer] Extracted changes: 0 0 1 0 0 0 0 0 0 0 0 0 0 0 0 1 0 0 0 0 0 0 0 0 0 0 0 1
bd557f1b8bbb8c9603d6edf642a8db4c4c8db21b [FaultTracer] Extracted changes: 0 0 0 0 0 0 0 0 0 0 0 0 0 0 0 0 0 0 0 0 0 0 0 0 0 0 0 0
7e1c299da29a3e8f7a5f3feab5c69fe46f61ec27 [FaultTracer] Extracted changes: 0 4 0 0 0 0 0 0 0 0 0 0 0 0 0 0 0 0 0 0 0 0 0 0 0 0 0 0
43800e34600d5045e7770af325fc18b84e8a9f37 [FaultTracer] Extracted changes: 0 4 0 0 0 0 0 0 0 0 0 0 0 0 0 0 0 0 0 0 0 0 0 0 0 0 0 0
d7f0ca1011603d0ed70ee167e3ad9861bcbf756f [FaultTracer] Extracted changes: 0 2 0 0 0 0 0 0 0 0 0 0 0 0 0 0 0 0 0 0 0 0 0 0 0 0 0 0
7398af480396894c5f246f233b98fa3a3efa0b74 [FaultTracer] Extracted changes: 0 3 0 0 0 0 0 0 0 0 0 0 0 0 0 0 0 0 0 0 0 0 0 0 0 0 0 0
67566fe60b2f98dd586a6512889f9973d4ef380f [FaultTracer] Extracted changes: 0 1 0 0 0 0 0 0 0 0 0 0 0 0 0 0 0 0 0 0 0 0 0 0 0 0 0 0
7bf9d3dbc5998608e85f165b6c93bb7fc98e66fc [FaultTracer] Extracted changes: 1 30 9 4 0 0 0 0 0 0 0 2 0 1 7 0 0 0 0 0 0 0 0 1 0 1 4 0
