[INFO] Scanning for projects...
[INFO]                                                                         
[INFO] ------------------------------------------------------------------------
[INFO] Building stream-lib 2.9.5-SNAPSHOT
[INFO] ------------------------------------------------------------------------
[INFO] 
[INFO] --- jacoco-maven-plugin:0.7.1.201405082137:prepare-agent (default) @ stream ---
[INFO] argLine set to -javaagent:/home/lingming/.m2/repository/org/jacoco/org.jacoco.agent/0.7.1.201405082137/org.jacoco.agent-0.7.1.201405082137-runtime.jar=destfile=/home/lingming/hybrid-rts/subjects/stream-lib/3c47f4c08a6fdba811facd57e7bc8c27c08a2f49/target/jacoco.exec
[INFO] 
[INFO] --- maven-resources-plugin:2.6:resources (default-resources) @ stream ---
[INFO] Using 'UTF-8' encoding to copy filtered resources.
[INFO] skip non existing resourceDirectory /home/lingming/hybrid-rts/subjects/stream-lib/3c47f4c08a6fdba811facd57e7bc8c27c08a2f49/src/main/resources
[INFO] 
[INFO] --- maven-compiler-plugin:3.1:compile (default-compile) @ stream ---
[INFO] Nothing to compile - all classes are up to date
[INFO] 
[INFO] --- maven-resources-plugin:2.6:testResources (default-testResources) @ stream ---
[INFO] Using 'UTF-8' encoding to copy filtered resources.
[INFO] Copying 1 resource
[INFO] 
[INFO] --- maven-compiler-plugin:3.1:testCompile (default-testCompile) @ stream ---
[INFO] Nothing to compile - all classes are up to date
[INFO] 
[INFO] --- maven-surefire-plugin:2.17:test (default-test) @ stream ---
[INFO] Surefire report directory: /home/lingming/hybrid-rts/subjects/stream-lib/3c47f4c08a6fdba811facd57e7bc8c27c08a2f49/target/surefire-reports

-------------------------------------------------------
 T E S T S
-------------------------------------------------------
Running com.clearspring.analytics.hash.TestMurmurHash
Tests run: 2, Failures: 0, Errors: 0, Skipped: 0, Time elapsed: 0.027 sec - in com.clearspring.analytics.hash.TestMurmurHash
Running com.clearspring.analytics.hash.TestLookup3Hash
Tests run: 2, Failures: 0, Errors: 0, Skipped: 0, Time elapsed: 0.006 sec - in com.clearspring.analytics.hash.TestLookup3Hash
Running com.clearspring.analytics.stream.TestConcurrentStreamSummary
Geometric:
0
1
2
3
4
[(24942: 0, e: 0),(18783: 1, e: 0),(14235: 2, e: 0),(10584: 3, e: 0),(7801: 4, e: 0),(5886: 5, e: 0),(4516: 6, e: 157),(4418: 8, e: 4416),(4417: 10, e: 4416),(4418: 12, e: 4417)]
[(1: X, e: 0)]
[(2: X, e: 0)]
[(2: X, e: 0),(1: Y, e: 0)]
[(2: X, e: 0),(1: Y, e: 0),(1: Z, e: 0)]
[(2: X, e: 0),(2: A, e: 1),(1: Z, e: 0)]
[(2: X, e: 0),(2: A, e: 1),(2: B, e: 1)]
[(2: A, e: 1),(2: B, e: 1),(3: C, e: 2)]
[(3: X, e: 2),(2: B, e: 1),(3: C, e: 2)]
[(4: X, e: 2),(2: B, e: 1),(3: C, e: 2)]
[(4: X, e: 2),(3: A, e: 2),(3: C, e: 2)]
[(4: X, e: 2),(4: A, e: 2),(3: C, e: 2)]
[(4: X, e: 2),(5: A, e: 2),(3: C, e: 2)]
Tests run: 4, Failures: 0, Errors: 0, Skipped: 0, Time elapsed: 0.051 sec - in com.clearspring.analytics.stream.TestConcurrentStreamSummary
Running com.clearspring.analytics.stream.quantile.TDigestTest
# big 4506 bytes
# small 4506 bytes
# 2.533427us per point
# 852 centroids
quantile	2	0.001000	0.000016	-0.000010	-0.000010	0.009705
quantile	2	0.010000	0.000266	0.000044	-0.000435	0.043495
quantile	2	0.100000	0.001111	0.000777	0.004654	0.046542
quantile	2	0.200000	0.001048	-0.000857	-0.001655	0.008276
quantile	2	0.300000	0.001002	-0.005428	0.000597	0.001990
quantile	2	0.500000	0.002338	0.003358	0.003051	0.006103
cdf	2	0.001000	-0.000030	0.000006	0.000007	0.007173
cdf	2	0.010000	-0.000190	-0.000059	-0.000113	0.011324
cdf	2	0.100000	-0.001070	-0.000102	0.000222	0.002223
cdf	2	0.200000	-0.000950	0.000023	0.000353	0.001763
cdf	2	0.300000	-0.001110	-0.000750	0.000273	0.000909
cdf	2	0.500000	-0.002440	-0.000864	-0.000272	0.000543
quantile	5	0.001000	0.000219	-0.000003	-0.000011	0.010649
quantile	5	0.010000	-0.000117	0.000098	0.000045	0.004465
quantile	5	0.100000	0.000243	0.001113	-0.002944	0.029439
quantile	5	0.200000	-0.000056	0.001307	-0.003135	0.015673
quantile	5	0.300000	0.001073	-0.004081	0.004474	0.014913
quantile	5	0.500000	0.000891	0.001368	0.007740	0.015480
cdf	5	0.001000	-0.000230	0.000003	-0.000000	0.000326
cdf	5	0.010000	0.000100	-0.000003	-0.000015	0.001527
cdf	5	0.100000	-0.000190	-0.000116	-0.000473	0.004729
cdf	5	0.200000	0.000080	0.000001	-0.000456	0.002279
cdf	5	0.300000	-0.001230	-0.000538	0.000510	0.001699
cdf	5	0.500000	-0.001030	-0.000623	0.000738	0.001476
quantile	10	0.001000	-0.000128	-0.000037	-0.000050	0.050407
quantile	10	0.010000	-0.000259	-0.000004	-0.000040	0.003989
quantile	10	0.100000	-0.000484	0.000241	-0.004207	0.042075
quantile	10	0.200000	0.000581	0.000904	0.004575	0.022875
quantile	10	0.300000	0.002187	-0.001809	-0.001842	0.006141
quantile	10	0.500000	0.001205	-0.006186	-0.000823	0.001645
cdf	10	0.001000	0.000200	0.000002	0.000002	0.002264
cdf	10	0.010000	0.000290	-0.000030	-0.000054	0.005396
cdf	10	0.100000	0.000460	-0.000012	-0.000392	0.003918
cdf	10	0.200000	-0.000430	-0.000150	0.000170	0.000852
cdf	10	0.300000	-0.001990	0.000204	0.000320	0.001068
cdf	10	0.500000	-0.001250	-0.000520	0.001075	0.002150
quantile	20	0.001000	0.000025	-0.000027	-0.000002	0.001728
quantile	20	0.010000	0.000322	-0.000206	-0.000173	0.017287
quantile	20	0.100000	0.002969	0.000448	0.002265	0.022655
quantile	20	0.200000	0.001274	0.001016	0.001852	0.009260
quantile	20	0.300000	0.001187	-0.001313	-0.008982	0.029940
quantile	20	0.500000	-0.000285	-0.007642	0.009524	0.019049
cdf	20	0.001000	-0.000010	-0.000006	-0.000009	0.009441
cdf	20	0.010000	-0.000230	-0.000004	0.000018	0.001779
cdf	20	0.100000	-0.002640	-0.000046	0.000029	0.000293
cdf	20	0.200000	-0.001180	-0.000029	0.000119	0.000597
cdf	20	0.300000	-0.001140	-0.000393	-0.000328	0.001094
cdf	20	0.500000	0.000280	-0.000307	0.000501	0.001002
quantile	50	0.001000	-0.000204	-0.000024	-0.000024	0.023554
quantile	50	0.010000	-0.000009	-0.000031	-0.000050	0.004963
quantile	50	0.100000	-0.000574	0.000184	-0.002290	0.022904
quantile	50	0.200000	-0.000751	0.003277	0.004192	0.020962
quantile	50	0.300000	-0.001017	-0.000319	-0.013869	0.046229
quantile	50	0.500000	0.001029	0.000874	-0.001055	0.002110
cdf	50	0.001000	0.000160	0.000004	0.000006	0.006369
cdf	50	0.010000	0.000010	-0.000002	0.000001	0.000121
cdf	50	0.100000	0.000500	0.000019	-0.000006	0.000060
cdf	50	0.200000	0.000670	0.000385	0.000404	0.002021
cdf	50	0.300000	0.001220	-0.000565	-0.000313	0.001045
cdf	50	0.500000	-0.001130	0.000013	-0.000580	0.001159
quantile	100	0.001000	0.000135	-0.000056	-0.000035	0.035088
quantile	100	0.010000	0.000331	-0.000006	0.000042	0.004232
quantile	100	0.100000	0.000658	0.000751	0.001020	0.010201
quantile	100	0.200000	0.001183	0.000756	0.000565	0.002827
quantile	100	0.300000	0.000474	-0.000654	-0.000943	0.003144
quantile	100	0.500000	0.000067	-0.001080	0.008411	0.016823
cdf	100	0.001000	-0.000120	0.000007	-0.000003	0.003304
cdf	100	0.010000	-0.000390	-0.000030	-0.000038	0.003778
cdf	100	0.100000	-0.000540	-0.000041	0.000067	0.000668
cdf	100	0.200000	-0.001170	0.000323	-0.000462	0.002312
cdf	100	0.300000	-0.000430	-0.000095	0.000176	0.000586
cdf	100	0.500000	-0.000110	-0.000300	0.002432	0.004864
# 1.389279us per point
# 847 centroids
# 1.472218us per point
# 835 centroids
# 2.136170us per point
# 863 centroids
gamma	2	0.00100000	0.0008800000000	0.9978500000	188	108
gamma	2	0.01000000	-0.01000000000	0.9888500000	188	108
gamma	2	0.10000000	0.07174000000	0.8988500000	188	108
gamma	2	0.20000000	0.1724300000	0.7999900000	188	108
gamma	2	0.30000000	0.1041400000	0.6999900000	188	108
gamma	2	0.50000000	0.03798000000	0.4999900000	188	108
gamma	2	0.70000000	-0.0005100000000	0.3000000000	188	108
gamma	2	0.80000000	-0.8000000000	0.2000000000	188	108
gamma	2	0.90000000	0.06937000000	0.1000000000	188	108
gamma	2	0.99000000	0.008020000000	0.01000000000	188	108
gamma	2	0.99900000	-0.0009000000000	0.001000000000	188	108
gamma	5	0.00100000	0.0001700000000	0.8297000000	388	268
gamma	5	0.01000000	0.0006500000000	0.8207000000	388	268
gamma	5	0.10000000	-0.1000000000	0.7307000000	388	268
gamma	5	0.20000000	0.01033000000	0.6832200000	388	268
gamma	5	0.30000000	-0.3000000000	0.5832200000	388	268
gamma	5	0.50000000	0.02103000000	0.4676200000	388	268
gamma	5	0.70000000	0.01584000000	0.2988100000	388	268
gamma	5	0.80000000	0.01627000000	0.1988100000	388	268
gamma	5	0.90000000	0.02333000000	0.1000000000	388	268
gamma	5	0.99000000	0.001340000000	0.01000000000	388	268
gamma	5	0.99900000	9.000000000e-05	0.001000000000	388	268
gamma	10	0.00100000	7.000000000e-05	0.4793400000	664	492
gamma	10	0.01000000	-0.01000000000	0.4703400000	664	492
gamma	10	0.10000000	0.0003100000000	0.4151300000	664	492
gamma	10	0.20000000	0.005280000000	0.3521400000	664	492
gamma	10	0.30000000	-0.3000000000	0.3343500000	664	492
gamma	10	0.50000000	-0.5000000000	0.2752200000	664	492
gamma	10	0.70000000	0.009810000000	0.2274100000	664	492
gamma	10	0.80000000	0.001900000000	0.1663400000	664	492
gamma	10	0.90000000	-0.005280000000	0.09881000000	664	492
gamma	10	0.99000000	-0.002390000000	0.01000000000	664	492
gamma	10	0.99900000	-4.000000000e-05	0.001000000000	664	492
gamma	20	0.00100000	-0.001000000000	0.2064700000	1164	812
gamma	20	0.01000000	-0.003830000000	0.1974700000	1164	812
gamma	20	0.10000000	0.001700000000	0.1383700000	1164	812
gamma	20	0.20000000	2.000000000e-05	0.09286000000	1164	812
gamma	20	0.30000000	-0.003600000000	0.06034000000	1164	812
gamma	20	0.50000000	-0.002320000000	0.05039000000	1164	812
gamma	20	0.70000000	0.009350000000	0.02505000000	1164	812
gamma	20	0.80000000	-0.004190000000	0.005890000000	1164	812
gamma	20	0.90000000	0.004210000000	0.06667000000	1164	812
gamma	20	0.99000000	0.0005600000000	0.009990000000	1164	812
gamma	20	0.99900000	0.000000000	0.001000000000	1164	812
gamma	50	0.00100000	-1.000000000e-05	-0.001000000000	2463	2332
gamma	50	0.01000000	0.0001700000000	-0.01000000000	2463	2332
gamma	50	0.10000000	0.0006200000000	0.03656000000	2463	2332
gamma	50	0.20000000	-0.02591000000	0.007310000000	2463	2332
gamma	50	0.30000000	0.002660000000	0.007160000000	2463	2332
gamma	50	0.50000000	-0.02686000000	0.01387000000	2463	2332
gamma	50	0.70000000	0.0009500000000	0.005920000000	2463	2332
gamma	50	0.80000000	0.0004200000000	0.006990000000	2463	2332
gamma	50	0.90000000	-0.0007400000000	0.008450000000	2463	2332
gamma	50	0.99000000	0.0003400000000	0.009980000000	2463	2332
gamma	50	0.99900000	-5.000000000e-05	0.001000000000	2463	2332
gamma	100	0.00100000	0.000000000	-0.001000000000	4533	4268
gamma	100	0.01000000	0.0002200000000	-0.01000000000	4533	4268
gamma	100	0.10000000	-0.0009200000000	0.006220000000	4533	4268
gamma	100	0.20000000	-0.003420000000	0.008160000000	4533	4268
gamma	100	0.30000000	0.0001900000000	0.005820000000	4533	4268
gamma	100	0.50000000	-0.002890000000	0.01392000000	4533	4268
gamma	100	0.70000000	0.001640000000	0.01071000000	4533	4268
gamma	100	0.80000000	0.001210000000	0.005350000000	4533	4268
gamma	100	0.90000000	0.0005600000000	0.007760000000	4533	4268
gamma	100	0.99000000	-1.000000000e-05	0.008670000000	4533	4268
gamma	100	0.99900000	-3.000000000e-05	0.001000000000	4533	4268
gamma	200	0.00100000	-1.500000000e-05	-0.001000000000	8014	8972
gamma	200	0.01000000	-7.000000000e-05	-0.01000000000	8014	8972
gamma	200	0.10000000	-0.0002100000000	0.003170000000	8014	8972
gamma	200	0.20000000	0.000000000	0.001210000000	8014	8972
gamma	200	0.30000000	0.002030000000	0.001060000000	8014	8972
gamma	200	0.50000000	-0.0006200000000	0.002060000000	8014	8972
gamma	200	0.70000000	0.000000000	0.001010000000	8014	8972
gamma	200	0.80000000	-0.0002800000000	0.004860000000	8014	8972
gamma	200	0.90000000	-9.000000000e-05	0.002970000000	8014	8972
gamma	200	0.99000000	-5.000000000e-05	0.006780000000	8014	8972
gamma	200	0.99900000	-1.500000000e-05	0.001000000000	8014	8972
gamma	500	0.00100000	-1.500000000e-05	-0.001000000000	17230	21132
gamma	500	0.01000000	-3.000000000e-05	-0.01000000000	17230	21132
gamma	500	0.10000000	-0.0003100000000	0.001570000000	17230	21132
gamma	500	0.20000000	-7.000000000e-05	0.004610000000	17230	21132
gamma	500	0.30000000	-0.0004200000000	0.002590000000	17230	21132
gamma	500	0.50000000	-0.0002000000000	0.003200000000	17230	21132
gamma	500	0.70000000	0.001160000000	0.003070000000	17230	21132
gamma	500	0.80000000	0.0003100000000	0.002070000000	17230	21132
gamma	500	0.90000000	-0.0001400000000	0.004470000000	17230	21132
gamma	500	0.99000000	-4.000000000e-05	0.002720000000	17230	21132
gamma	500	0.99900000	-1.500000000e-05	0.0009600000000	17230	21132
gamma	1000	0.00100000	-1.500000000e-05	-0.001000000000	30626	46956
gamma	1000	0.01000000	-4.000000000e-05	-0.01000000000	30626	46956
gamma	1000	0.10000000	4.000000000e-05	0.0005500000000	30626	46956
gamma	1000	0.20000000	-0.0001800000000	0.001490000000	30626	46956
gamma	1000	0.30000000	6.000000000e-05	0.0006500000000	30626	46956
gamma	1000	0.50000000	-0.0003300000000	0.001440000000	30626	46956
gamma	1000	0.70000000	-0.0001400000000	0.001480000000	30626	46956
gamma	1000	0.80000000	-2.000000000e-05	0.001270000000	30626	46956
gamma	1000	0.90000000	1.000000000e-05	0.0009300000000	30626	46956
gamma	1000	0.99000000	-5.000000000e-05	0.0003500000000	30626	46956
gamma	1000	0.99900000	-1.500000000e-05	0.001000000000	30626	46956
gamma	2000	0.00100000	-1.500000000e-05	-0.001000000000	54881	88012
gamma	2000	0.01000000	-1.500000000e-05	-0.01000000000	54881	88012
gamma	2000	0.10000000	3.000000000e-05	0.0004400000000	54881	88012
gamma	2000	0.20000000	-0.0001000000000	0.0007700000000	54881	88012
gamma	2000	0.30000000	0.0002500000000	0.0008000000000	54881	88012
gamma	2000	0.50000000	5.000000000e-05	0.001020000000	54881	88012
gamma	2000	0.70000000	-0.0001700000000	0.001030000000	54881	88012
gamma	2000	0.80000000	-3.000000000e-05	0.0009800000000	54881	88012
gamma	2000	0.90000000	-6.000000000e-05	0.0008500000000	54881	88012
gamma	2000	0.99000000	-1.500000000e-05	0.0005300000000	54881	88012
gamma	2000	0.99900000	-1.500000000e-05	0.0004800000000	54881	88012
uniform	2	0.00100000	-0.0003800000000	0.2494600000	179	124
uniform	2	0.01000000	-0.009380000000	0.2404600000	179	124
uniform	2	0.10000000	0.02127000000	0.4002600000	179	124
uniform	2	0.20000000	-0.02844000000	0.3002600000	179	124
uniform	2	0.30000000	-0.04303000000	0.2002600000	179	124
uniform	2	0.50000000	-0.1464900000	0.0002600000000	179	124
uniform	2	0.70000000	-0.04894000000	0.3000000000	179	124
uniform	2	0.80000000	-0.03059000000	0.2000000000	179	124
uniform	2	0.90000000	-0.01745000000	0.1000000000	179	124
uniform	2	0.99000000	0.0004700000000	0.01000000000	179	124
uniform	2	0.99900000	0.0002400000000	0.001000000000	179	124
uniform	5	0.00100000	-0.0002300000000	0.1240900000	385	236
uniform	5	0.01000000	-0.003830000000	0.1150900000	385	236
uniform	5	0.10000000	-0.001980000000	0.02509000000	385	236
uniform	5	0.20000000	-0.03871000000	0.05050000000	385	236
uniform	5	0.30000000	0.04497000000	0.07565000000	385	236
uniform	5	0.50000000	0.1473700000	0.0009300000000	385	236
uniform	5	0.70000000	0.0002100000000	0.1755000000	385	236
uniform	5	0.80000000	-0.007560000000	0.07550000000	385	236
uniform	5	0.90000000	0.06830000000	0.1000000000	385	236
uniform	5	0.99000000	0.002160000000	0.01000000000	385	236
uniform	5	0.99900000	-7.000000000e-05	0.001000000000	385	236
uniform	10	0.00100000	-0.0001300000000	0.06288000000	622	476
uniform	10	0.01000000	0.0007100000000	0.05388000000	622	476
uniform	10	0.10000000	0.003620000000	0.02666000000	622	476
uniform	10	0.20000000	-0.007800000000	0.05005000000	622	476
uniform	10	0.30000000	0.01425000000	0.01329000000	622	476
uniform	10	0.50000000	-0.02350000000	0.0007800000000	622	476
uniform	10	0.70000000	0.04107000000	0.05098000000	622	476
uniform	10	0.80000000	-0.04723000000	0.01500000000	622	476
uniform	10	0.90000000	-0.01329000000	0.03921000000	622	476
uniform	10	0.99000000	-0.001410000000	0.01000000000	622	476
uniform	10	0.99900000	6.000000000e-05	0.001000000000	622	476
uniform	20	0.00100000	-0.0001100000000	0.06097000000	1114	844
uniform	20	0.01000000	-0.0002300000000	0.05197000000	1114	844
uniform	20	0.10000000	-0.004450000000	0.02562000000	1114	844
uniform	20	0.20000000	-0.003820000000	0.05008000000	1114	844
uniform	20	0.30000000	0.006590000000	0.07421000000	1114	844
uniform	20	0.50000000	-0.03528000000	0.03168000000	1114	844
uniform	20	0.70000000	-0.008910000000	0.05160000000	1114	844
uniform	20	0.80000000	-0.009070000000	0.07568000000	1114	844
uniform	20	0.90000000	-0.004470000000	0.1000000000	1114	844
uniform	20	0.99000000	-0.0002300000000	0.01000000000	1114	844
uniform	20	0.99900000	0.0001200000000	0.001000000000	1114	844
uniform	50	0.00100000	-8.000000000e-05	0.01441000000	2460	2380
uniform	50	0.01000000	1.000000000e-05	0.005410000000	2460	2380
uniform	50	0.10000000	0.0007000000000	0.009500000000	2460	2380
uniform	50	0.20000000	0.003660000000	0.004310000000	2460	2380
uniform	50	0.30000000	-0.01139000000	0.01324000000	2460	2380
uniform	50	0.50000000	0.005480000000	0.01406000000	2460	2380
uniform	50	0.70000000	0.009270000000	0.01858000000	2460	2380
uniform	50	0.80000000	-0.003900000000	0.01305000000	2460	2380
uniform	50	0.90000000	0.0008600000000	0.006450000000	2460	2380
uniform	50	0.99000000	7.000000000e-05	0.01000000000	2460	2380
uniform	50	0.99900000	-3.000000000e-05	0.001000000000	2460	2380
uniform	100	0.00100000	-4.000000000e-05	0.006550000000	4398	4620
uniform	100	0.01000000	-9.000000000e-05	0.005800000000	4398	4620
uniform	100	0.10000000	-0.0007000000000	0.001750000000	4398	4620
uniform	100	0.20000000	0.0004000000000	0.002210000000	4398	4620
uniform	100	0.30000000	-0.002120000000	0.002940000000	4398	4620
uniform	100	0.50000000	-0.001510000000	0.006930000000	4398	4620
uniform	100	0.70000000	-0.002000000000	0.002910000000	4398	4620
uniform	100	0.80000000	-0.001500000000	0.004430000000	4398	4620
uniform	100	0.90000000	-0.003180000000	0.006540000000	4398	4620
uniform	100	0.99000000	0.000000000	0.01000000000	4398	4620
uniform	100	0.99900000	-2.000000000e-05	0.001000000000	4398	4620
uniform	200	0.00100000	-1.500000000e-05	0.002880000000	8112	9388
uniform	200	0.01000000	-5.000000000e-05	0.001520000000	8112	9388
uniform	200	0.10000000	-0.001280000000	0.003960000000	8112	9388
uniform	200	0.20000000	-0.0003400000000	0.001110000000	8112	9388
uniform	200	0.30000000	-0.0002400000000	0.002290000000	8112	9388
uniform	200	0.50000000	0.0001100000000	0.003620000000	8112	9388
uniform	200	0.70000000	-0.0002100000000	0.003050000000	8112	9388
uniform	200	0.80000000	-4.000000000e-05	0.004470000000	8112	9388
uniform	200	0.90000000	-0.0005000000000	0.005230000000	8112	9388
uniform	200	0.99000000	2.000000000e-05	0.002170000000	8112	9388
uniform	200	0.99900000	-1.500000000e-05	0.001000000000	8112	9388
uniform	500	0.00100000	-1.500000000e-05	0.0009800000000	17356	23212
uniform	500	0.01000000	-3.000000000e-05	0.001630000000	17356	23212
uniform	500	0.10000000	-2.000000000e-05	0.002400000000	17356	23212
uniform	500	0.20000000	8.000000000e-05	0.002140000000	17356	23212
uniform	500	0.30000000	0.0005900000000	0.003700000000	17356	23212
uniform	500	0.50000000	0.0002800000000	0.0009100000000	17356	23212
uniform	500	0.70000000	-0.0001600000000	0.001520000000	17356	23212
uniform	500	0.80000000	8.000000000e-05	0.002240000000	17356	23212
uniform	500	0.90000000	0.0001400000000	0.001060000000	17356	23212
uniform	500	0.99000000	-7.000000000e-05	0.002440000000	17356	23212
uniform	500	0.99900000	-1.500000000e-05	0.001000000000	17356	23212
uniform	1000	0.00100000	-1.500000000e-05	9.000000000e-05	30666	46860
uniform	1000	0.01000000	-3.000000000e-05	0.001090000000	30666	46860
uniform	1000	0.10000000	-0.0001800000000	0.0005900000000	30666	46860
uniform	1000	0.20000000	0.0001400000000	0.0003500000000	30666	46860
uniform	1000	0.30000000	0.0005200000000	0.0007400000000	30666	46860
uniform	1000	0.50000000	-0.0002900000000	0.001030000000	30666	46860
uniform	1000	0.70000000	0.0001700000000	0.0008900000000	30666	46860
uniform	1000	0.80000000	0.0001300000000	0.001000000000	30666	46860
uniform	1000	0.90000000	0.0001800000000	0.001330000000	30666	46860
uniform	1000	0.99000000	0.000000000	0.002180000000	30666	46860
uniform	1000	0.99900000	-1.500000000e-05	0.001000000000	30666	46860
uniform	2000	0.00100000	-1.500000000e-05	0.0001100000000	54811	88220
uniform	2000	0.01000000	-1.500000000e-05	0.0007600000000	54811	88220
uniform	2000	0.10000000	-1.000000000e-05	0.0006200000000	54811	88220
uniform	2000	0.20000000	-0.0002600000000	0.001480000000	54811	88220
uniform	2000	0.30000000	-6.000000000e-05	0.0009300000000	54811	88220
uniform	2000	0.50000000	-0.0002100000000	0.0004300000000	54811	88220
uniform	2000	0.70000000	6.000000000e-05	0.0007600000000	54811	88220
uniform	2000	0.80000000	0.0002800000000	0.001970000000	54811	88220
uniform	2000	0.90000000	-6.000000000e-05	0.001120000000	54811	88220
uniform	2000	0.99000000	-1.500000000e-05	0.001790000000	54811	88220
uniform	2000	0.99900000	-1.500000000e-05	0.001000000000	54811	88220
# 23.652599us per point
# 4693 centroids
Tests run: 11, Failures: 0, Errors: 0, Skipped: 1, Time elapsed: 14.481 sec - in com.clearspring.analytics.stream.quantile.TDigestTest
Running com.clearspring.analytics.stream.quantile.QDigestTest
a: 0 .. 0: 3, 1 .. 1: 3
b: 0 .. 0: 4, 1 .. 1: 1, 0 .. 3: 1
ab: 0 .. 0: 4, 1 .. 1: 1, 0 .. 1: 6, 0 .. 3: 1
c: 0 .. 0: 7, 1 .. 1: 4, 0 .. 3: 1
Tests run: 3, Failures: 0, Errors: 0, Skipped: 0, Time elapsed: 0.294 sec - in com.clearspring.analytics.stream.quantile.QDigestTest
Running com.clearspring.analytics.stream.quantile.GroupTreeTest
0:0.0(1)	1:0.0(1)	2:1.0(1)	3:1.0(1)	4:2.0(1)	5:2.5(2)	6:3.0(1)	7:3.0(1)	8:4.0(1)	9:4.0(1)	10:5.0(1)	Tests run: 6, Failures: 0, Errors: 0, Skipped: 0, Time elapsed: 0.093 sec - in com.clearspring.analytics.stream.quantile.GroupTreeTest
Running com.clearspring.analytics.stream.frequency.ConservativeAddSketchTest
Confidence : 1.0   Errors : 0  Error margin : 7501
Total error : 13117189  Average error : 874
Beat base for : 99 percent of values with a total delta of 22878077
Confidence : 1.0   Errors : 0  Error margin : 101
Total error : 15142892  Average error : 16
Beat base for : 100 percent of values with a total delta of 20582216
Tests run: 3, Failures: 0, Errors: 0, Skipped: 0, Time elapsed: 4.048 sec - in com.clearspring.analytics.stream.frequency.ConservativeAddSketchTest
Running com.clearspring.analytics.stream.frequency.CountMinSketchTest
1.0
Tests run: 9, Failures: 0, Errors: 0, Skipped: 0, Time elapsed: 7.147 sec - in com.clearspring.analytics.stream.frequency.CountMinSketchTest
Running com.clearspring.analytics.stream.TestStochasticTopper
Gaussian:
5
4
-8
-10
11
Geometric:
0
1
2
3
4
Zipfian:
1
2
4
16
3
0: 24911
1: 18721
2: 14010
3: 10581
4: 8003
5: 5953
6: 4399
7: 3383
8: 2502
9: 1848
10: 1400
11: 1098
12: 801
13: 666
14: 441
15: 340
16: 246
17: 142
18: 163
19: 104
2147483638: 0
2147483639: 0
2147483640: 0
2147483641: 0
2147483642: 0
2147483643: 0
2147483644: 0
2147483645: 0
2147483646: 0
2147483647: 0
Tests run: 4, Failures: 0, Errors: 0, Skipped: 0, Time elapsed: 0.093 sec - in com.clearspring.analytics.stream.TestStochasticTopper
Running com.clearspring.analytics.stream.cardinality.TestAdaptiveCounting
Tests run: 6, Failures: 0, Errors: 0, Skipped: 1, Time elapsed: 0.337 sec - in com.clearspring.analytics.stream.cardinality.TestAdaptiveCounting
Running com.clearspring.analytics.stream.cardinality.TestLogLog
Baseline estimate: 4994755
time: 1118
0.0414426
time: 18015
100000000
98568693
0.01431307
Tests run: 5, Failures: 0, Errors: 0, Skipped: 1, Time elapsed: 19.325 sec - in com.clearspring.analytics.stream.cardinality.TestLogLog
Running com.clearspring.analytics.stream.cardinality.TestCountThenEstimate
Tests run: 7, Failures: 0, Errors: 0, Skipped: 0, Time elapsed: 0.064 sec - in com.clearspring.analytics.stream.cardinality.TestCountThenEstimate
Running com.clearspring.analytics.stream.cardinality.TestHyperLogLog
Baseline estimate: 4991278
Expect estimate: 4991278 is between 4939062.5 and 5060937.5
time: 1235
0.0121921
time: 11838
0.01517839
Tests run: 8, Failures: 0, Errors: 0, Skipped: 1, Time elapsed: 13.337 sec - in com.clearspring.analytics.stream.cardinality.TestHyperLogLog
Running com.clearspring.analytics.stream.cardinality.TestHyperLogLogPlus
Size: 13726
4-16: 0 -> 0
4-17: 0 -> 0
4-18: 0 -> 0
4-19: 0 -> 0
4-20: 0 -> 0
4-21: 0 -> 0
4-22: 0 -> 0
4-23: 0 -> 0
4-24: 0 -> 0
4-25: 0 -> 0
4-26: 0 -> 0
4-27: 0 -> 0
4-28: 0 -> 0
4-29: 0 -> 0
4-30: 0 -> 0
4-31: 0 -> 0
4-32: 0 -> 0
5-16: 0 -> 0
5-17: 0 -> 0
5-18: 0 -> 0
5-19: 0 -> 0
5-20: 0 -> 0
5-21: 0 -> 0
5-22: 0 -> 0
5-23: 0 -> 0
5-24: 0 -> 0
5-25: 0 -> 0
5-26: 0 -> 0
5-27: 0 -> 0
5-28: 0 -> 0
5-29: 0 -> 0
5-30: 0 -> 0
5-31: 0 -> 0
5-32: 0 -> 0
6-16: 0 -> 0
6-17: 0 -> 0
6-18: 0 -> 0
6-19: 0 -> 0
6-20: 0 -> 0
6-21: 0 -> 0
6-22: 0 -> 0
6-23: 0 -> 0
6-24: 0 -> 0
6-25: 0 -> 0
6-26: 0 -> 0
6-27: 0 -> 0
6-28: 0 -> 0
6-29: 0 -> 0
6-30: 0 -> 0
6-31: 0 -> 0
6-32: 0 -> 0
7-16: 0 -> 0
7-17: 0 -> 0
7-18: 0 -> 0
7-19: 0 -> 0
7-20: 0 -> 0
7-21: 0 -> 0
7-22: 0 -> 0
7-23: 0 -> 0
7-24: 0 -> 0
7-25: 0 -> 0
7-26: 0 -> 0
7-27: 0 -> 0
7-28: 0 -> 0
7-29: 0 -> 0
7-30: 0 -> 0
7-31: 0 -> 0
7-32: 0 -> 0
8-16: 0 -> 0
8-17: 0 -> 0
8-18: 0 -> 0
8-19: 0 -> 0
8-20: 0 -> 0
8-21: 0 -> 0
8-22: 0 -> 0
8-23: 0 -> 0
8-24: 0 -> 0
8-25: 0 -> 0
8-26: 0 -> 0
8-27: 0 -> 0
8-28: 0 -> 0
8-29: 0 -> 0
8-30: 0 -> 0
8-31: 0 -> 0
8-32: 0 -> 0
9-16: 0 -> 0
9-17: 0 -> 0
9-18: 0 -> 0
9-19: 0 -> 0
9-20: 0 -> 0
9-21: 0 -> 0
9-22: 0 -> 0
9-23: 0 -> 0
9-24: 0 -> 0
9-25: 0 -> 0
9-26: 0 -> 0
9-27: 0 -> 0
9-28: 0 -> 0
9-29: 0 -> 0
9-30: 0 -> 0
9-31: 0 -> 0
9-32: 0 -> 0
10-16: 0 -> 0
10-17: 0 -> 0
10-18: 0 -> 0
10-19: 0 -> 0
10-20: 0 -> 0
10-21: 0 -> 0
10-22: 0 -> 0
10-23: 0 -> 0
10-24: 0 -> 0
10-25: 0 -> 0
10-26: 0 -> 0
10-27: 0 -> 0
10-28: 0 -> 0
10-29: 0 -> 0
10-30: 0 -> 0
10-31: 0 -> 0
10-32: 0 -> 0
11-16: 0 -> 0
11-17: 0 -> 0
11-18: 0 -> 0
11-19: 0 -> 0
11-20: 0 -> 0
11-21: 0 -> 0
11-22: 0 -> 0
11-23: 0 -> 0
11-24: 0 -> 0
11-25: 0 -> 0
11-26: 0 -> 0
11-27: 0 -> 0
11-28: 0 -> 0
11-29: 0 -> 0
11-30: 0 -> 0
11-31: 0 -> 0
11-32: 0 -> 0
12-16: 0 -> 0
12-17: 0 -> 0
12-18: 0 -> 0
12-19: 0 -> 0
12-20: 0 -> 0
12-21: 0 -> 0
12-22: 0 -> 0
12-23: 0 -> 0
12-24: 0 -> 0
12-25: 0 -> 0
12-26: 0 -> 0
12-27: 0 -> 0
12-28: 0 -> 0
12-29: 0 -> 0
12-30: 0 -> 0
12-31: 0 -> 0
12-32: 0 -> 0
13-16: 0 -> 0
13-17: 0 -> 0
13-18: 0 -> 0
13-19: 0 -> 0
13-20: 0 -> 0
13-21: 0 -> 0
13-22: 0 -> 0
13-23: 0 -> 0
13-24: 0 -> 0
13-25: 0 -> 0
13-26: 0 -> 0
13-27: 0 -> 0
13-28: 0 -> 0
13-29: 0 -> 0
13-30: 0 -> 0
13-31: 0 -> 0
13-32: 0 -> 0
14-16: 0 -> 0
14-17: 0 -> 0
14-18: 0 -> 0
14-19: 0 -> 0
14-20: 0 -> 0
14-21: 0 -> 0
14-22: 0 -> 0
14-23: 0 -> 0
14-24: 0 -> 0
14-25: 0 -> 0
14-26: 0 -> 0
14-27: 0 -> 0
14-28: 0 -> 0
14-29: 0 -> 0
14-30: 0 -> 0
14-31: 0 -> 0
14-32: 0 -> 0
15-16: 0 -> 0
15-17: 0 -> 0
15-18: 0 -> 0
15-19: 0 -> 0
15-20: 0 -> 0
15-21: 0 -> 0
15-22: 0 -> 0
15-23: 0 -> 0
15-24: 0 -> 0
15-25: 0 -> 0
15-26: 0 -> 0
15-27: 0 -> 0
15-28: 0 -> 0
15-29: 0 -> 0
15-30: 0 -> 0
15-31: 0 -> 0
15-32: 0 -> 0
16-16: 0 -> 0
16-17: 0 -> 0
16-18: 0 -> 0
16-19: 0 -> 0
16-20: 0 -> 0
16-21: 0 -> 0
16-22: 0 -> 0
16-23: 0 -> 0
16-24: 0 -> 0
16-25: 0 -> 0
16-26: 0 -> 0
16-27: 0 -> 0
16-28: 0 -> 0
16-29: 0 -> 0
16-30: 0 -> 0
16-31: 0 -> 0
16-32: 0 -> 0
17-17: 0 -> 0
17-18: 0 -> 0
17-19: 0 -> 0
17-20: 0 -> 0
17-21: 0 -> 0
17-22: 0 -> 0
17-23: 0 -> 0
17-24: 0 -> 0
17-25: 0 -> 0
17-26: 0 -> 0
17-27: 0 -> 0
17-28: 0 -> 0
17-29: 0 -> 0
17-30: 0 -> 0
17-31: 0 -> 0
17-32: 0 -> 0
18-18: 0 -> 0
18-19: 0 -> 0
18-20: 0 -> 0
18-21: 0 -> 0
18-22: 0 -> 0
18-23: 0 -> 0
18-24: 0 -> 0
18-25: 0 -> 0
18-26: 0 -> 0
18-27: 0 -> 0
18-28: 0 -> 0
18-29: 0 -> 0
18-30: 0 -> 0
18-31: 0 -> 0
18-32: 0 -> 0
19-19: 0 -> 0
19-20: 0 -> 0
19-21: 0 -> 0
19-22: 0 -> 0
19-23: 0 -> 0
19-24: 0 -> 0
19-25: 0 -> 0
19-26: 0 -> 0
19-27: 0 -> 0
19-28: 0 -> 0
19-29: 0 -> 0
19-30: 0 -> 0
19-31: 0 -> 0
19-32: 0 -> 0
20-20: 0 -> 0
20-21: 0 -> 0
20-22: 0 -> 0
20-23: 0 -> 0
20-24: 0 -> 0
20-25: 0 -> 0
20-26: 0 -> 0
20-27: 0 -> 0
20-28: 0 -> 0
20-29: 0 -> 0
20-30: 0 -> 0
20-31: 0 -> 0
20-32: 0 -> 0
4-16: 1 -> 1
4-17: 1 -> 1
4-18: 1 -> 1
4-19: 1 -> 1
4-20: 1 -> 1
4-21: 1 -> 1
4-22: 1 -> 1
4-23: 1 -> 1
4-24: 1 -> 1
4-25: 1 -> 1
4-26: 1 -> 1
4-27: 1 -> 1
4-28: 1 -> 1
4-29: 1 -> 1
4-30: 1 -> 1
4-31: 1 -> 1
4-32: 1 -> 1
5-16: 1 -> 1
5-17: 1 -> 1
5-18: 1 -> 1
5-19: 1 -> 1
5-20: 1 -> 1
5-21: 1 -> 1
5-22: 1 -> 1
5-23: 1 -> 1
5-24: 1 -> 1
5-25: 1 -> 1
5-26: 1 -> 1
5-27: 1 -> 1
5-28: 1 -> 1
5-29: 1 -> 1
5-30: 1 -> 1
5-31: 1 -> 1
5-32: 1 -> 1
6-16: 1 -> 1
6-17: 1 -> 1
6-18: 1 -> 1
6-19: 1 -> 1
6-20: 1 -> 1
6-21: 1 -> 1
6-22: 1 -> 1
6-23: 1 -> 1
6-24: 1 -> 1
6-25: 1 -> 1
6-26: 1 -> 1
6-27: 1 -> 1
6-28: 1 -> 1
6-29: 1 -> 1
6-30: 1 -> 1
6-31: 1 -> 1
6-32: 1 -> 1
7-16: 1 -> 1
7-17: 1 -> 1
7-18: 1 -> 1
7-19: 1 -> 1
7-20: 1 -> 1
7-21: 1 -> 1
7-22: 1 -> 1
7-23: 1 -> 1
7-24: 1 -> 1
7-25: 1 -> 1
7-26: 1 -> 1
7-27: 1 -> 1
7-28: 1 -> 1
7-29: 1 -> 1
7-30: 1 -> 1
7-31: 1 -> 1
7-32: 1 -> 1
8-16: 1 -> 1
8-17: 1 -> 1
8-18: 1 -> 1
8-19: 1 -> 1
8-20: 1 -> 1
8-21: 1 -> 1
8-22: 1 -> 1
8-23: 1 -> 1
8-24: 1 -> 1
8-25: 1 -> 1
8-26: 1 -> 1
8-27: 1 -> 1
8-28: 1 -> 1
8-29: 1 -> 1
8-30: 1 -> 1
8-31: 1 -> 1
8-32: 1 -> 1
9-16: 1 -> 1
9-17: 1 -> 1
9-18: 1 -> 1
9-19: 1 -> 1
9-20: 1 -> 1
9-21: 1 -> 1
9-22: 1 -> 1
9-23: 1 -> 1
9-24: 1 -> 1
9-25: 1 -> 1
9-26: 1 -> 1
9-27: 1 -> 1
9-28: 1 -> 1
9-29: 1 -> 1
9-30: 1 -> 1
9-31: 1 -> 1
9-32: 1 -> 1
10-16: 1 -> 1
10-17: 1 -> 1
10-18: 1 -> 1
10-19: 1 -> 1
10-20: 1 -> 1
10-21: 1 -> 1
10-22: 1 -> 1
10-23: 1 -> 1
10-24: 1 -> 1
10-25: 1 -> 1
10-26: 1 -> 1
10-27: 1 -> 1
10-28: 1 -> 1
10-29: 1 -> 1
10-30: 1 -> 1
10-31: 1 -> 1
10-32: 1 -> 1
11-16: 1 -> 1
11-17: 1 -> 1
11-18: 1 -> 1
11-19: 1 -> 1
11-20: 1 -> 1
11-21: 1 -> 1
11-22: 1 -> 1
11-23: 1 -> 1
11-24: 1 -> 1
11-25: 1 -> 1
11-26: 1 -> 1
11-27: 1 -> 1
11-28: 1 -> 1
11-29: 1 -> 1
11-30: 1 -> 1
11-31: 1 -> 1
11-32: 1 -> 1
12-16: 1 -> 1
12-17: 1 -> 1
12-18: 1 -> 1
12-19: 1 -> 1
12-20: 1 -> 1
12-21: 1 -> 1
12-22: 1 -> 1
12-23: 1 -> 1
12-24: 1 -> 1
12-25: 1 -> 1
12-26: 1 -> 1
12-27: 1 -> 1
12-28: 1 -> 1
12-29: 1 -> 1
12-30: 1 -> 1
12-31: 1 -> 1
12-32: 1 -> 1
13-16: 1 -> 1
13-17: 1 -> 1
13-18: 1 -> 1
13-19: 1 -> 1
13-20: 1 -> 1
13-21: 1 -> 1
13-22: 1 -> 1
13-23: 1 -> 1
13-24: 1 -> 1
13-25: 1 -> 1
13-26: 1 -> 1
13-27: 1 -> 1
13-28: 1 -> 1
13-29: 1 -> 1
13-30: 1 -> 1
13-31: 1 -> 1
13-32: 1 -> 1
14-16: 1 -> 1
14-17: 1 -> 1
14-18: 1 -> 1
14-19: 1 -> 1
14-20: 1 -> 1
14-21: 1 -> 1
14-22: 1 -> 1
14-23: 1 -> 1
14-24: 1 -> 1
14-25: 1 -> 1
14-26: 1 -> 1
14-27: 1 -> 1
14-28: 1 -> 1
14-29: 1 -> 1
14-30: 1 -> 1
14-31: 1 -> 1
14-32: 1 -> 1
15-16: 1 -> 1
15-17: 1 -> 1
15-18: 1 -> 1
15-19: 1 -> 1
15-20: 1 -> 1
15-21: 1 -> 1
15-22: 1 -> 1
15-23: 1 -> 1
15-24: 1 -> 1
15-25: 1 -> 1
15-26: 1 -> 1
15-27: 1 -> 1
15-28: 1 -> 1
15-29: 1 -> 1
15-30: 1 -> 1
15-31: 1 -> 1
15-32: 1 -> 1
16-16: 1 -> 1
16-17: 1 -> 1
16-18: 1 -> 1
16-19: 1 -> 1
16-20: 1 -> 1
16-21: 1 -> 1
16-22: 1 -> 1
16-23: 1 -> 1
16-24: 1 -> 1
16-25: 1 -> 1
16-26: 1 -> 1
16-27: 1 -> 1
16-28: 1 -> 1
16-29: 1 -> 1
16-30: 1 -> 1
16-31: 1 -> 1
16-32: 1 -> 1
17-17: 1 -> 1
17-18: 1 -> 1
17-19: 1 -> 1
17-20: 1 -> 1
17-21: 1 -> 1
17-22: 1 -> 1
17-23: 1 -> 1
17-24: 1 -> 1
17-25: 1 -> 1
17-26: 1 -> 1
17-27: 1 -> 1
17-28: 1 -> 1
17-29: 1 -> 1
17-30: 1 -> 1
17-31: 1 -> 1
17-32: 1 -> 1
18-18: 1 -> 1
18-19: 1 -> 1
18-20: 1 -> 1
18-21: 1 -> 1
18-22: 1 -> 1
18-23: 1 -> 1
18-24: 1 -> 1
18-25: 1 -> 1
18-26: 1 -> 1
18-27: 1 -> 1
18-28: 1 -> 1
18-29: 1 -> 1
18-30: 1 -> 1
18-31: 1 -> 1
18-32: 1 -> 1
19-19: 1 -> 1
19-20: 1 -> 1
19-21: 1 -> 1
19-22: 1 -> 1
19-23: 1 -> 1
19-24: 1 -> 1
19-25: 1 -> 1
19-26: 1 -> 1
19-27: 1 -> 1
19-28: 1 -> 1
19-29: 1 -> 1
19-30: 1 -> 1
19-31: 1 -> 1
19-32: 1 -> 1
20-20: 1 -> 1
20-21: 1 -> 1
20-22: 1 -> 1
20-23: 1 -> 1
20-24: 1 -> 1
20-25: 1 -> 1
20-26: 1 -> 1
20-27: 1 -> 1
20-28: 1 -> 1
20-29: 1 -> 1
20-30: 1 -> 1
20-31: 1 -> 1
20-32: 1 -> 1
4-16: 10 -> 10
4-17: 10 -> 10
4-18: 10 -> 10
4-19: 10 -> 10
4-20: 10 -> 10
4-21: 10 -> 10
4-22: 10 -> 10
4-23: 10 -> 10
4-24: 10 -> 10
4-25: 10 -> 10
4-26: 10 -> 10
4-27: 10 -> 10
4-28: 10 -> 10
4-29: 10 -> 10
4-30: 10 -> 10
4-31: 10 -> 10
4-32: 10 -> 10
5-16: 10 -> 10
5-17: 10 -> 10
5-18: 10 -> 10
5-19: 10 -> 10
5-20: 10 -> 10
5-21: 10 -> 10
5-22: 10 -> 10
5-23: 10 -> 10
5-24: 10 -> 10
5-25: 10 -> 10
5-26: 10 -> 10
5-27: 10 -> 10
5-28: 10 -> 10
5-29: 10 -> 10
5-30: 10 -> 10
5-31: 10 -> 10
5-32: 10 -> 10
6-16: 10 -> 10
6-17: 10 -> 10
6-18: 10 -> 10
6-19: 10 -> 10
6-20: 10 -> 10
6-21: 10 -> 10
6-22: 10 -> 10
6-23: 10 -> 10
6-24: 10 -> 10
6-25: 10 -> 10
6-26: 10 -> 10
6-27: 10 -> 10
6-28: 10 -> 10
6-29: 10 -> 10
6-30: 10 -> 10
6-31: 10 -> 10
6-32: 10 -> 10
7-16: 10 -> 10
7-17: 10 -> 10
7-18: 10 -> 10
7-19: 10 -> 10
7-20: 10 -> 10
7-21: 10 -> 10
7-22: 10 -> 10
7-23: 10 -> 10
7-24: 10 -> 10
7-25: 10 -> 10
7-26: 10 -> 10
7-27: 10 -> 10
7-28: 10 -> 10
7-29: 10 -> 10
7-30: 10 -> 10
7-31: 10 -> 10
7-32: 10 -> 10
8-16: 10 -> 10
8-17: 10 -> 10
8-18: 10 -> 10
8-19: 10 -> 10
8-20: 10 -> 10
8-21: 10 -> 10
8-22: 10 -> 10
8-23: 10 -> 10
8-24: 10 -> 10
8-25: 10 -> 10
8-26: 10 -> 10
8-27: 10 -> 10
8-28: 10 -> 10
8-29: 10 -> 10
8-30: 10 -> 10
8-31: 10 -> 10
8-32: 10 -> 10
9-16: 10 -> 10
9-17: 10 -> 10
9-18: 10 -> 10
9-19: 10 -> 10
9-20: 10 -> 10
9-21: 10 -> 10
9-22: 10 -> 10
9-23: 10 -> 10
9-24: 10 -> 10
9-25: 10 -> 10
9-26: 10 -> 10
9-27: 10 -> 10
9-28: 10 -> 10
9-29: 10 -> 10
9-30: 10 -> 10
9-31: 10 -> 10
9-32: 10 -> 10
10-16: 10 -> 10
10-17: 10 -> 10
10-18: 10 -> 10
10-19: 10 -> 10
10-20: 10 -> 10
10-21: 10 -> 10
10-22: 10 -> 10
10-23: 10 -> 10
10-24: 10 -> 10
10-25: 10 -> 10
10-26: 10 -> 10
10-27: 10 -> 10
10-28: 10 -> 10
10-29: 10 -> 10
10-30: 10 -> 10
10-31: 10 -> 10
10-32: 10 -> 10
11-16: 10 -> 10
11-17: 10 -> 10
11-18: 10 -> 10
11-19: 10 -> 10
11-20: 10 -> 10
11-21: 10 -> 10
11-22: 10 -> 10
11-23: 10 -> 10
11-24: 10 -> 10
11-25: 10 -> 10
11-26: 10 -> 10
11-27: 10 -> 10
11-28: 10 -> 10
11-29: 10 -> 10
11-30: 10 -> 10
11-31: 10 -> 10
11-32: 10 -> 10
12-16: 10 -> 10
12-17: 10 -> 10
12-18: 10 -> 10
12-19: 10 -> 10
12-20: 10 -> 10
12-21: 10 -> 10
12-22: 10 -> 10
12-23: 10 -> 10
12-24: 10 -> 10
12-25: 10 -> 10
12-26: 10 -> 10
12-27: 10 -> 10
12-28: 10 -> 10
12-29: 10 -> 10
12-30: 10 -> 10
12-31: 10 -> 10
12-32: 10 -> 10
13-16: 10 -> 10
13-17: 10 -> 10
13-18: 10 -> 10
13-19: 10 -> 10
13-20: 10 -> 10
13-21: 10 -> 10
13-22: 10 -> 10
13-23: 10 -> 10
13-24: 10 -> 10
13-25: 10 -> 10
13-26: 10 -> 10
13-27: 10 -> 10
13-28: 10 -> 10
13-29: 10 -> 10
13-30: 10 -> 10
13-31: 10 -> 10
13-32: 10 -> 10
14-16: 10 -> 10
14-17: 10 -> 10
14-18: 10 -> 10
14-19: 10 -> 10
14-20: 10 -> 10
14-21: 10 -> 10
14-22: 10 -> 10
14-23: 10 -> 10
14-24: 10 -> 10
14-25: 10 -> 10
14-26: 10 -> 10
14-27: 10 -> 10
14-28: 10 -> 10
14-29: 10 -> 10
14-30: 10 -> 10
14-31: 10 -> 10
14-32: 10 -> 10
15-16: 10 -> 10
15-17: 10 -> 10
15-18: 10 -> 10
15-19: 10 -> 10
15-20: 10 -> 10
15-21: 10 -> 10
15-22: 10 -> 10
15-23: 10 -> 10
15-24: 10 -> 10
15-25: 10 -> 10
15-26: 10 -> 10
15-27: 10 -> 10
15-28: 10 -> 10
15-29: 10 -> 10
15-30: 10 -> 10
15-31: 10 -> 10
15-32: 10 -> 10
16-16: 10 -> 10
16-17: 10 -> 10
16-18: 10 -> 10
16-19: 10 -> 10
16-20: 10 -> 10
16-21: 10 -> 10
16-22: 10 -> 10
16-23: 10 -> 10
16-24: 10 -> 10
16-25: 10 -> 10
16-26: 10 -> 10
16-27: 10 -> 10
16-28: 10 -> 10
16-29: 10 -> 10
16-30: 10 -> 10
16-31: 10 -> 10
16-32: 10 -> 10
17-17: 10 -> 10
17-18: 10 -> 10
17-19: 10 -> 10
17-20: 10 -> 10
17-21: 10 -> 10
17-22: 10 -> 10
17-23: 10 -> 10
17-24: 10 -> 10
17-25: 10 -> 10
17-26: 10 -> 10
17-27: 10 -> 10
17-28: 10 -> 10
17-29: 10 -> 10
17-30: 10 -> 10
17-31: 10 -> 10
17-32: 10 -> 10
18-18: 10 -> 10
18-19: 10 -> 10
18-20: 10 -> 10
18-21: 10 -> 10
18-22: 10 -> 10
18-23: 10 -> 10
18-24: 10 -> 10
18-25: 10 -> 10
18-26: 10 -> 10
18-27: 10 -> 10
18-28: 10 -> 10
18-29: 10 -> 10
18-30: 10 -> 10
18-31: 10 -> 10
18-32: 10 -> 10
19-19: 10 -> 10
19-20: 10 -> 10
19-21: 10 -> 10
19-22: 10 -> 10
19-23: 10 -> 10
19-24: 10 -> 10
19-25: 10 -> 10
19-26: 10 -> 10
19-27: 10 -> 10
19-28: 10 -> 10
19-29: 10 -> 10
19-30: 10 -> 10
19-31: 10 -> 10
19-32: 10 -> 10
20-20: 10 -> 10
20-21: 10 -> 10
20-22: 10 -> 10
20-23: 10 -> 10
20-24: 10 -> 10
20-25: 10 -> 10
20-26: 10 -> 10
20-27: 10 -> 10
20-28: 10 -> 10
20-29: 10 -> 10
20-30: 10 -> 10
20-31: 10 -> 10
20-32: 10 -> 10
4-16: 100 -> 99
4-17: 100 -> 84
4-18: 100 -> 91
4-19: 100 -> 83
4-20: 100 -> 104
4-21: 100 -> 150
4-22: 100 -> 84
4-23: 100 -> 117
4-24: 100 -> 110
4-25: 100 -> 95
4-26: 100 -> 115
4-27: 100 -> 121
4-28: 100 -> 66
4-29: 100 -> 105
4-30: 100 -> 101
4-31: 100 -> 120
4-32: 100 -> 82
5-16: 100 -> 93
5-17: 100 -> 95
5-18: 100 -> 69
5-19: 100 -> 96
5-20: 100 -> 91
5-21: 100 -> 112
5-22: 100 -> 117
5-23: 100 -> 93
5-24: 100 -> 89
5-25: 100 -> 90
5-26: 100 -> 80
5-27: 100 -> 80
5-28: 100 -> 84
5-29: 100 -> 87
5-30: 100 -> 64
5-31: 100 -> 65
5-32: 100 -> 75
6-16: 100 -> 108
6-17: 100 -> 95
6-18: 100 -> 115
6-19: 100 -> 113
6-20: 100 -> 95
6-21: 100 -> 100
6-22: 100 -> 114
6-23: 100 -> 102
6-24: 100 -> 87
6-25: 100 -> 84
6-26: 100 -> 90
6-27: 100 -> 55
6-28: 100 -> 58
6-29: 100 -> 48
6-30: 100 -> 50
6-31: 100 -> 43
6-32: 100 -> 52
7-16: 100 -> 99
7-17: 100 -> 108
7-18: 100 -> 92
7-19: 100 -> 88
7-20: 100 -> 96
7-21: 100 -> 92
7-22: 100 -> 101
7-23: 100 -> 101
7-24: 100 -> 104
7-25: 100 -> 103
7-26: 100 -> 65
7-27: 100 -> 35
7-28: 100 -> 17
7-29: 100 -> 8
7-30: 100 -> 4
7-31: 100 -> 2
7-32: 100 -> 1
8-16: 100 -> 100
8-17: 100 -> 100
8-18: 100 -> 100
8-19: 100 -> 100
8-20: 100 -> 100
8-21: 100 -> 100
8-22: 100 -> 100
8-23: 100 -> 100
8-24: 100 -> 100
8-25: 100 -> 100
8-26: 100 -> 100
8-27: 100 -> 100
8-28: 100 -> 100
8-29: 100 -> 100
8-30: 100 -> 100
8-31: 100 -> 100
8-32: 100 -> 100
9-16: 100 -> 100
9-17: 100 -> 100
9-18: 100 -> 100
9-19: 100 -> 100
9-20: 100 -> 100
9-21: 100 -> 100
9-22: 100 -> 100
9-23: 100 -> 100
9-24: 100 -> 100
9-25: 100 -> 100
9-26: 100 -> 100
9-27: 100 -> 100
9-28: 100 -> 100
9-29: 100 -> 100
9-30: 100 -> 100
9-31: 100 -> 100
9-32: 100 -> 100
10-16: 100 -> 99
10-17: 100 -> 100
10-18: 100 -> 100
10-19: 100 -> 100
10-20: 100 -> 100
10-21: 100 -> 100
10-22: 100 -> 100
10-23: 100 -> 100
10-24: 100 -> 100
10-25: 100 -> 100
10-26: 100 -> 100
10-27: 100 -> 100
10-28: 100 -> 100
10-29: 100 -> 100
10-30: 100 -> 100
10-31: 100 -> 100
10-32: 100 -> 100
11-16: 100 -> 100
11-17: 100 -> 100
11-18: 100 -> 100
11-19: 100 -> 100
11-20: 100 -> 100
11-21: 100 -> 100
11-22: 100 -> 100
11-23: 100 -> 100
11-24: 100 -> 100
11-25: 100 -> 100
11-26: 100 -> 100
11-27: 100 -> 100
11-28: 100 -> 100
11-29: 100 -> 100
11-30: 100 -> 100
11-31: 100 -> 100
11-32: 100 -> 100
12-16: 100 -> 100
12-17: 100 -> 100
12-18: 100 -> 100
12-19: 100 -> 100
12-20: 100 -> 100
12-21: 100 -> 100
12-22: 100 -> 100
12-23: 100 -> 100
12-24: 100 -> 100
12-25: 100 -> 100
12-26: 100 -> 100
12-27: 100 -> 100
12-28: 100 -> 100
12-29: 100 -> 100
12-30: 100 -> 100
12-31: 100 -> 100
12-32: 100 -> 100
13-16: 100 -> 100
13-17: 100 -> 100
13-18: 100 -> 100
13-19: 100 -> 100
13-20: 100 -> 100
13-21: 100 -> 100
13-22: 100 -> 100
13-23: 100 -> 100
13-24: 100 -> 100
13-25: 100 -> 100
13-26: 100 -> 100
13-27: 100 -> 100
13-28: 100 -> 100
13-29: 100 -> 100
13-30: 100 -> 100
13-31: 100 -> 100
13-32: 100 -> 100
14-16: 100 -> 100
14-17: 100 -> 100
14-18: 100 -> 100
14-19: 100 -> 100
14-20: 100 -> 100
14-21: 100 -> 100
14-22: 100 -> 100
14-23: 100 -> 100
14-24: 100 -> 100
14-25: 100 -> 100
14-26: 100 -> 100
14-27: 100 -> 100
14-28: 100 -> 100
14-29: 100 -> 100
14-30: 100 -> 100
14-31: 100 -> 100
14-32: 100 -> 100
15-16: 100 -> 100
15-17: 100 -> 100
15-18: 100 -> 100
15-19: 100 -> 100
15-20: 100 -> 100
15-21: 100 -> 100
15-22: 100 -> 100
15-23: 100 -> 100
15-24: 100 -> 100
15-25: 100 -> 100
15-26: 100 -> 100
15-27: 100 -> 100
15-28: 100 -> 100
15-29: 100 -> 100
15-30: 100 -> 100
15-31: 100 -> 100
15-32: 100 -> 100
16-16: 100 -> 100
16-17: 100 -> 99
16-18: 100 -> 100
16-19: 100 -> 100
16-20: 100 -> 100
16-21: 100 -> 100
16-22: 100 -> 100
16-23: 100 -> 100
16-24: 100 -> 100
16-25: 100 -> 100
16-26: 100 -> 100
16-27: 100 -> 100
16-28: 100 -> 100
16-29: 100 -> 100
16-30: 100 -> 100
16-31: 100 -> 100
16-32: 100 -> 100
17-17: 100 -> 100
17-18: 100 -> 100
17-19: 100 -> 100
17-20: 100 -> 100
17-21: 100 -> 100
17-22: 100 -> 100
17-23: 100 -> 100
17-24: 100 -> 100
17-25: 100 -> 100
17-26: 100 -> 100
17-27: 100 -> 100
17-28: 100 -> 100
17-29: 100 -> 100
17-30: 100 -> 100
17-31: 100 -> 100
17-32: 100 -> 100
18-18: 100 -> 100
18-19: 100 -> 100
18-20: 100 -> 100
18-21: 100 -> 100
18-22: 100 -> 100
18-23: 100 -> 100
18-24: 100 -> 100
18-25: 100 -> 100
18-26: 100 -> 100
18-27: 100 -> 100
18-28: 100 -> 100
18-29: 100 -> 100
18-30: 100 -> 100
18-31: 100 -> 100
18-32: 100 -> 100
19-19: 100 -> 100
19-20: 100 -> 100
19-21: 100 -> 100
19-22: 100 -> 100
19-23: 100 -> 100
19-24: 100 -> 100
19-25: 100 -> 100
19-26: 100 -> 100
19-27: 100 -> 100
19-28: 100 -> 100
19-29: 100 -> 100
19-30: 100 -> 100
19-31: 100 -> 100
19-32: 100 -> 100
20-20: 100 -> 100
20-21: 100 -> 100
20-22: 100 -> 100
20-23: 100 -> 100
20-24: 100 -> 100
20-25: 100 -> 100
20-26: 100 -> 100
20-27: 100 -> 100
20-28: 100 -> 100
20-29: 100 -> 100
20-30: 100 -> 100
20-31: 100 -> 100
20-32: 100 -> 100
4-16: 1000 -> 734
4-17: 1000 -> 1014
4-18: 1000 -> 882
4-19: 1000 -> 441
4-20: 1000 -> 872
4-21: 1000 -> 754
4-22: 1000 -> 1362
4-23: 1000 -> 848
4-24: 1000 -> 741
4-25: 1000 -> 1017
4-26: 1000 -> 674
4-27: 1000 -> 773
4-28: 1000 -> 1101
4-29: 1000 -> 1020
4-30: 1000 -> 1014
4-31: 1000 -> 1392
4-32: 1000 -> 1167
5-16: 1000 -> 869
5-17: 1000 -> 1193
5-18: 1000 -> 750
5-19: 1000 -> 901
5-20: 1000 -> 1005
5-21: 1000 -> 1039
5-22: 1000 -> 1214
5-23: 1000 -> 712
5-24: 1000 -> 1012
5-25: 1000 -> 1179
5-26: 1000 -> 982
5-27: 1000 -> 1151
5-28: 1000 -> 1260
5-29: 1000 -> 1391
5-30: 1000 -> 858
5-31: 1000 -> 1101
5-32: 1000 -> 846
6-16: 1000 -> 813
6-17: 1000 -> 1202
6-18: 1000 -> 947
6-19: 1000 -> 942
6-20: 1000 -> 960
6-21: 1000 -> 1026
6-22: 1000 -> 788
6-23: 1000 -> 1114
6-24: 1000 -> 1084
6-25: 1000 -> 952
6-26: 1000 -> 669
6-27: 1000 -> 984
6-28: 1000 -> 846
6-29: 1000 -> 911
6-30: 1000 -> 991
6-31: 1000 -> 907
6-32: 1000 -> 775
7-16: 1000 -> 1109
7-17: 1000 -> 995
7-18: 1000 -> 844
7-19: 1000 -> 974
7-20: 1000 -> 1025
7-21: 1000 -> 862
7-22: 1000 -> 1090
7-23: 1000 -> 918
7-24: 1000 -> 982
7-25: 1000 -> 1010
7-26: 1000 -> 1083
7-27: 1000 -> 1043
7-28: 1000 -> 1010
7-29: 1000 -> 890
7-30: 1000 -> 894
7-31: 1000 -> 836
7-32: 1000 -> 838
8-16: 1000 -> 999
8-17: 1000 -> 983
8-18: 1000 -> 959
8-19: 1000 -> 1023
8-20: 1000 -> 944
8-21: 1000 -> 934
8-22: 1000 -> 984
8-23: 1000 -> 1028
8-24: 1000 -> 943
8-25: 1000 -> 1012
8-26: 1000 -> 1004
8-27: 1000 -> 893
8-28: 1000 -> 783
8-29: 1000 -> 860
8-30: 1000 -> 805
8-31: 1000 -> 760
8-32: 1000 -> 769
9-16: 1000 -> 1046
9-17: 1000 -> 1001
9-18: 1000 -> 1048
9-19: 1000 -> 900
9-20: 1000 -> 1010
9-21: 1000 -> 988
9-22: 1000 -> 970
9-23: 1000 -> 1013
9-24: 1000 -> 970
9-25: 1000 -> 1042
9-26: 1000 -> 869
9-27: 1000 -> 821
9-28: 1000 -> 731
9-29: 1000 -> 650
9-30: 1000 -> 626
9-31: 1000 -> 623
9-32: 1000 -> 650
10-16: 1000 -> 991
10-17: 1000 -> 1014
10-18: 1000 -> 1036
10-19: 1000 -> 1017
10-20: 1000 -> 994
10-21: 1000 -> 1014
10-22: 1000 -> 1014
10-23: 1000 -> 982
10-24: 1000 -> 978
10-25: 1000 -> 982
10-26: 1000 -> 700
10-27: 1000 -> 458
10-28: 1000 -> 327
10-29: 1000 -> 253
10-30: 1000 -> 220
10-31: 1000 -> 211
10-32: 1000 -> 202
11-16: 1000 -> 991
11-17: 1000 -> 1002
11-18: 1000 -> 1000
11-19: 1000 -> 1000
11-20: 1000 -> 1000
11-21: 1000 -> 1000
11-22: 1000 -> 1000
11-23: 1000 -> 1000
11-24: 1000 -> 1000
11-25: 1000 -> 1000
11-26: 1000 -> 1000
11-27: 1000 -> 1000
11-28: 1000 -> 1000
11-29: 1000 -> 1000
11-30: 1000 -> 1000
11-31: 1000 -> 1000
11-32: 1000 -> 1000
12-16: 1000 -> 1006
12-17: 1000 -> 1002
12-18: 1000 -> 999
12-19: 1000 -> 1000
12-20: 1000 -> 1000
12-21: 1000 -> 1000
12-22: 1000 -> 1000
12-23: 1000 -> 1000
12-24: 1000 -> 1000
12-25: 1000 -> 1000
12-26: 1000 -> 1000
12-27: 1000 -> 1000
12-28: 1000 -> 1000
12-29: 1000 -> 1000
12-30: 1000 -> 1000
12-31: 1000 -> 1000
12-32: 1000 -> 1000
13-16: 1000 -> 1003
13-17: 1000 -> 1001
13-18: 1000 -> 1000
13-19: 1000 -> 1000
13-20: 1000 -> 999
13-21: 1000 -> 1000
13-22: 1000 -> 1000
13-23: 1000 -> 1000
13-24: 1000 -> 1000
13-25: 1000 -> 1000
13-26: 1000 -> 1000
13-27: 1000 -> 1000
13-28: 1000 -> 1000
13-29: 1000 -> 1000
13-30: 1000 -> 1000
13-31: 1000 -> 1000
13-32: 1000 -> 1000
14-16: 1000 -> 996
14-17: 1000 -> 999
14-18: 1000 -> 1000
14-19: 1000 -> 1000
14-20: 1000 -> 1000
14-21: 1000 -> 998
14-22: 1000 -> 1000
14-23: 1000 -> 1000
14-24: 1000 -> 1000
14-25: 1000 -> 1000
14-26: 1000 -> 1000
14-27: 1000 -> 1000
14-28: 1000 -> 1000
14-29: 1000 -> 1000
14-30: 1000 -> 1000
14-31: 1000 -> 1000
14-32: 1000 -> 1000
15-16: 1000 -> 998
15-17: 1000 -> 1000
15-18: 1000 -> 1000
15-19: 1000 -> 1000
15-20: 1000 -> 999
15-21: 1000 -> 1000
15-22: 1000 -> 1000
15-23: 1000 -> 1000
15-24: 1000 -> 1000
15-25: 1000 -> 1000
15-26: 1000 -> 1000
15-27: 1000 -> 1000
15-28: 1000 -> 1000
15-29: 1000 -> 1000
15-30: 1000 -> 1000
15-31: 1000 -> 1000
15-32: 1000 -> 1000
16-16: 1000 -> 1003
16-17: 1000 -> 1003
16-18: 1000 -> 999
16-19: 1000 -> 999
16-20: 1000 -> 1000
16-21: 1000 -> 1000
16-22: 1000 -> 1000
16-23: 1000 -> 1000
16-24: 1000 -> 1000
16-25: 1000 -> 1000
16-26: 1000 -> 1000
16-27: 1000 -> 1000
16-28: 1000 -> 1000
16-29: 1000 -> 1000
16-30: 1000 -> 1000
16-31: 1000 -> 1000
16-32: 1000 -> 1000
17-17: 1000 -> 1000
17-18: 1000 -> 1000
17-19: 1000 -> 1001
17-20: 1000 -> 1000
17-21: 1000 -> 1000
17-22: 1000 -> 1000
17-23: 1000 -> 1000
17-24: 1000 -> 1000
17-25: 1000 -> 999
17-26: 1000 -> 1000
17-27: 1000 -> 1000
17-28: 1000 -> 1000
17-29: 1000 -> 1000
17-30: 1000 -> 1000
17-31: 1000 -> 1000
17-32: 1000 -> 1000
18-18: 1000 -> 999
18-19: 1000 -> 999
18-20: 1000 -> 1000
18-21: 1000 -> 1000
18-22: 1000 -> 1000
18-23: 1000 -> 1000
18-24: 1000 -> 1000
18-25: 1000 -> 1000
18-26: 1000 -> 1000
18-27: 1000 -> 1000
18-28: 1000 -> 1000
18-29: 1000 -> 1000
18-30: 1000 -> 1000
18-31: 1000 -> 1000
18-32: 1000 -> 1000
19-19: 1000 -> 1000
19-20: 1000 -> 999
19-21: 1000 -> 1000
19-22: 1000 -> 1000
19-23: 1000 -> 1000
19-24: 1000 -> 1000
19-25: 1000 -> 1000
19-26: 1000 -> 1000
19-27: 1000 -> 1000
19-28: 1000 -> 1000
19-29: 1000 -> 1000
19-30: 1000 -> 1000
19-31: 1000 -> 1000
19-32: 1000 -> 1000
20-20: 1000 -> 998
20-21: 1000 -> 999
20-22: 1000 -> 1000
20-23: 1000 -> 1000
20-24: 1000 -> 1000
20-25: 1000 -> 1000
20-26: 1000 -> 1000
20-27: 1000 -> 1000
20-28: 1000 -> 1000
20-29: 1000 -> 1000
20-30: 1000 -> 1000
20-31: 1000 -> 1000
20-32: 1000 -> 1000
4-16: 10000 -> 10321
4-17: 10000 -> 7468
4-18: 10000 -> 11658
4-19: 10000 -> 12012
4-20: 10000 -> 8302
4-21: 10000 -> 7587
4-22: 10000 -> 9709
4-23: 10000 -> 10311
4-24: 10000 -> 9347
4-25: 10000 -> 8290
4-26: 10000 -> 9195
4-27: 10000 -> 5151
4-28: 10000 -> 9225
4-29: 10000 -> 12831
4-30: 10000 -> 9316
4-31: 10000 -> 7506
4-32: 10000 -> 16305
5-16: 10000 -> 7816
5-17: 10000 -> 11665
5-18: 10000 -> 10611
5-19: 10000 -> 8395
5-20: 10000 -> 8659
5-21: 10000 -> 11595
5-22: 10000 -> 7524
5-23: 10000 -> 9279
5-24: 10000 -> 9825
5-25: 10000 -> 8073
5-26: 10000 -> 10258
5-27: 10000 -> 9292
5-28: 10000 -> 9745
5-29: 10000 -> 13066
5-30: 10000 -> 9725
5-31: 10000 -> 9075
5-32: 10000 -> 7322
6-16: 10000 -> 11092
6-17: 10000 -> 8406
6-18: 10000 -> 7906
6-19: 10000 -> 8092
6-20: 10000 -> 10075
6-21: 10000 -> 9426
6-22: 10000 -> 10228
6-23: 10000 -> 11630
6-24: 10000 -> 10100
6-25: 10000 -> 9472
6-26: 10000 -> 10048
6-27: 10000 -> 10436
6-28: 10000 -> 12186
6-29: 10000 -> 8957
6-30: 10000 -> 8249
6-31: 10000 -> 9244
6-32: 10000 -> 9700
7-16: 10000 -> 9516
7-17: 10000 -> 9206
7-18: 10000 -> 10386
7-19: 10000 -> 10529
7-20: 10000 -> 10119
7-21: 10000 -> 10317
7-22: 10000 -> 10274
7-23: 10000 -> 9173
7-24: 10000 -> 10916
7-25: 10000 -> 9637
7-26: 10000 -> 9251
7-27: 10000 -> 9503
7-28: 10000 -> 10114
7-29: 10000 -> 10838
7-30: 10000 -> 8338
7-31: 10000 -> 12141
7-32: 10000 -> 11757
8-16: 10000 -> 10210
8-17: 10000 -> 9128
8-18: 10000 -> 9364
8-19: 10000 -> 10179
8-20: 10000 -> 10500
8-21: 10000 -> 9850
8-22: 10000 -> 9831
8-23: 10000 -> 9271
8-24: 10000 -> 9834
8-25: 10000 -> 9726
8-26: 10000 -> 9738
8-27: 10000 -> 9709
8-28: 10000 -> 11759
8-29: 10000 -> 10500
8-30: 10000 -> 9982
8-31: 10000 -> 10017
8-32: 10000 -> 10303
9-16: 10000 -> 10079
9-17: 10000 -> 9797
9-18: 10000 -> 9981
9-19: 10000 -> 9975
9-20: 10000 -> 10017
9-21: 10000 -> 9831
9-22: 10000 -> 10342
9-23: 10000 -> 10004
9-24: 10000 -> 9840
9-25: 10000 -> 10641
9-26: 10000 -> 9889
9-27: 10000 -> 9413
9-28: 10000 -> 9508
9-29: 10000 -> 9678
9-30: 10000 -> 9932
9-31: 10000 -> 10132
9-32: 10000 -> 9599
10-16: 10000 -> 9673
10-17: 10000 -> 10361
10-18: 10000 -> 10264
10-19: 10000 -> 10684
10-20: 10000 -> 10014
10-21: 10000 -> 9891
10-22: 10000 -> 9950
10-23: 10000 -> 9988
10-24: 10000 -> 9878
10-25: 10000 -> 10311
10-26: 10000 -> 9881
10-27: 10000 -> 9868
10-28: 10000 -> 9315
10-29: 10000 -> 9517
10-30: 10000 -> 8746
10-31: 10000 -> 8782
10-32: 10000 -> 9384
11-16: 10000 -> 9907
11-17: 10000 -> 9738
11-18: 10000 -> 9570
11-19: 10000 -> 10023
11-20: 10000 -> 10403
11-21: 10000 -> 10000
11-22: 10000 -> 10085
11-23: 10000 -> 10359
11-24: 10000 -> 9824
11-25: 10000 -> 10015
11-26: 10000 -> 9565
11-27: 10000 -> 9736
11-28: 10000 -> 9287
11-29: 10000 -> 8619
11-30: 10000 -> 8800
11-31: 10000 -> 8528
11-32: 10000 -> 8676
12-16: 10000 -> 10110
12-17: 10000 -> 9894
12-18: 10000 -> 10071
12-19: 10000 -> 9881
12-20: 10000 -> 10089
12-21: 10000 -> 10069
12-22: 10000 -> 10285
12-23: 10000 -> 10021
12-24: 10000 -> 10066
12-25: 10000 -> 10115
12-26: 10000 -> 8946
12-27: 10000 -> 8171
12-28: 10000 -> 7488
12-29: 10000 -> 6887
12-30: 10000 -> 6681
12-31: 10000 -> 6539
12-32: 10000 -> 6410
13-16: 10000 -> 10086
13-17: 10000 -> 9963
13-18: 10000 -> 10088
13-19: 10000 -> 10073
13-20: 10000 -> 9987
13-21: 10000 -> 10094
13-22: 10000 -> 9986
13-23: 10000 -> 9994
13-24: 10000 -> 10013
13-25: 10000 -> 9975
13-26: 10000 -> 8067
13-27: 10000 -> 5380
13-28: 10000 -> 4192
13-29: 10000 -> 3592
13-30: 10000 -> 3325
13-31: 10000 -> 3182
13-32: 10000 -> 3144
14-16: 10000 -> 10026
14-17: 10000 -> 10029
14-18: 10000 -> 10009
14-19: 10000 -> 10005
14-20: 10000 -> 10008
14-21: 10000 -> 10008
14-22: 10000 -> 10003
14-23: 10000 -> 10004
14-24: 10000 -> 9999
14-25: 10000 -> 10001
14-26: 10000 -> 10001
14-27: 10000 -> 9999
14-28: 10000 -> 9998
14-29: 10000 -> 9999
14-30: 10000 -> 9997
14-31: 10000 -> 9996
14-32: 10000 -> 9999
15-16: 10000 -> 10017
15-17: 10000 -> 10028
15-18: 10000 -> 9998
15-19: 10000 -> 10009
15-20: 10000 -> 10009
15-21: 10000 -> 10002
15-22: 10000 -> 10004
15-23: 10000 -> 9999
15-24: 10000 -> 9999
15-25: 10000 -> 10001
15-26: 10000 -> 9998
15-27: 10000 -> 9998
15-28: 10000 -> 9997
15-29: 10000 -> 9999
15-30: 10000 -> 10000
15-31: 10000 -> 9998
15-32: 10000 -> 10000
16-16: 10000 -> 10006
16-17: 10000 -> 9969
16-18: 10000 -> 10006
16-19: 10000 -> 10004
16-20: 10000 -> 10007
16-21: 10000 -> 10003
16-22: 10000 -> 10001
16-23: 10000 -> 10000
16-24: 10000 -> 10003
16-25: 10000 -> 10000
16-26: 10000 -> 10000
16-27: 10000 -> 9998
16-28: 10000 -> 10000
16-29: 10000 -> 9999
16-30: 10000 -> 9999
16-31: 10000 -> 9998
16-32: 10000 -> 9999
17-17: 10000 -> 9979
17-18: 10000 -> 10015
17-19: 10000 -> 9996
17-20: 10000 -> 9999
17-21: 10000 -> 9995
17-22: 10000 -> 10000
17-23: 10000 -> 10002
17-24: 10000 -> 9998
17-25: 10000 -> 9999
17-26: 10000 -> 10001
17-27: 10000 -> 9998
17-28: 10000 -> 10000
17-29: 10000 -> 10000
17-30: 10000 -> 9999
17-31: 10000 -> 9998
17-32: 10000 -> 10000
18-18: 10000 -> 9987
18-19: 10000 -> 10012
18-20: 10000 -> 9992
18-21: 10000 -> 10008
18-22: 10000 -> 10000
18-23: 10000 -> 10001
18-24: 10000 -> 10001
18-25: 10000 -> 10001
18-26: 10000 -> 10000
18-27: 10000 -> 10000
18-28: 10000 -> 9999
18-29: 10000 -> 9999
18-30: 10000 -> 9998
18-31: 10000 -> 9999
18-32: 10000 -> 9999
19-19: 10000 -> 10014
19-20: 10000 -> 10009
19-21: 10000 -> 10000
19-22: 10000 -> 10003
19-23: 10000 -> 9999
19-24: 10000 -> 10000
19-25: 10000 -> 10000
19-26: 10000 -> 10000
19-27: 10000 -> 10000
19-28: 10000 -> 9996
19-29: 10000 -> 9999
19-30: 10000 -> 9997
19-31: 10000 -> 9997
19-32: 10000 -> 10000
20-20: 10000 -> 9996
20-21: 10000 -> 9997
20-22: 10000 -> 9996
20-23: 10000 -> 10002
20-24: 10000 -> 10000
20-25: 10000 -> 9997
20-26: 10000 -> 10000
20-27: 10000 -> 9998
20-28: 10000 -> 9998
20-29: 10000 -> 10000
20-30: 10000 -> 9998
20-31: 10000 -> 9998
20-32: 10000 -> 10000
4-16: 100000 -> 85823
4-17: 100000 -> 89235
4-18: 100000 -> 94659
4-19: 100000 -> 96350
4-20: 100000 -> 104789
4-21: 100000 -> 87868
4-22: 100000 -> 63255
4-23: 100000 -> 92931
4-24: 100000 -> 102182
4-25: 100000 -> 57903
4-26: 100000 -> 90874
4-27: 100000 -> 120760
4-28: 100000 -> 98504
4-29: 100000 -> 134417
4-30: 100000 -> 70349
4-31: 100000 -> 76777
4-32: 100000 -> 99262
5-16: 100000 -> 96792
5-17: 100000 -> 86861
5-18: 100000 -> 93925
5-19: 100000 -> 142240
5-20: 100000 -> 73114
5-21: 100000 -> 129930
5-22: 100000 -> 96842
5-23: 100000 -> 124071
5-24: 100000 -> 80490
5-25: 100000 -> 100053
5-26: 100000 -> 142389
5-27: 100000 -> 122688
5-28: 100000 -> 128990
5-29: 100000 -> 136769
5-30: 100000 -> 88484
5-31: 100000 -> 109929
5-32: 100000 -> 78945
6-16: 100000 -> 94084
6-17: 100000 -> 87984
6-18: 100000 -> 100912
6-19: 100000 -> 104644
6-20: 100000 -> 88203
6-21: 100000 -> 109727
6-22: 100000 -> 86235
6-23: 100000 -> 90737
6-24: 100000 -> 97251
6-25: 100000 -> 114651
6-26: 100000 -> 94634
6-27: 100000 -> 154919
6-28: 100000 -> 102213
6-29: 100000 -> 103428
6-30: 100000 -> 109786
6-31: 100000 -> 102295
6-32: 100000 -> 114599
7-16: 100000 -> 113948
7-17: 100000 -> 99214
7-18: 100000 -> 106047
7-19: 100000 -> 94887
7-20: 100000 -> 93081
7-21: 100000 -> 131727
7-22: 100000 -> 102745
7-23: 100000 -> 84100
7-24: 100000 -> 91240
7-25: 100000 -> 93234
7-26: 100000 -> 112271
7-27: 100000 -> 102087
7-28: 100000 -> 75005
7-29: 100000 -> 95879
7-30: 100000 -> 94200
7-31: 100000 -> 93574
7-32: 100000 -> 106743
8-16: 100000 -> 98375
8-17: 100000 -> 91835
8-18: 100000 -> 96197
8-19: 100000 -> 102534
8-20: 100000 -> 102298
8-21: 100000 -> 96675
8-22: 100000 -> 115777
8-23: 100000 -> 103647
8-24: 100000 -> 95409
8-25: 100000 -> 102074
8-26: 100000 -> 88707
8-27: 100000 -> 96178
8-28: 100000 -> 97368
8-29: 100000 -> 92048
8-30: 100000 -> 105716
8-31: 100000 -> 95982
8-32: 100000 -> 104759
9-16: 100000 -> 101084
9-17: 100000 -> 98533
9-18: 100000 -> 106406
9-19: 100000 -> 105990
9-20: 100000 -> 104905
9-21: 100000 -> 102482
9-22: 100000 -> 99148
9-23: 100000 -> 96469
9-24: 100000 -> 99362
9-25: 100000 -> 101603
9-26: 100000 -> 96125
9-27: 100000 -> 89735
9-28: 100000 -> 98486
9-29: 100000 -> 99097
9-30: 100000 -> 102327
9-31: 100000 -> 99972
9-32: 100000 -> 110557
10-16: 100000 -> 94637
10-17: 100000 -> 100280
10-18: 100000 -> 98098
10-19: 100000 -> 99953
10-20: 100000 -> 98784
10-21: 100000 -> 94916
10-22: 100000 -> 100595
10-23: 100000 -> 98518
10-24: 100000 -> 102263
10-25: 100000 -> 95316
10-26: 100000 -> 98951
10-27: 100000 -> 102691
10-28: 100000 -> 100235
10-29: 100000 -> 96321
10-30: 100000 -> 99668
10-31: 100000 -> 103241
10-32: 100000 -> 96705
11-16: 100000 -> 98317
11-17: 100000 -> 99121
11-18: 100000 -> 100033
11-19: 100000 -> 99262
11-20: 100000 -> 98257
11-21: 100000 -> 98638
11-22: 100000 -> 99196
11-23: 100000 -> 99874
11-24: 100000 -> 104791
11-25: 100000 -> 100754
11-26: 100000 -> 96484
11-27: 100000 -> 99524
11-28: 100000 -> 101579
11-29: 100000 -> 95280
11-30: 100000 -> 101491
11-31: 100000 -> 97371
11-32: 100000 -> 99743
12-16: 100000 -> 99455
12-17: 100000 -> 104120
12-18: 100000 -> 101079
12-19: 100000 -> 98813
12-20: 100000 -> 100445
12-21: 100000 -> 99806
12-22: 100000 -> 101328
12-23: 100000 -> 98256
12-24: 100000 -> 103566
12-25: 100000 -> 99906
12-26: 100000 -> 101532
12-27: 100000 -> 100327
12-28: 100000 -> 101720
12-29: 100000 -> 101208
12-30: 100000 -> 97401
12-31: 100000 -> 99151
12-32: 100000 -> 98324
13-16: 100000 -> 100649
13-17: 100000 -> 100516
13-18: 100000 -> 99590
13-19: 100000 -> 98616
13-20: 100000 -> 100744
13-21: 100000 -> 99126
13-22: 100000 -> 99285
13-23: 100000 -> 101084
13-24: 100000 -> 100838
13-25: 100000 -> 99966
13-26: 100000 -> 99417
13-27: 100000 -> 100126
13-28: 100000 -> 97324
13-29: 100000 -> 94939
13-30: 100000 -> 94415
13-31: 100000 -> 93734
13-32: 100000 -> 94047
14-16: 100000 -> 99486
14-17: 100000 -> 100157
14-18: 100000 -> 99503
14-19: 100000 -> 98538
14-20: 100000 -> 100969
14-21: 100000 -> 99617
14-22: 100000 -> 99770
14-23: 100000 -> 100883
14-24: 100000 -> 99702
14-25: 100000 -> 100761
14-26: 100000 -> 99168
14-27: 100000 -> 96272
14-28: 100000 -> 92739
14-29: 100000 -> 91928
14-30: 100000 -> 88982
14-31: 100000 -> 88526
14-32: 100000 -> 88145
15-16: 100000 -> 99919
15-17: 100000 -> 99841
15-18: 100000 -> 98999
15-19: 100000 -> 100280
15-20: 100000 -> 99715
15-21: 100000 -> 100200
15-22: 100000 -> 100137
15-23: 100000 -> 100541
15-24: 100000 -> 100713
15-25: 100000 -> 100129
15-26: 100000 -> 92932
15-27: 100000 -> 85801
15-28: 100000 -> 78939
15-29: 100000 -> 75832
15-30: 100000 -> 73330
15-31: 100000 -> 72332
15-32: 100000 -> 71194
16-16: 100000 -> 100198
16-17: 100000 -> 99725
16-18: 100000 -> 99549
16-19: 100000 -> 100289
16-20: 100000 -> 100210
16-21: 100000 -> 99231
16-22: 100000 -> 99713
16-23: 100000 -> 100389
16-24: 100000 -> 99787
16-25: 100000 -> 100568
16-26: 100000 -> 85726
16-27: 100000 -> 71028
16-28: 100000 -> 61112
16-29: 100000 -> 54698
16-30: 100000 -> 49566
16-31: 100000 -> 48614
16-32: 100000 -> 47871
17-17: 100000 -> 100168
17-18: 100000 -> 99913
17-19: 100000 -> 100173
17-20: 100000 -> 100026
17-21: 100000 -> 99949
17-22: 100000 -> 99966
17-23: 100000 -> 99786
17-24: 100000 -> 100225
17-25: 100000 -> 100009
17-26: 100000 -> 65426
17-27: 100000 -> 35659
17-28: 100000 -> 17455
17-29: 100000 -> 8459
17-30: 100000 -> 4161
17-31: 100000 -> 2064
17-32: 100000 -> 1028
18-18: 100000 -> 99984
18-19: 100000 -> 100039
18-20: 100000 -> 100132
18-21: 100000 -> 100013
18-22: 100000 -> 100029
18-23: 100000 -> 99967
18-24: 100000 -> 99991
18-25: 100000 -> 100003
18-26: 100000 -> 99916
18-27: 100000 -> 99883
18-28: 100000 -> 99881
18-29: 100000 -> 99857
18-30: 100000 -> 99854
18-31: 100000 -> 99846
18-32: 100000 -> 99841
19-19: 100000 -> 100009
19-20: 100000 -> 100082
19-21: 100000 -> 100019
19-22: 100000 -> 99974
19-23: 100000 -> 100012
19-24: 100000 -> 99982
19-25: 100000 -> 100007
19-26: 100000 -> 99930
19-27: 100000 -> 99888
19-28: 100000 -> 99866
19-29: 100000 -> 99850
19-30: 100000 -> 99840
19-31: 100000 -> 99870
19-32: 100000 -> 99870
20-20: 100000 -> 100099
20-21: 100000 -> 100043
20-22: 100000 -> 100022
20-23: 100000 -> 100020
20-24: 100000 -> 100002
20-25: 100000 -> 100011
20-26: 100000 -> 99911
20-27: 100000 -> 99876
20-28: 100000 -> 99872
20-29: 100000 -> 99849
20-30: 100000 -> 99855
20-31: 100000 -> 99849
20-32: 100000 -> 99830
104408
expected: 10000000, estimate: 10012335, time: 1292
Percentage error  0.0012335
Expect estimate: 70630 is between 68293.75 and 71706.25
104408
Expect estimate: 19998 is between 19878.125 and 20121.875
Expect estimate: 16001 is between 15902.5 and 16097.5
Percentage error  6.25E-5
p=4
hllcardinality=0 cardinality=0
0 : 0
p=5
hllcardinality=0 cardinality=0
0 : 0
p=6
hllcardinality=0 cardinality=0
0 : 0
p=7
hllcardinality=0 cardinality=0
0 : 0
p=8
hllcardinality=0 cardinality=0
0 : 0
p=9
hllcardinality=0 cardinality=0
0 : 0
p=10
hllcardinality=0 cardinality=0
0 : 0
p=11
hllcardinality=0 cardinality=0
0 : 0
p=12
hllcardinality=0 cardinality=0
0 : 0
p=13
hllcardinality=0 cardinality=0
0 : 0
p=14
hllcardinality=0 cardinality=0
0 : 0
p=15
hllcardinality=0 cardinality=0
0 : 0
p=16
hllcardinality=0 cardinality=0
0 : 0
p=17
hllcardinality=0 cardinality=0
0 : 0
p=18
hllcardinality=0 cardinality=0
0 : 0
p=19
hllcardinality=0 cardinality=0
0 : 0
p=20
hllcardinality=0 cardinality=0
0 : 0
p=21
hllcardinality=0 cardinality=0
0 : 0
p=22
hllcardinality=0 cardinality=0
0 : 0
p=23
hllcardinality=0 cardinality=0
0 : 0
p=4
hllcardinality=1 cardinality=1
1 : 1
p=5
hllcardinality=1 cardinality=1
1 : 1
p=6
hllcardinality=1 cardinality=1
1 : 1
p=7
hllcardinality=1 cardinality=1
1 : 1
p=8
hllcardinality=1 cardinality=1
1 : 1
p=9
hllcardinality=1 cardinality=1
1 : 1
p=10
hllcardinality=1 cardinality=1
1 : 1
p=11
hllcardinality=1 cardinality=1
1 : 1
p=12
hllcardinality=1 cardinality=1
1 : 1
p=13
hllcardinality=1 cardinality=1
1 : 1
p=14
hllcardinality=1 cardinality=1
1 : 1
p=15
hllcardinality=1 cardinality=1
1 : 1
p=16
hllcardinality=1 cardinality=1
1 : 1
p=17
hllcardinality=1 cardinality=1
1 : 1
p=18
hllcardinality=1 cardinality=1
1 : 1
p=19
hllcardinality=1 cardinality=1
1 : 1
p=20
hllcardinality=1 cardinality=1
1 : 1
p=21
hllcardinality=1 cardinality=1
1 : 1
p=22
hllcardinality=1 cardinality=1
1 : 1
p=23
hllcardinality=1 cardinality=1
1 : 1
p=4
hllcardinality=10 cardinality=10
10 : 10
p=5
hllcardinality=11 cardinality=10
11 : 11
p=6
hllcardinality=11 cardinality=10
11 : 11
p=7
hllcardinality=10 cardinality=10
10 : 10
p=8
hllcardinality=10 cardinality=10
10 : 10
p=9
hllcardinality=10 cardinality=10
10 : 10
p=10
hllcardinality=10 cardinality=10
10 : 10
p=11
hllcardinality=10 cardinality=10
10 : 10
p=12
hllcardinality=10 cardinality=10
10 : 10
p=13
hllcardinality=10 cardinality=10
10 : 10
p=14
hllcardinality=10 cardinality=10
10 : 10
p=15
hllcardinality=10 cardinality=10
10 : 10
p=16
hllcardinality=10 cardinality=10
10 : 10
p=17
hllcardinality=10 cardinality=10
10 : 10
p=18
hllcardinality=10 cardinality=10
10 : 10
p=19
hllcardinality=10 cardinality=10
10 : 10
p=20
hllcardinality=10 cardinality=10
10 : 10
p=21
hllcardinality=10 cardinality=10
10 : 10
p=22
hllcardinality=10 cardinality=10
10 : 10
p=23
hllcardinality=10 cardinality=10
10 : 10
p=4
hllcardinality=91 cardinality=100
91 : 91
p=5
hllcardinality=113 cardinality=100
113 : 113
p=6
hllcardinality=98 cardinality=100
98 : 98
p=7
hllcardinality=99 cardinality=100
99 : 99
p=8
hllcardinality=99 cardinality=100
99 : 99
p=9
hllcardinality=99 cardinality=100
99 : 99
p=10
hllcardinality=100 cardinality=100
100 : 100
p=11
hllcardinality=101 cardinality=100
101 : 101
p=12
hllcardinality=101 cardinality=100
101 : 101
p=13
hllcardinality=100 cardinality=100
100 : 100
p=14
hllcardinality=100 cardinality=100
100 : 100
p=15
hllcardinality=99 cardinality=100
99 : 99
p=16
hllcardinality=100 cardinality=100
100 : 100
p=17
hllcardinality=100 cardinality=100
100 : 100
p=18
hllcardinality=100 cardinality=100
100 : 100
p=19
hllcardinality=100 cardinality=100
100 : 100
p=20
hllcardinality=100 cardinality=100
100 : 100
p=21
hllcardinality=100 cardinality=100
100 : 100
p=22
hllcardinality=100 cardinality=100
100 : 100
p=23
hllcardinality=100 cardinality=100
100 : 100
p=4
hllcardinality=801 cardinality=1000
801 : 801
p=5
hllcardinality=1296 cardinality=1000
1296 : 1296
p=6
hllcardinality=1030 cardinality=1000
1030 : 1030
p=7
hllcardinality=931 cardinality=1000
931 : 931
p=8
hllcardinality=1014 cardinality=1000
1014 : 1014
p=9
hllcardinality=989 cardinality=1000
989 : 989
p=10
hllcardinality=987 cardinality=1000
987 : 987
p=11
hllcardinality=1010 cardinality=1000
1010 : 1010
p=12
hllcardinality=984 cardinality=1000
984 : 984
p=13
hllcardinality=1001 cardinality=1000
1001 : 1001
p=14
hllcardinality=997 cardinality=1000
997 : 997
p=15
hllcardinality=998 cardinality=1000
998 : 998
p=16
hllcardinality=1000 cardinality=1000
1000 : 1000
p=17
hllcardinality=1000 cardinality=1000
1000 : 1000
p=18
hllcardinality=1002 cardinality=1000
1002 : 1002
p=19
hllcardinality=1001 cardinality=1000
1001 : 1001
p=20
hllcardinality=1000 cardinality=1000
1000 : 1000
p=21
hllcardinality=1000 cardinality=1000
1000 : 1000
p=22
hllcardinality=1000 cardinality=1000
1000 : 1000
p=23
hllcardinality=1000 cardinality=1000
1000 : 1000
p=4
hllcardinality=12167 cardinality=10000
12167 : 12167
p=5
hllcardinality=7603 cardinality=10000
7603 : 7603
p=6
hllcardinality=9502 cardinality=10000
9502 : 9502
p=7
hllcardinality=11239 cardinality=10000
11239 : 11239
p=8
hllcardinality=10194 cardinality=10000
10194 : 10194
p=9
hllcardinality=9932 cardinality=10000
9932 : 9932
p=10
hllcardinality=9892 cardinality=10000
9892 : 9892
p=11
hllcardinality=9918 cardinality=10000
9918 : 9918
p=12
hllcardinality=9976 cardinality=10000
9976 : 9976
p=13
hllcardinality=9927 cardinality=10000
9927 : 9927
p=14
hllcardinality=10057 cardinality=10000
10057 : 10057
p=15
hllcardinality=10035 cardinality=10000
10035 : 10035
p=16
hllcardinality=9991 cardinality=10000
9991 : 9991
p=17
hllcardinality=9989 cardinality=10000
9989 : 9989
p=18
hllcardinality=10002 cardinality=10000
10002 : 10002
p=19
hllcardinality=10019 cardinality=10000
10019 : 10019
p=20
hllcardinality=10003 cardinality=10000
10003 : 10003
p=21
hllcardinality=9998 cardinality=10000
9998 : 9998
p=22
hllcardinality=10005 cardinality=10000
10005 : 10005
p=23
hllcardinality=10001 cardinality=10000
10001 : 10001
p=4
hllcardinality=63344 cardinality=100000
63344 : 63344
p=5
hllcardinality=90737 cardinality=100000
90737 : 90737
p=6
hllcardinality=92998 cardinality=100000
92998 : 92998
p=7
hllcardinality=100243 cardinality=100000
100243 : 100243
p=8
hllcardinality=99756 cardinality=100000
99756 : 99756
p=9
hllcardinality=111358 cardinality=100000
111358 : 111358
p=10
hllcardinality=96666 cardinality=100000
96666 : 96666
p=11
hllcardinality=96014 cardinality=100000
96014 : 96014
p=12
hllcardinality=99652 cardinality=100000
99652 : 99652
p=13
hllcardinality=99014 cardinality=100000
99014 : 99014
p=14
hllcardinality=99868 cardinality=100000
99868 : 99868
p=15
hllcardinality=100087 cardinality=100000
100087 : 100087
p=16
hllcardinality=100391 cardinality=100000
100391 : 100391
p=17
hllcardinality=100082 cardinality=100000
100082 : 100082
p=18
hllcardinality=100114 cardinality=100000
100114 : 100114
p=19
hllcardinality=100178 cardinality=100000
100178 : 100178
p=20
hllcardinality=100043 cardinality=100000
100043 : 100043
p=21
hllcardinality=100006 cardinality=100000
100006 : 100006
p=22
hllcardinality=99888 cardinality=100000
99888 : 99888
p=23
hllcardinality=99996 cardinality=100000
99996 : 99996
p=4
hllcardinality=1038259 cardinality=1000000
1038259 : 1038259
p=5
hllcardinality=824170 cardinality=1000000
824170 : 824170
p=6
hllcardinality=1381952 cardinality=1000000
1381952 : 1381952
p=7
hllcardinality=1055953 cardinality=1000000
1055953 : 1055953
p=8
hllcardinality=948788 cardinality=1000000
948788 : 948788
p=9
hllcardinality=923241 cardinality=1000000
923241 : 923241
p=10
hllcardinality=1000504 cardinality=1000000
1000504 : 1000504
p=11
hllcardinality=1030449 cardinality=1000000
1030449 : 1030449
p=12
hllcardinality=984367 cardinality=1000000
984367 : 984367
p=13
hllcardinality=1002283 cardinality=1000000
1002283 : 1002283
p=14
hllcardinality=1003081 cardinality=1000000
1003081 : 1003081
p=15
hllcardinality=1002215 cardinality=1000000
1002215 : 1002215
p=16
hllcardinality=997986 cardinality=1000000
997986 : 997986
p=17
hllcardinality=999898 cardinality=1000000
999898 : 999898
p=18
hllcardinality=999597 cardinality=1000000
999597 : 999597
p=19
hllcardinality=1000201 cardinality=1000000
1000201 : 1000201
p=20
hllcardinality=1000431 cardinality=1000000
1000431 : 1000431
p=21
hllcardinality=999829 cardinality=1000000
999829 : 999829
p=22
hllcardinality=999533 cardinality=1000000
999533 : 999533
p=23
hllcardinality=999964 cardinality=1000000
999964 : 999964
Expect estimate: 199897 is between 198781.25 and 201218.75
Expect estimate: 14988 is between 14634.375 and 15365.625
Tests run: 21, Failures: 0, Errors: 0, Skipped: 0, Time elapsed: 28.862 sec - in com.clearspring.analytics.stream.cardinality.TestHyperLogLogPlus
Running com.clearspring.analytics.stream.cardinality.TestLinearCounting
Tests run: 8, Failures: 0, Errors: 0, Skipped: 0, Time elapsed: 0.009 sec - in com.clearspring.analytics.stream.cardinality.TestLinearCounting
Running com.clearspring.analytics.stream.cardinality.RegisterSetTest
Tests run: 5, Failures: 0, Errors: 0, Skipped: 0, Time elapsed: 0 sec - in com.clearspring.analytics.stream.cardinality.RegisterSetTest
Running com.clearspring.analytics.stream.cardinality.TestAndGraphResults
Tests run: 1, Failures: 0, Errors: 0, Skipped: 1, Time elapsed: 0 sec - in com.clearspring.analytics.stream.cardinality.TestAndGraphResults
Running com.clearspring.analytics.stream.cardinality.TestICardinality
size: 65536 bytes
999679
% Error: 0.0321
Tests run: 2, Failures: 0, Errors: 0, Skipped: 0, Time elapsed: 0.123 sec - in com.clearspring.analytics.stream.cardinality.TestICardinality
Running com.clearspring.analytics.stream.TestStreamSummary
Geometric:
0
1
2
3
4
[{25039:[{0:0}]},{18880:[{1:0}]},{14028:[{2:0}]},{10666:[{3:0}]},{7780:[{4:2}]},{5724:[{5:1}]},{4538:[{6:403}]},{4449:[{7:4443}]},{4448:[{23:4447},{8:4447}]}]
[{1:[{X:0}]}]
[{2:[{X:0}]}]
[{2:[{X:0}]},{1:[{Y:0}]}]
[{2:[{X:0}]},{1:[{Y:0},{Z:0}]}]
[{2:[{X:0},{A:1}]},{1:[{Z:0}]}]
[{2:[{X:0},{A:1},{B:1}]}]
[{3:[{C:2}]},{2:[{A:1},{B:1}]}]
[{3:[{C:2},{X:2}]},{2:[{B:1}]}]
[{4:[{X:2}]},{3:[{C:2}]},{2:[{B:1}]}]
[{4:[{X:2}]},{3:[{C:2},{A:2}]}]
[{4:[{X:2},{A:2}]},{3:[{C:2}]}]
[{5:[{A:2}]},{4:[{X:2}]},{3:[{C:2}]}]
Insert with counts vs. single inserts:
[{45:[{D:15}]},{25:[{C:0}]},{21:[{A:20}]}]
[{45:[{D:15}]},{25:[{C:0}]},{21:[{A:20}]}]
Tests run: 8, Failures: 0, Errors: 0, Skipped: 0, Time elapsed: 0.016 sec - in com.clearspring.analytics.stream.TestStreamSummary
Running com.clearspring.analytics.stream.TestSampleSet
Tests run: 4, Failures: 0, Errors: 0, Skipped: 0, Time elapsed: 0.001 sec - in com.clearspring.analytics.stream.TestSampleSet
Running com.clearspring.analytics.stream.membership.BloomFilterTest
1/11 - got 0.0076, math says 0.00819
2/11 - got 0.00457, math says 0.00509
3/11 - got 0.00269, math says 0.00314
4/11 - got 0.00174, math says 0.00194
5/11 - got 8.8E-4, math says 0.0012
6/11 - got 8.8E-4, math says 7.44E-4
7/11 - got 5.4E-4, math says 4.59E-4
8/11 - got 4.0E-4, math says 2.84E-4
9/11 - got 2.2E-4, math says 1.76E-4
10/11 - got 3.1E-4, math says 1.09E-4
11/11 - got 2.2E-4, math says 6.71E-5
expectedFalsePositiveProbability
Tests run: 15, Failures: 0, Errors: 0, Skipped: 4, Time elapsed: 4.731 sec - in com.clearspring.analytics.stream.membership.BloomFilterTest
Running com.clearspring.analytics.stream.membership.Base64Test
Tests run: 1, Failures: 0, Errors: 0, Skipped: 0, Time elapsed: 0.311 sec - in com.clearspring.analytics.stream.membership.Base64Test
Running com.clearspring.analytics.stream.membership.FilterTest
Tests run: 1, Failures: 0, Errors: 0, Skipped: 0, Time elapsed: 0.054 sec - in com.clearspring.analytics.stream.membership.FilterTest
Running com.clearspring.analytics.util.TestDoublyLinkedList
Tests run: 7, Failures: 0, Errors: 0, Skipped: 0, Time elapsed: 0.001 sec - in com.clearspring.analytics.util.TestDoublyLinkedList

Results :

Tests run: 143, Failures: 0, Errors: 0, Skipped: 9

[INFO] ------------------------------------------------------------------------
[INFO] BUILD SUCCESS
[INFO] ------------------------------------------------------------------------
[INFO] Total time: 01:35 min
[INFO] Finished at: 2017-01-05T21:30:02-06:00
[INFO] Final Memory: 29M/1930M
[INFO] ------------------------------------------------------------------------
