08e6e578823c717f5fe68009f570729cb9796f32 [FaultTracer] Extracted changes: 0 0 1 0 0 0 0 0 0 0 0 0 4 0 0 0 0 0 0 0 0 0 0 0 1 0 0 0
36b82ca6cc7ea6d6d708e068779ee75c8668ce4a [FaultTracer] Extracted changes: 1 0 17 1 1 0 1 0 0 4 4 3 6 1 4 8 1 0 1 0 0 3 2 2 3 1 3 8
833ede4a5c3abdebded9fb121d6c175dc0d6c9f9 [FaultTracer] Extracted changes: 5 0 0 0 0 0 0 0 0 0 0 0 0 0 0 0 0 0 0 0 0 0 0 0 0 0 0 0
f27141e44b4fc5508c42ba803049c4a0a7e1baad [FaultTracer] Extracted changes: 0 5 9 0 0 0 0 0 0 1 2 1 0 2 5 5 0 0 0 0 0 1 1 1 0 2 3 4
d2ba0b4e9ed53142b80048104b315080b63ade46 [FaultTracer] Extracted changes: 0 2 15 2 0 0 0 0 2 3 0 0 0 7 6 10 0 0 0 0 1 3 0 0 0 5 3 6
643106cc52a13b98da635b364bef1bd602da9b31 [FaultTracer] Extracted changes: 0 0 0 0 0 0 0 0 0 0 0 0 0 0 0 0 0 0 0 0 0 0 0 0 0 0 0 0
afe0d725e67e5013eda62942c252f3efa116cb68 [FaultTracer] Extracted changes: 0 0 0 0 0 0 0 0 0 0 0 0 0 0 0 0 0 0 0 0 0 0 0 0 0 0 0 0
b942e455468ad09fba96362f9a785b9ddbcafa80 [FaultTracer] Extracted changes: 0 0 1 0 0 0 0 0 0 1 0 0 0 0 0 0 0 0 0 0 0 1 0 0 0 0 0 0
074ff353744eff286fa4eb67f6636c46f080432f [FaultTracer] Extracted changes: 0 0 2 0 0 0 0 0 0 1 0 0 1 0 0 0 0 0 0 0 0 1 0 0 1 0 0 0
9ac38aa72115deef1705ff045fe84417289c76c6 [FaultTracer] Extracted changes: 0 0 7 3 0 0 0 0 0 1 0 0 1 2 3 2 0 0 0 0 0 1 0 0 1 1 2 2
d003a44008bf940f51fffd77be0191129be5e034 [FaultTracer] Extracted changes: 1 0 5 3 0 0 0 0 0 1 0 0 0 1 0 1 0 0 0 0 0 1 0 0 0 1 0 1
b18769bcb38d2fa375390869862e85cfc30351f8 [FaultTracer] Extracted changes: 0 0 3 0 0 0 0 0 2 2 1 3 0 0 0 1 0 0 0 0 2 2 1 1 0 0 0 1
7399cd0e140443c1966bbefd09bf304568d6d398 [FaultTracer] Extracted changes: 0 0 1 0 0 0 0 0 0 0 0 0 0 0 0 1 0 0 0 0 0 0 0 0 0 0 0 1
7924c3eb138ad3f697b834e6c27c2dd222d8ac30 [FaultTracer] Extracted changes: 0 0 2 0 0 0 0 0 0 0 0 0 0 0 1 1 0 0 0 0 0 0 0 0 0 0 1 1
92cbdb5d32db531f232e2be89db8525652835d67 [FaultTracer] Extracted changes: 0 0 1 0 0 0 0 0 0 0 0 0 0 0 0 1 0 0 0 0 0 0 0 0 0 0 0 1
058266d5b4f6ad8fb3815a42d9ae939a22efc8aa [FaultTracer] Extracted changes: 0 0 1 0 0 0 0 0 0 1 0 0 0 0 0 1 0 0 0 0 0 1 0 0 0 0 0 1
ba7a1d9221953eba24de09e6b34fa03fc464134b [FaultTracer] Extracted changes: 5 0 3 0 0 0 0 0 0 0 1 2 0 0 1 2 0 0 0 0 0 0 1 1 0 0 1 2
c8aab833dc81f7ce2d6371775fb8ecf8e3e7c747 [FaultTracer] Extracted changes: 0 6 11 3 0 0 0 1 0 2 2 1 0 2 1 4 0 0 0 1 0 2 1 1 0 2 1 4
fd6b34f5810ea1c13b440c2e8a1c869251cd4982 [FaultTracer] Extracted changes: 6 0 9 2 0 0 0 0 1 1 1 2 0 0 2 4 0 0 0 0 1 1 1 1 0 0 2 4
076093555ee7eaf215b6697703c642b76950ba66 [FaultTracer] Extracted changes: 0 0 1 0 0 0 0 0 0 0 0 0 0 0 0 1 0 0 0 0 0 0 0 0 0 0 0 1
08470b872575f17374e2539730e4cf729f9ec896 [FaultTracer] Extracted changes: 0 0 0 0 0 0 0 0 0 0 0 0 0 0 0 0 0 0 0 0 0 0 0 0 0 0 0 0
ee0ea8f08d93e9e2bc915807361e40ac09294329 [FaultTracer] Extracted changes: 1 0 2 0 0 0 0 1 1 2 0 0 0 2 2 7 0 0 0 1 1 2 0 0 0 1 1 2
3fd1cc9a364474bb07515447966b55146f3ddd48 [FaultTracer] Extracted changes: 0 0 1 0 0 0 0 0 0 0 0 0 0 0 0 1 0 0 0 0 0 0 0 0 0 0 0 1
b39d864ed70afc943101ca41eab4ef3d6b91ac46 [FaultTracer] Extracted changes: 0 0 2 0 0 0 0 1 1 2 0 3 0 1 1 2 0 0 0 1 1 2 0 1 0 1 1 1
deb25442797903a2f57c84f3f714be0145a856e0 [FaultTracer] Extracted changes: 1 0 1 1 0 0 0 0 0 0 0 0 0 0 0 0 0 0 0 0 0 0 0 0 0 0 0 0
1042e648f7a183330cc3006b0f9a55f0c3a2d750 [FaultTracer] Extracted changes: 1 1 5 5 0 0 0 0 0 0 0 0 0 0 0 0 0 0 0 0 0 0 0 0 0 0 0 0
25d6d45f4c03dc357a81a6518eb5a3abbc051dc9 [FaultTracer] Extracted changes: 1 1 6 5 0 0 0 0 0 0 0 0 0 0 0 1 0 0 0 0 0 0 0 0 0 0 0 1
6ba7fcd8c4ee06909bf8e61f474ee7ea5e077139 [FaultTracer] Extracted changes: 0 0 2 0 0 0 0 0 0 0 0 0 1 0 0 1 0 0 0 0 0 0 0 0 1 0 0 1
06fb552d8154cf65f85902eb344ea4357cad9c99 [FaultTracer] Extracted changes: 0 0 1 0 0 0 0 0 0 0 0 0 0 0 0 1 0 0 0 0 0 0 0 0 0 0 0 1
05d5ffd894da949ba487d3793bbe23159f2ddb7a [FaultTracer] Extracted changes: 1 8 21 4 0 0 0 2 0 4 2 1 1 5 5 8 0 0 0 1 0 4 1 1 1 5 3 6
6d876743d57ea05c796322f75b0e089766632973 [FaultTracer] Extracted changes: 8 1 19 4 0 0 0 0 2 4 1 2 0 5 5 7 0 0 0 0 1 4 1 1 0 3 5 5
1d9f765acd7828bd876b1add7e097548552cfdcb [FaultTracer] Extracted changes: 0 0 0 0 0 0 0 0 0 0 0 0 0 0 0 0 0 0 0 0 0 0 0 0 0 0 0 0
2646eb2f2529f9c32cb16dea970c00f6f0e517cb [FaultTracer] Extracted changes: 0 0 0 0 0 0 0 0 0 0 0 0 0 0 0 0 0 0 0 0 0 0 0 0 0 0 0 0
a376bec7b2db06a3fe1fe74606fb3d286aaec36d [FaultTracer] Extracted changes: 0 0 0 0 0 0 0 0 0 0 0 0 0 0 0 0 0 0 0 0 0 0 0 0 0 0 0 0
ceace5949b9205a3431d72cb19fd2045da26951a [FaultTracer] Extracted changes: 0 0 0 0 0 0 0 0 0 0 0 0 0 0 0 0 0 0 0 0 0 0 0 0 0 0 0 0
4137c2c7fbfa05c02c1690d8331c7d9df8c7ebd8 [FaultTracer] Extracted changes: 0 0 9 0 0 0 2 0 0 0 0 0 0 5 0 11 0 0 2 0 0 0 0 0 0 1 0 8
a132a7d8029eabce3a92366982a49267226ba609 [FaultTracer] Extracted changes: 0 0 1 0 0 0 0 0 0 0 0 0 0 0 0 1 0 0 0 0 0 0 0 0 0 0 0 1
11fa801b49200d9d144eb4ee52bcb9ba9ddc91f8 [FaultTracer] Extracted changes: 1 1 5 5 0 0 0 0 0 0 0 0 0 0 0 0 0 0 0 0 0 0 0 0 0 0 0 0
eac72f9c0be74dc11a408572673540981bad7175 [FaultTracer] Extracted changes: 0 0 1 0 0 0 0 0 0 0 0 0 1 0 0 0 0 0 0 0 0 0 0 0 1 0 0 0
e31b1f3685b4379e3844dfc0db52b774d4e845c0 [FaultTracer] Extracted changes: 1 5 22 6 0 0 2 0 0 1 0 0 2 0 6 16 0 0 2 0 0 1 0 0 2 0 2 12
86bbee45de86820c572addcb5240e372dec66135 [FaultTracer] Extracted changes: 3 1 18 6 0 0 2 0 0 1 0 0 1 5 0 14 0 0 2 0 0 1 0 0 1 1 0 10
ce92645ba0fa2683048aae09901a973a902990a3 [FaultTracer] Extracted changes: 0 0 5 0 0 0 2 0 0 0 0 0 0 0 0 3 0 0 2 0 0 0 0 0 0 0 0 3
e25d5b56b3a345d6ea0b93987cf37667e366bf6d [FaultTracer] Extracted changes: 0 0 2 0 0 0 0 0 0 0 0 0 0 0 0 1 0 0 0 0 0 0 0 0 0 0 0 1
9bf7c9531d8efc9b18709c50c1d8c4b3fa847f3c [FaultTracer] Extracted changes: 0 0 1 0 0 0 0 0 0 1 0 0 0 0 0 0 0 0 0 0 0 1 0 0 0 0 0 0
87abc705ae9d37c9d938436e2df095f75bb5fc02 [FaultTracer] Extracted changes: 0 0 4 0 0 1 0 1 0 1 0 0 1 0 1 2 0 1 0 1 0 1 0 0 1 0 1 2
f7ca4d234a80af8de293bdb52e0a64fcdea007de [FaultTracer] Extracted changes: 0 0 0 0 0 0 0 0 0 0 0 0 0 0 0 0 0 0 0 0 0 0 0 0 0 0 0 0
caa777603cb75fef3554b1a945e544dcd22c6265 [FaultTracer] Extracted changes: 0 0 0 0 0 0 0 0 0 0 0 0 0 0 0 0 0 0 0 0 0 0 0 0 0 0 0 0
c3785830dfe906a07808786a5055d4a37d557b84 [FaultTracer] Extracted changes: 5 1 7 0 0 1 0 1 1 0 1 4 5 9 0 5 0 1 0 1 1 0 1 2 2 2 0 4
9d6d5cba5230cd1d746344b7fba8703933d8e708 [FaultTracer] Extracted changes: 0 1 6 2 0 0 0 0 0 1 0 0 0 1 4 0 0 0 0 0 0 1 0 0 0 1 2 0
e765382267892c0ec620de63d71cc212a0bb40d8 [FaultTracer] Extracted changes: 0 0 0 0 0 0 0 0 0 0 0 0 0 0 0 0 0 0 0 0 0 0 0 0 0 0 0 0
aee90cd860f29869ae83ccd5e5d80e9b48889f2e [FaultTracer] Extracted changes: 0 0 1 0 0 0 0 0 0 0 0 0 1 0 0 0 0 0 0 0 0 0 0 0 1 0 0 0
0ad7a2f75ec71077d8764c15ef037adc7bda7d3b [FaultTracer] Extracted changes: 0 0 0 0 0 0 0 0 0 0 0 0 0 0 0 0 0 0 0 0 0 0 0 0 0 0 0 0
d8c359182eb6cc3e5a802cc6925e1bc0ffa41722 [FaultTracer] Extracted changes: 0 2 6 0 0 0 0 0 0 1 0 1 0 0 8 2 0 0 0 0 0 1 0 1 0 0 5 1
0021f36a905c2b706a1e8259cc6ddd5b8b04b941 [FaultTracer] Extracted changes: 0 1 4 0 0 0 0 1 1 1 0 0 0 0 1 5 0 0 0 1 1 1 0 0 0 0 1 3
d66ed36a18a5a3189f4334b8465f49fb89b4c9a0 [FaultTracer] Extracted changes: 3 0 6 0 0 0 0 0 0 1 1 0 0 9 0 3 0 0 0 0 0 1 1 0 0 5 0 1
d6f655d6d67cc8f29f7ea0fbfd83e7677749b1ac [FaultTracer] Extracted changes: 4 13 60 9 2 0 5 3 2 10 7 2 9 12 18 35 2 0 5 2 2 9 4 2 6 8 7 27
027c9618e138b790e313bbc8aa9f8309794a8625 [FaultTracer] Extracted changes: 13 4 60 9 0 2 5 2 3 10 2 7 9 18 12 35 0 2 5 2 2 9 2 4 6 7 8 27
9c5f72063c2bde7e97568eaa53c4edd712e0e0e8 [FaultTracer] Extracted changes: 0 0 0 0 0 0 0 0 0 0 0 0 0 0 0 0 0 0 0 0 0 0 0 0 0 0 0 0
7c29c99bd0f7309b88773b263e76f927c60ef32e [FaultTracer] Extracted changes: 0 0 0 0 0 0 0 0 0 0 0 0 0 0 0 0 0 0 0 0 0 0 0 0 0 0 0 0
bc0341e7797453c856e57d92b87ff494f3d1d432 [FaultTracer] Extracted changes: 0 0 1 0 0 0 0 0 0 0 0 0 0 0 0 1 0 0 0 0 0 0 0 0 0 0 0 1
490fb759beeb2672b519b8975dc74c56e1764d86 [FaultTracer] Extracted changes: 0 0 1 0 0 0 0 0 0 0 0 0 0 0 0 1 0 0 0 0 0 0 0 0 0 0 0 1
13763e9fc475764c7e8d86eccca7c1e010e29793 [FaultTracer] Extracted changes: 0 0 4 0 0 0 0 0 0 1 0 0 0 0 0 5 0 0 0 0 0 1 0 0 0 0 0 4
6d1828b6c8b935c39c3d7a92e32b152b1ac54c56 [FaultTracer] Extracted changes: 0 0 0 0 0 0 0 0 0 0 0 0 0 0 0 0 0 0 0 0 0 0 0 0 0 0 0 0
d7db7c71eed2c33ba624339cd57caf7fbb3eefdd [FaultTracer] Extracted changes: 0 0 1 0 0 0 0 0 0 0 0 0 0 0 0 1 0 0 0 0 0 0 0 0 0 0 0 1
2a314dfff5d5731a76ca9762b71922316f3d4dc7 [FaultTracer] Extracted changes: 0 0 2 0 0 0 0 0 0 0 0 0 0 0 1 2 0 0 0 0 0 0 0 0 0 0 1 2
5c5b52c285d7a47f33494d7154cf232535657551 [FaultTracer] Extracted changes: 0 0 3 0 0 0 0 0 0 0 0 0 0 1 0 3 0 0 0 0 0 0 0 0 0 1 0 3
455c286ce118f76b8f590452990a20b1c8e72b51 [FaultTracer] Extracted changes: 0 0 1 0 0 0 0 0 0 0 0 0 0 0 0 1 0 0 0 0 0 0 0 0 0 0 0 1
1852dd49966d2af57f57d4c1f3cc6ad1d04b3b6b [FaultTracer] Extracted changes: 0 0 0 0 0 0 0 0 0 0 0 0 0 0 0 0 0 0 0 0 0 0 0 0 0 0 0 0
14c05c8aa142014192b5b2799b8c2b21677fd33d [FaultTracer] Extracted changes: 0 0 2 0 0 0 0 0 0 0 0 0 1 0 1 1 0 0 0 0 0 0 0 0 1 0 1 1
93d984bd77a758f5b2f0e5062699a6c21ac30ed6 [FaultTracer] Extracted changes: 0 0 0 0 0 0 0 0 0 0 0 0 0 0 0 0 0 0 0 0 0 0 0 0 0 0 0 0
03ac03c5be1ef80c103a166f32825b7ead020b60 [FaultTracer] Extracted changes: 0 0 3 0 0 0 0 0 0 0 0 0 0 0 1 3 0 0 0 0 0 0 0 0 0 0 1 3
47671103d2309844841083aa2621719194e40cdd [FaultTracer] Extracted changes: 0 0 1 0 0 0 0 0 0 0 0 0 0 0 0 1 0 0 0 0 0 0 0 0 0 0 0 1
ddc1e8901d859144a3a1626115d3e026174ccb09 [FaultTracer] Extracted changes: 0 0 0 0 0 0 0 0 0 0 0 0 0 0 0 0 0 0 0 0 0 0 0 0 0 0 0 0
fce13ade43de9a63110d2fb8da1d94c21413c0a2 [FaultTracer] Extracted changes: 0 0 1 0 0 0 0 0 0 0 0 0 0 0 0 1 0 0 0 0 0 0 0 0 0 0 0 1
c228ac3dd3ff9867c20783ca85ff35ec94819af9 [FaultTracer] Extracted changes: 0 0 0 0 0 0 0 0 0 0 0 0 0 0 0 0 0 0 0 0 0 0 0 0 0 0 0 0
0dae57364253e454b9de5838420bdeea1f1452fe [FaultTracer] Extracted changes: 0 0 0 0 0 0 0 0 0 0 0 0 0 0 0 0 0 0 0 0 0 0 0 0 0 0 0 0
6735b4bb903c1700b25a0813a383b4fdfa58c7cc [FaultTracer] Extracted changes: 0 0 1 0 0 0 0 0 0 1 0 0 0 0 1 1 0 0 0 0 0 1 0 0 0 0 1 1
ffe4cb02e1e62315e5d73aec8bf5cbdd3dba459a [FaultTracer] Extracted changes: 0 0 0 0 0 0 0 0 0 0 0 0 0 0 0 0 0 0 0 0 0 0 0 0 0 0 0 0
f60440f12f9465390bc39dea7ee8e120d382eb3f [FaultTracer] Extracted changes: 0 0 0 0 0 0 0 0 0 0 0 0 0 0 0 0 0 0 0 0 0 0 0 0 0 0 0 0
9f93c221178c11cd27d6580db0047f738f93ba32 [FaultTracer] Extracted changes: 0 0 3 1 0 0 0 0 0 1 0 0 0 0 0 1 0 0 0 0 0 1 0 0 0 0 0 1
12cb13bdfb8d7dd824f5247bc4cdb7010acbc6ca [FaultTracer] Extracted changes: 0 0 1 0 0 0 0 0 0 0 0 0 0 0 0 1 0 0 0 0 0 0 0 0 0 0 0 1
d10de65692caebea82ffd9c773737b58926f8324 [FaultTracer] Extracted changes: 0 0 1 0 0 0 0 0 0 0 0 0 0 0 0 1 0 0 0 0 0 0 0 0 0 0 0 1
5391654a7a48558c466f490af1be54b5a2424f9d [FaultTracer] Extracted changes: 12 0 0 0 0 0 0 0 0 0 0 0 0 0 0 0 0 0 0 0 0 0 0 0 0 0 0 0
a5477497084d5b2313b0660e11fb0cf545c07540 [FaultTracer] Extracted changes: 0 0 1 0 0 0 0 0 0 1 0 0 0 0 0 0 0 0 0 0 0 1 0 0 0 0 0 0
8d3a6416127910512e9e2ad459c3435542c8689b [FaultTracer] Extracted changes: 0 3 6 0 0 0 0 0 0 1 0 1 0 0 9 3 0 0 0 0 0 1 0 1 0 0 5 1
3cb177a0860d5aa5bc9e29b8ad2cb6cb9d37ab7e [FaultTracer] Extracted changes: 0 0 1 0 0 0 0 0 0 1 0 0 0 0 0 0 0 0 0 0 0 1 0 0 0 0 0 0
