7ef9044f97455624ca724193451aba8334b140d7
1ab5aca57367be9f99673be7fd9cf649812e1e21
60b0e578940b94192bb7dcafc13a6be30ace2fbd
c28abfcdd8bbeaa1dbeb6d8ba2ae4c6852be6377
23b103e00b0e56ba1516c7a09828d1da41ac0064
c6cc272f714536c90e8dfa029cb6a58fae341ad6
30bdb951017355adca01289ba3faaba62d262a23
b587fa18e74640d7fec64918c54192bdb8d671fd
9904fad3b251a91054354e03035f8708e3cdfa99
31ea35403cef651f8f08b50ffb0f3e30704cb656
c4a104075d40dd2191b45de33d00b79edd45b97e
b5620d3f0a572204e35adbb1372d36ca5e95477c
9ec354d79651a5419158615e2dad092db699638c
8e23a2e17f65203fd72a6d6ca1f76db9029fb35b
4c0a9f1e5c14f0141fddbc3551012af599f529c2
839cb06c0758d864855f07e2494011a5482275ad
67b94ca9f4c817a543b401575e3e4d297d7bbda5
acac649aded2ac7022a0d47be05588d3ad2c5857
b95f5f4202cd538b334f777cc0f62ca861f682fa
a370e435e09cb1befdceb21e50e0399e36ceacdf
098a0e11f4dd47635284a565d365ecf60eea1056
b11c9970d87579ae50cee7dcda771ac726c71867
d41648fca5ed041d8115b86965286c2d3a52214a
13ed9f6ebe98eb6103a6370b49fbd285dd65bd6c
dff1f37ea09edd4bba7570e2a70dfb57b82768f6
9e6bcf24d9e500a116a73906f2378b1d9fabb40a
085928c6c642192464c00305bc1a6086b27ee619
125e26bde0269dd286e8088a7b232e5c931664db
f1f9284db88881dc998fafb94a51bae66d69bbf8
4a885d88fe6307738d78b1f67d1e2724ac8da173
9b70a1f7ebb2dd19888df6588e04737c36e5c71b
9f5879787b31acec4115b401dd0469bcdbad8c6e
834722f289fe9379e83772483321018fee803e5e
6ade3a1ee1d2bdfcf7a5347d8fb9fa47c9dba38e
537e4f213d78a2d20830d053bc7bf68d5e627ae0
4a7d2609fe5a220d234e7921d5ffe225fabc584c
5c5b2d28260a48651c3cd905044a65d2df5dba7e
50dc4cb02632f645e9ea14a1dd1c98668c2e4f6c
3a34bb0ff85face0fc7df570b19b6656cf0759ec
ebc88486c52c7d75f8e95b9f7d064be6503e5244
d4fa0fa40b415bd082a22d3b6e772e3234e1d44f
2a1cf3823ab24363b5f3c47e127d1f96d4f835f8
1e1d559c6d12f3d816929b30075b8b01b3e446f4
ad4d2eef815e6fa85a39b6d4a345333d204e841e
14c7eab81730697585204b2af332eb056632b2b3
8ce81959ccc525352e33c59e74bf283138fd53f4
1aa8739f7903ddf0b0e3320a6dff4497f7f19dd2
5abfb93f22c72954dd4893b8cbd545190a3c310d
0ec55bc4f6774a8c639d3142da6fe177eeb7e517
bfb32f0cbbc8c2627691ad8a8aca482a132f3a83
4262859498e7c030f1e6bc52f8bd820e15060f18
9121c1183aa4b61afcf882ed931a36980708b040
a1676aeb00671f59e9058b5365924c937c7211d9
cef519509411073f3955d6392428d40ef3d654b8
ddc10590335e57bd6e6060190f51b6a04d716a35
cbf615304f21c433b4174f9b395b6513edd1f5b9
c86cf1eabcb2a966d20ca14df47f76ac97832aad
62b9e91f14bb040cc9d4ad726a82dbaf8a93a355
68bf77d68d1507295460fc17e8c27ba19cb1ff67
6dceb42a3879984fec0da3751d6f949c5c19487e
48614e50cbefa3c245497ed9f0084c7b79c59c05
4cab5b76d86f50ca2086229a7b120a1f3ab870ad
be1e35bee3ccf815ed8d17babaaedc19c3a5ac98
41b46127b3e37f516ac003a13be734391c120f3f
ef8f0a4ad3d548ca26f46210926ff3f7ddf72abb
0352a335254c948bd5aa8dae72ad8a814f87247f
2cd40af72dfcd3607695fa4ee3bc50a85bd459c9
c4ea8c85f5005e9bd870ff5443e825d67e2c058e
12aa727e994d8781e3607138ba6930072046ba49
cb35baf722a4d34396a31827da6afc4712332b1c
881c4b6b23eb138a7a9ee769d05099185ae73de2
e02cb075aa02649ba88d9aa7917e316d9a6138a9
b00f7ef30303ba9480c9ebb95429ba3b828b3c23
4cf03c7b60f185992968ade7446ce47ab1ae978b
632d253e982695716345f0d15f61aff68697430f
ea3b69f8c8d9d2f93494930d7de05026ea04a37d
988b473a634e795563b199390f048c25818060d7
957940e4bcab1f82627d1aebb0b65f56cc89b786
65b4c86ea041684c7585b016a90e0eb4e5974292
10f5f72da98c0a35135332f5c3480970f688b1f8
0c4173cc5f65d9a907a1181c2fda34a283ffae5b
72cd039f4793c351866f960d5082aa40e5089a4d
24d4f1a7133defb3bf9a8726cfb864004a5876ca
666650c664a710aca859bd90d124b0036e31e6e8
e59b29ea848e1048bb31cafd4a61ae0b0c595666
e92b35014298ee5cee9698a58e2a87c55d7ffcc3
4f65a5796b2a724bdf99e76fdb50763840c53632
f21c592ef37c71f39f98d7d18ebb59c618f4f420
720b9bffc0f3d885f754bffd01436cf542ee5032
f442f1e056a2d56aa1962138a625597c6ae85f7f
31b24ee606ca75516b91cb38a8b079330db152c3
d5331a9cef84397833bd817488e54ba1eab03ae3
c5ac564523b1fe978484afa52b776ffd52654672
ec37c157385bfcfdc1a10f99b693dda230a2def4
1392055962297c8b04bc97430ef36dfe419de574
f9fa184ad1c2f47a641acbfa88d40b65c8769f70
383c03a1f8dfb7fbad1f320030c45f05dbb96d4a
0e94d29f149b2ddf4da26fe8091dd4fad22bdbc9
9f6758630453fcfa373c98034edb99b3a45f1ddb
e5ca4a737216ee971d8d0cacf3bf6a8571ae74f0
