[INFO] Scanning for projects...
[INFO]                                                                         
[INFO] ------------------------------------------------------------------------
[INFO] Building Apache Commons DBCP 2.1.1-SNAPSHOT
[INFO] ------------------------------------------------------------------------
[INFO] 
[INFO] --- maven-enforcer-plugin:1.3.1:enforce (enforce-maven-3) @ commons-dbcp2 ---
[INFO] 
[INFO] --- maven-antrun-plugin:1.7:run (javadoc.resources) @ commons-dbcp2 ---
[INFO] Executing tasks

main:
[INFO] Executed tasks
[INFO] 
[INFO] --- maven-remote-resources-plugin:1.5:process (default) @ commons-dbcp2 ---
[INFO] 
[INFO] --- buildnumber-maven-plugin:1.2:create (default) @ commons-dbcp2 ---
[INFO] Checking for local modifications: skipped.
[INFO] Updating project files from SCM: skipped.
[INFO] Executing: /bin/sh -c cd /home/lingming/hybrid-rts/subjects/commons-dbcp/d62104c350876cbe4f78e96bae7a8af45258eb1e && svn --non-interactive info
[INFO] Working directory: /home/lingming/hybrid-rts/subjects/commons-dbcp/d62104c350876cbe4f78e96bae7a8af45258eb1e
[INFO] Storing buildNumber: ?????? at timestamp: 1483353886320
[INFO] Executing: /bin/sh -c cd /home/lingming/hybrid-rts/subjects/commons-dbcp/d62104c350876cbe4f78e96bae7a8af45258eb1e && svn --non-interactive info
[INFO] Working directory: /home/lingming/hybrid-rts/subjects/commons-dbcp/d62104c350876cbe4f78e96bae7a8af45258eb1e
[INFO] Storing buildScmBranch: UNKNOWN_BRANCH
[INFO] 
[INFO] --- maven-resources-plugin:2.6:resources (default-resources) @ commons-dbcp2 ---
[INFO] Using 'UTF-8' encoding to copy filtered resources.
[INFO] Copying 1 resource
[INFO] Copying 2 resources to META-INF
[INFO] 
[INFO] --- maven-compiler-plugin:3.1:compile (default-compile) @ commons-dbcp2 ---
[INFO] Changes detected - recompiling the module!
[INFO] Compiling 58 source files to /home/lingming/hybrid-rts/subjects/commons-dbcp/d62104c350876cbe4f78e96bae7a8af45258eb1e/target/classes
[INFO] 
[INFO] --- maven-bundle-plugin:2.4.0:manifest (bundle-manifest) @ commons-dbcp2 ---
[INFO] 
[INFO] --- maven-resources-plugin:2.6:testResources (default-testResources) @ commons-dbcp2 ---
[INFO] Using 'UTF-8' encoding to copy filtered resources.
[INFO] skip non existing resourceDirectory /home/lingming/hybrid-rts/subjects/commons-dbcp/d62104c350876cbe4f78e96bae7a8af45258eb1e/src/test/resources
[INFO] Copying 2 resources to META-INF
[INFO] 
[INFO] --- maven-compiler-plugin:3.1:testCompile (default-testCompile) @ commons-dbcp2 ---
[INFO] Nothing to compile - all classes are up to date
[INFO] 
[INFO] --- jacoco-maven-plugin:0.7.4.201502262128:prepare-agent (prepare-agent) @ commons-dbcp2 ---
[INFO] argLine set to -javaagent:/home/lingming/.m2/repository/org/jacoco/org.jacoco.agent/0.7.4.201502262128/org.jacoco.agent-0.7.4.201502262128-runtime.jar=destfile=/home/lingming/hybrid-rts/subjects/commons-dbcp/d62104c350876cbe4f78e96bae7a8af45258eb1e/target/jacoco.exec
[INFO] 
[INFO] --- maven-surefire-plugin:2.17:test (default-test) @ commons-dbcp2 ---
[INFO] Surefire report directory: /home/lingming/hybrid-rts/subjects/commons-dbcp/d62104c350876cbe4f78e96bae7a8af45258eb1e/target/surefire-reports

-------------------------------------------------------
 T E S T S
-------------------------------------------------------
Running org.apache.commons.dbcp2.TestDriverManagerConnectionFactory
Tests run: 1, Failures: 0, Errors: 0, Skipped: 0, Time elapsed: 0.205 sec - in org.apache.commons.dbcp2.TestDriverManagerConnectionFactory
testDriverManagerInit(org.apache.commons.dbcp2.TestDriverManagerConnectionFactory)  Time elapsed: 0.179 sec
Running org.apache.commons.dbcp2.TestDelegatingDatabaseMetaData
Tests run: 2, Failures: 0, Errors: 0, Skipped: 0, Time elapsed: 0 sec - in org.apache.commons.dbcp2.TestDelegatingDatabaseMetaData
testGetDelegate(org.apache.commons.dbcp2.TestDelegatingDatabaseMetaData)  Time elapsed: 0 sec
testCheckOpen(org.apache.commons.dbcp2.TestDelegatingDatabaseMetaData)  Time elapsed: 0 sec
Running org.apache.commons.dbcp2.TestBasicDataSource
Tests run: 54, Failures: 0, Errors: 0, Skipped: 0, Time elapsed: 5.387 sec - in org.apache.commons.dbcp2.TestBasicDataSource
testEmptyValidationQuery(org.apache.commons.dbcp2.TestBasicDataSource)  Time elapsed: 0.005 sec
testValidationQueryTimoutFail(org.apache.commons.dbcp2.TestBasicDataSource)  Time elapsed: 0.005 sec
testSetValidationTestProperties(org.apache.commons.dbcp2.TestBasicDataSource)  Time elapsed: 0 sec
testRollbackReadOnly(org.apache.commons.dbcp2.TestBasicDataSource)  Time elapsed: 0.002 sec
testClose(org.apache.commons.dbcp2.TestBasicDataSource)  Time elapsed: 0.001 sec
testPropertyTestOnReturn(org.apache.commons.dbcp2.TestBasicDataSource)  Time elapsed: 0.001 sec
testValidationQueryTimeoutSucceed(org.apache.commons.dbcp2.TestBasicDataSource)  Time elapsed: 0.001 sec
testMaxTotalZero(org.apache.commons.dbcp2.TestBasicDataSource)  Time elapsed: 0.102 sec
testPooling(org.apache.commons.dbcp2.TestBasicDataSource)  Time elapsed: 0.007 sec
testMaxConnLifetimeExceeded(org.apache.commons.dbcp2.TestBasicDataSource)  Time elapsed: 0.516 sec
testValidationQueryTimeoutNegative(org.apache.commons.dbcp2.TestBasicDataSource)  Time elapsed: 0.001 sec
testPoolCloseRTE(org.apache.commons.dbcp2.TestBasicDataSource)  Time elapsed: 0.001 sec
testInvalidConnectionInitSql(org.apache.commons.dbcp2.TestBasicDataSource)  Time elapsed: 0.001 sec
testSetAutoCommitTrueOnClose(org.apache.commons.dbcp2.TestBasicDataSource)  Time elapsed: 0 sec
testConcurrentInitBorrow(org.apache.commons.dbcp2.TestBasicDataSource)  Time elapsed: 0.461 sec
testValidationQueryTimeoutZero(org.apache.commons.dbcp2.TestBasicDataSource)  Time elapsed: 0.005 sec
testMaxConnLifetimeExceededMutedLog(org.apache.commons.dbcp2.TestBasicDataSource)  Time elapsed: 0.503 sec
testEmptyInitConnectionSql(org.apache.commons.dbcp2.TestBasicDataSource)  Time elapsed: 0.001 sec
testDriverClassLoader(org.apache.commons.dbcp2.TestBasicDataSource)  Time elapsed: 0.002 sec
testJmxDisabled(org.apache.commons.dbcp2.TestBasicDataSource)  Time elapsed: 0.005 sec
testInitialSize(org.apache.commons.dbcp2.TestBasicDataSource)  Time elapsed: 0.002 sec
testInvalidValidationQuery(org.apache.commons.dbcp2.TestBasicDataSource)  Time elapsed: 0 sec
testNoAccessToUnderlyingConnectionAllowed(org.apache.commons.dbcp2.TestBasicDataSource)  Time elapsed: 0 sec
testPoolCloseCheckedException(org.apache.commons.dbcp2.TestBasicDataSource)  Time elapsed: 0.001 sec
testCreateDataSourceCleanupEvictor(org.apache.commons.dbcp2.TestBasicDataSource)  Time elapsed: 1.001 sec
testTransactionIsolationBehavior(org.apache.commons.dbcp2.TestBasicDataSource)  Time elapsed: 0.002 sec
testCreateDataSourceCleanupThreads(org.apache.commons.dbcp2.TestBasicDataSource)  Time elapsed: 0.001 sec
testDefaultCatalog(org.apache.commons.dbcp2.TestBasicDataSource)  Time elapsed: 0.004 sec
testAccessToUnderlyingConnectionAllowed(org.apache.commons.dbcp2.TestBasicDataSource)  Time elapsed: 0.002 sec
testInvalidateConnection(org.apache.commons.dbcp2.TestBasicDataSource)  Time elapsed: 0.002 sec
testSetProperties(org.apache.commons.dbcp2.TestBasicDataSource)  Time elapsed: 0 sec
testDisconnectSqlCodes(org.apache.commons.dbcp2.TestBasicDataSource)  Time elapsed: 0.001 sec
testIsClosedFailure(org.apache.commons.dbcp2.TestBasicDataSource)  Time elapsed: 0.001 sec
testThreaded(org.apache.commons.dbcp2.TestBasicDataSource)  Time elapsed: 2.606 sec
testCanCloseStatementTwice(org.apache.commons.dbcp2.TestBasicDataSource)  Time elapsed: 0.003 sec
testNoRsetClose(org.apache.commons.dbcp2.TestBasicDataSource)  Time elapsed: 0.002 sec
testOpening(org.apache.commons.dbcp2.TestBasicDataSource)  Time elapsed: 0.004 sec
testCanCloseConnectionTwice(org.apache.commons.dbcp2.TestBasicDataSource)  Time elapsed: 0.001 sec
testIsClosed(org.apache.commons.dbcp2.TestBasicDataSource)  Time elapsed: 0.001 sec
testCanCloseCallableStatementTwice(org.apache.commons.dbcp2.TestBasicDataSource)  Time elapsed: 0.003 sec
testAutoCommitBehavior(org.apache.commons.dbcp2.TestBasicDataSource)  Time elapsed: 0.001 sec
testHashing(org.apache.commons.dbcp2.TestBasicDataSource)  Time elapsed: 0.001 sec
testCanClosePreparedStatementTwice(org.apache.commons.dbcp2.TestBasicDataSource)  Time elapsed: 0.001 sec
testClosing(org.apache.commons.dbcp2.TestBasicDataSource)  Time elapsed: 0.002 sec
testPrepareStatementOptions(org.apache.commons.dbcp2.TestBasicDataSource)  Time elapsed: 0.002 sec
testBackPointers(org.apache.commons.dbcp2.TestBasicDataSource)  Time elapsed: 0.001 sec
testHashCode(org.apache.commons.dbcp2.TestBasicDataSource)  Time elapsed: 0.001 sec
testConnectionsAreDistinct(org.apache.commons.dbcp2.TestBasicDataSource)  Time elapsed: 0.001 sec
testMaxTotal(org.apache.commons.dbcp2.TestBasicDataSource)  Time elapsed: 0.102 sec
testRepeatedBorrowAndReturn(org.apache.commons.dbcp2.TestBasicDataSource)  Time elapsed: 0.004 sec
testCanCloseResultSetTwice(org.apache.commons.dbcp2.TestBasicDataSource)  Time elapsed: 0 sec
testClearWarnings(org.apache.commons.dbcp2.TestBasicDataSource)  Time elapsed: 0.003 sec
testSimple2(org.apache.commons.dbcp2.TestBasicDataSource)  Time elapsed: 0.001 sec
testSimple(org.apache.commons.dbcp2.TestBasicDataSource)  Time elapsed: 0 sec
Running org.apache.commons.dbcp2.TestAbandonedBasicDataSource
Tests run: 63, Failures: 0, Errors: 0, Skipped: 0, Time elapsed: 13.321 sec - in org.apache.commons.dbcp2.TestAbandonedBasicDataSource
testAbandonedCloseWithExceptions(org.apache.commons.dbcp2.TestAbandonedBasicDataSource)  Time elapsed: 0.01 sec
testLastUsedPrepareCall(org.apache.commons.dbcp2.TestAbandonedBasicDataSource)  Time elapsed: 2.602 sec
testLastUsed(org.apache.commons.dbcp2.TestAbandonedBasicDataSource)  Time elapsed: 2.603 sec
testAbandoned(org.apache.commons.dbcp2.TestAbandonedBasicDataSource)  Time elapsed: 0.004 sec
testGarbageCollectorCleanUp01(org.apache.commons.dbcp2.TestAbandonedBasicDataSource)  Time elapsed: 0.017 sec
testGarbageCollectorCleanUp02(org.apache.commons.dbcp2.TestAbandonedBasicDataSource)  Time elapsed: 0.128 sec
testLastUsedUpdate(org.apache.commons.dbcp2.TestAbandonedBasicDataSource)  Time elapsed: 0.002 sec
testAbandonedClose(org.apache.commons.dbcp2.TestAbandonedBasicDataSource)  Time elapsed: 0.003 sec
testLastUsedPreparedStatementUse(org.apache.commons.dbcp2.TestAbandonedBasicDataSource)  Time elapsed: 2.602 sec
testEmptyValidationQuery(org.apache.commons.dbcp2.TestAbandonedBasicDataSource)  Time elapsed: 0 sec
testValidationQueryTimoutFail(org.apache.commons.dbcp2.TestAbandonedBasicDataSource)  Time elapsed: 0.001 sec
testSetValidationTestProperties(org.apache.commons.dbcp2.TestAbandonedBasicDataSource)  Time elapsed: 0.001 sec
testRollbackReadOnly(org.apache.commons.dbcp2.TestAbandonedBasicDataSource)  Time elapsed: 0.002 sec
testClose(org.apache.commons.dbcp2.TestAbandonedBasicDataSource)  Time elapsed: 0.002 sec
testPropertyTestOnReturn(org.apache.commons.dbcp2.TestAbandonedBasicDataSource)  Time elapsed: 0.001 sec
testValidationQueryTimeoutSucceed(org.apache.commons.dbcp2.TestAbandonedBasicDataSource)  Time elapsed: 0.001 sec
testMaxTotalZero(org.apache.commons.dbcp2.TestAbandonedBasicDataSource)  Time elapsed: 0.101 sec
testPooling(org.apache.commons.dbcp2.TestAbandonedBasicDataSource)  Time elapsed: 0.004 sec
testMaxConnLifetimeExceeded(org.apache.commons.dbcp2.TestAbandonedBasicDataSource)  Time elapsed: 0.502 sec
testValidationQueryTimeoutNegative(org.apache.commons.dbcp2.TestAbandonedBasicDataSource)  Time elapsed: 0.002 sec
testPoolCloseRTE(org.apache.commons.dbcp2.TestAbandonedBasicDataSource)  Time elapsed: 0.003 sec
testInvalidConnectionInitSql(org.apache.commons.dbcp2.TestAbandonedBasicDataSource)  Time elapsed: 0.001 sec
testSetAutoCommitTrueOnClose(org.apache.commons.dbcp2.TestAbandonedBasicDataSource)  Time elapsed: 0.002 sec
testConcurrentInitBorrow(org.apache.commons.dbcp2.TestAbandonedBasicDataSource)  Time elapsed: 0.458 sec
testValidationQueryTimeoutZero(org.apache.commons.dbcp2.TestAbandonedBasicDataSource)  Time elapsed: 0.002 sec
testMaxConnLifetimeExceededMutedLog(org.apache.commons.dbcp2.TestAbandonedBasicDataSource)  Time elapsed: 0.502 sec
testEmptyInitConnectionSql(org.apache.commons.dbcp2.TestAbandonedBasicDataSource)  Time elapsed: 0.001 sec
testDriverClassLoader(org.apache.commons.dbcp2.TestAbandonedBasicDataSource)  Time elapsed: 0.001 sec
testJmxDisabled(org.apache.commons.dbcp2.TestAbandonedBasicDataSource)  Time elapsed: 0.001 sec
testInitialSize(org.apache.commons.dbcp2.TestAbandonedBasicDataSource)  Time elapsed: 0.001 sec
testInvalidValidationQuery(org.apache.commons.dbcp2.TestAbandonedBasicDataSource)  Time elapsed: 0 sec
testNoAccessToUnderlyingConnectionAllowed(org.apache.commons.dbcp2.TestAbandonedBasicDataSource)  Time elapsed: 0 sec
testPoolCloseCheckedException(org.apache.commons.dbcp2.TestAbandonedBasicDataSource)  Time elapsed: 0.001 sec
testCreateDataSourceCleanupEvictor(org.apache.commons.dbcp2.TestAbandonedBasicDataSource)  Time elapsed: 1.001 sec
testTransactionIsolationBehavior(org.apache.commons.dbcp2.TestAbandonedBasicDataSource)  Time elapsed: 0.002 sec
testCreateDataSourceCleanupThreads(org.apache.commons.dbcp2.TestAbandonedBasicDataSource)  Time elapsed: 0.001 sec
testDefaultCatalog(org.apache.commons.dbcp2.TestAbandonedBasicDataSource)  Time elapsed: 0.006 sec
testAccessToUnderlyingConnectionAllowed(org.apache.commons.dbcp2.TestAbandonedBasicDataSource)  Time elapsed: 0.001 sec
testInvalidateConnection(org.apache.commons.dbcp2.TestAbandonedBasicDataSource)  Time elapsed: 0.002 sec
testSetProperties(org.apache.commons.dbcp2.TestAbandonedBasicDataSource)  Time elapsed: 0.001 sec
testDisconnectSqlCodes(org.apache.commons.dbcp2.TestAbandonedBasicDataSource)  Time elapsed: 0.002 sec
testIsClosedFailure(org.apache.commons.dbcp2.TestAbandonedBasicDataSource)  Time elapsed: 0.001 sec
testThreaded(org.apache.commons.dbcp2.TestAbandonedBasicDataSource)  Time elapsed: 2.604 sec
testCanCloseStatementTwice(org.apache.commons.dbcp2.TestAbandonedBasicDataSource)  Time elapsed: 0.002 sec
testNoRsetClose(org.apache.commons.dbcp2.TestAbandonedBasicDataSource)  Time elapsed: 0.002 sec
testOpening(org.apache.commons.dbcp2.TestAbandonedBasicDataSource)  Time elapsed: 0.004 sec
testCanCloseConnectionTwice(org.apache.commons.dbcp2.TestAbandonedBasicDataSource)  Time elapsed: 0.002 sec
testIsClosed(org.apache.commons.dbcp2.TestAbandonedBasicDataSource)  Time elapsed: 0.001 sec
testCanCloseCallableStatementTwice(org.apache.commons.dbcp2.TestAbandonedBasicDataSource)  Time elapsed: 0 sec
testAutoCommitBehavior(org.apache.commons.dbcp2.TestAbandonedBasicDataSource)  Time elapsed: 0.001 sec
testHashing(org.apache.commons.dbcp2.TestAbandonedBasicDataSource)  Time elapsed: 0.001 sec
testCanClosePreparedStatementTwice(org.apache.commons.dbcp2.TestAbandonedBasicDataSource)  Time elapsed: 0 sec
testClosing(org.apache.commons.dbcp2.TestAbandonedBasicDataSource)  Time elapsed: 0.002 sec
testPrepareStatementOptions(org.apache.commons.dbcp2.TestAbandonedBasicDataSource)  Time elapsed: 0.001 sec
testBackPointers(org.apache.commons.dbcp2.TestAbandonedBasicDataSource)  Time elapsed: 0.002 sec
testHashCode(org.apache.commons.dbcp2.TestAbandonedBasicDataSource)  Time elapsed: 0.001 sec
testConnectionsAreDistinct(org.apache.commons.dbcp2.TestAbandonedBasicDataSource)  Time elapsed: 0.002 sec
testMaxTotal(org.apache.commons.dbcp2.TestAbandonedBasicDataSource)  Time elapsed: 0.102 sec
testRepeatedBorrowAndReturn(org.apache.commons.dbcp2.TestAbandonedBasicDataSource)  Time elapsed: 0.003 sec
testCanCloseResultSetTwice(org.apache.commons.dbcp2.TestAbandonedBasicDataSource)  Time elapsed: 0.001 sec
testClearWarnings(org.apache.commons.dbcp2.TestAbandonedBasicDataSource)  Time elapsed: 0.002 sec
testSimple2(org.apache.commons.dbcp2.TestAbandonedBasicDataSource)  Time elapsed: 0 sec
testSimple(org.apache.commons.dbcp2.TestAbandonedBasicDataSource)  Time elapsed: 0.001 sec
Running org.apache.commons.dbcp2.TestDelegatingCallableStatement
Tests run: 3, Failures: 0, Errors: 0, Skipped: 0, Time elapsed: 0 sec - in org.apache.commons.dbcp2.TestDelegatingCallableStatement
testGetDelegate(org.apache.commons.dbcp2.TestDelegatingCallableStatement)  Time elapsed: 0 sec
testExecuteQueryReturnsNotNull(org.apache.commons.dbcp2.TestDelegatingCallableStatement)  Time elapsed: 0 sec
testExecuteQueryReturnsNull(org.apache.commons.dbcp2.TestDelegatingCallableStatement)  Time elapsed: 0 sec
Running org.apache.commons.dbcp2.TestDelegatingStatement
Tests run: 4, Failures: 0, Errors: 0, Skipped: 0, Time elapsed: 0 sec - in org.apache.commons.dbcp2.TestDelegatingStatement
testGetDelegate(org.apache.commons.dbcp2.TestDelegatingStatement)  Time elapsed: 0 sec
testIsWrapperFor(org.apache.commons.dbcp2.TestDelegatingStatement)  Time elapsed: 0 sec
testExecuteQueryReturnsNull(org.apache.commons.dbcp2.TestDelegatingStatement)  Time elapsed: 0 sec
testCheckOpen(org.apache.commons.dbcp2.TestDelegatingStatement)  Time elapsed: 0 sec
Running org.apache.commons.dbcp2.TestPoolingDriver
Tests run: 29, Failures: 0, Errors: 0, Skipped: 0, Time elapsed: 2.777 sec - in org.apache.commons.dbcp2.TestPoolingDriver
testLogWriter(org.apache.commons.dbcp2.TestPoolingDriver)  Time elapsed: 0.011 sec
testReportedBug12400(org.apache.commons.dbcp2.TestPoolingDriver)  Time elapsed: 0.003 sec
testReportedBug28912(org.apache.commons.dbcp2.TestPoolingDriver)  Time elapsed: 0 sec
test1(org.apache.commons.dbcp2.TestPoolingDriver)  Time elapsed: 0.001 sec
test2(org.apache.commons.dbcp2.TestPoolingDriver)  Time elapsed: 0.001 sec
testClosePool(org.apache.commons.dbcp2.TestPoolingDriver)  Time elapsed: 0.001 sec
testInvalidateConnection(org.apache.commons.dbcp2.TestPoolingDriver)  Time elapsed: 0.002 sec
testThreaded(org.apache.commons.dbcp2.TestPoolingDriver)  Time elapsed: 2.606 sec
testCanCloseStatementTwice(org.apache.commons.dbcp2.TestPoolingDriver)  Time elapsed: 0.002 sec
testNoRsetClose(org.apache.commons.dbcp2.TestPoolingDriver)  Time elapsed: 0.002 sec
testOpening(org.apache.commons.dbcp2.TestPoolingDriver)  Time elapsed: 0.003 sec
testPooling(org.apache.commons.dbcp2.TestPoolingDriver)  Time elapsed: 0.006 sec
testCanCloseConnectionTwice(org.apache.commons.dbcp2.TestPoolingDriver)  Time elapsed: 0.001 sec
testIsClosed(org.apache.commons.dbcp2.TestPoolingDriver)  Time elapsed: 0.002 sec
testCanCloseCallableStatementTwice(org.apache.commons.dbcp2.TestPoolingDriver)  Time elapsed: 0.002 sec
testAutoCommitBehavior(org.apache.commons.dbcp2.TestPoolingDriver)  Time elapsed: 0.001 sec
testHashing(org.apache.commons.dbcp2.TestPoolingDriver)  Time elapsed: 0.001 sec
testCanClosePreparedStatementTwice(org.apache.commons.dbcp2.TestPoolingDriver)  Time elapsed: 0.001 sec
testClosing(org.apache.commons.dbcp2.TestPoolingDriver)  Time elapsed: 0.003 sec
testPrepareStatementOptions(org.apache.commons.dbcp2.TestPoolingDriver)  Time elapsed: 0.001 sec
testBackPointers(org.apache.commons.dbcp2.TestPoolingDriver)  Time elapsed: 0.005 sec
testHashCode(org.apache.commons.dbcp2.TestPoolingDriver)  Time elapsed: 0.001 sec
testConnectionsAreDistinct(org.apache.commons.dbcp2.TestPoolingDriver)  Time elapsed: 0.001 sec
testMaxTotal(org.apache.commons.dbcp2.TestPoolingDriver)  Time elapsed: 0.104 sec
testRepeatedBorrowAndReturn(org.apache.commons.dbcp2.TestPoolingDriver)  Time elapsed: 0.006 sec
testCanCloseResultSetTwice(org.apache.commons.dbcp2.TestPoolingDriver)  Time elapsed: 0.001 sec
testClearWarnings(org.apache.commons.dbcp2.TestPoolingDriver)  Time elapsed: 0.002 sec
testSimple2(org.apache.commons.dbcp2.TestPoolingDriver)  Time elapsed: 0 sec
testSimple(org.apache.commons.dbcp2.TestPoolingDriver)  Time elapsed: 0.001 sec
Running org.apache.commons.dbcp2.TestJndi
Tests run: 3, Failures: 0, Errors: 0, Skipped: 0, Time elapsed: 0.014 sec - in org.apache.commons.dbcp2.TestJndi
testBasicDataSourceBind(org.apache.commons.dbcp2.TestJndi)  Time elapsed: 0.009 sec
testPerUserPoolDataSourceBind(org.apache.commons.dbcp2.TestJndi)  Time elapsed: 0.003 sec
testSharedPoolDataSourceBind(org.apache.commons.dbcp2.TestJndi)  Time elapsed: 0.002 sec
Running org.apache.commons.dbcp2.TestPStmtPooling
Tests run: 5, Failures: 0, Errors: 0, Skipped: 0, Time elapsed: 0.004 sec - in org.apache.commons.dbcp2.TestPStmtPooling
testStmtPool(org.apache.commons.dbcp2.TestPStmtPooling)  Time elapsed: 0.001 sec
testBatchUpdate(org.apache.commons.dbcp2.TestPStmtPooling)  Time elapsed: 0.001 sec
testClosePool(org.apache.commons.dbcp2.TestPStmtPooling)  Time elapsed: 0.001 sec
testCallableStatementPooling(org.apache.commons.dbcp2.TestPStmtPooling)  Time elapsed: 0 sec
testMultipleClose(org.apache.commons.dbcp2.TestPStmtPooling)  Time elapsed: 0.001 sec
Running org.apache.commons.dbcp2.cpdsadapter.TestDriverAdapterCPDS
Tests run: 7, Failures: 0, Errors: 0, Skipped: 0, Time elapsed: 5.882 sec - in org.apache.commons.dbcp2.cpdsadapter.TestDriverAdapterCPDS
testNullValidationQuery(org.apache.commons.dbcp2.cpdsadapter.TestDriverAdapterCPDS)  Time elapsed: 0.004 sec
testClosingWithUserName(org.apache.commons.dbcp2.cpdsadapter.TestDriverAdapterCPDS)  Time elapsed: 0.001 sec
testDbcp367(org.apache.commons.dbcp2.cpdsadapter.TestDriverAdapterCPDS)  Time elapsed: 5.875 sec
testSimpleWithUsername(org.apache.commons.dbcp2.cpdsadapter.TestDriverAdapterCPDS)  Time elapsed: 0 sec
testSetProperties(org.apache.commons.dbcp2.cpdsadapter.TestDriverAdapterCPDS)  Time elapsed: 0 sec
testSimple(org.apache.commons.dbcp2.cpdsadapter.TestDriverAdapterCPDS)  Time elapsed: 0.001 sec
testIncorrectPassword(org.apache.commons.dbcp2.cpdsadapter.TestDriverAdapterCPDS)  Time elapsed: 0 sec
Running org.apache.commons.dbcp2.TestUtils
Tests run: 1, Failures: 0, Errors: 0, Skipped: 0, Time elapsed: 0 sec - in org.apache.commons.dbcp2.TestUtils
testClassLoads(org.apache.commons.dbcp2.TestUtils)  Time elapsed: 0 sec
Running org.apache.commons.dbcp2.TestDelegatingPreparedStatement
Tests run: 3, Failures: 0, Errors: 0, Skipped: 0, Time elapsed: 0 sec - in org.apache.commons.dbcp2.TestDelegatingPreparedStatement
testGetDelegate(org.apache.commons.dbcp2.TestDelegatingPreparedStatement)  Time elapsed: 0 sec
testExecuteQueryReturnsNotNull(org.apache.commons.dbcp2.TestDelegatingPreparedStatement)  Time elapsed: 0 sec
testExecuteQueryReturnsNull(org.apache.commons.dbcp2.TestDelegatingPreparedStatement)  Time elapsed: 0 sec
Running org.apache.commons.dbcp2.TestBasicDataSourceFactory
Tests run: 3, Failures: 0, Errors: 0, Skipped: 0, Time elapsed: 0.006 sec - in org.apache.commons.dbcp2.TestBasicDataSourceFactory
testProperties(org.apache.commons.dbcp2.TestBasicDataSourceFactory)  Time elapsed: 0.004 sec
testValidateProperties(org.apache.commons.dbcp2.TestBasicDataSourceFactory)  Time elapsed: 0.001 sec
testNoProperties(org.apache.commons.dbcp2.TestBasicDataSourceFactory)  Time elapsed: 0 sec
Running org.apache.commons.dbcp2.managed.TestTransactionContext
Tests run: 1, Failures: 0, Errors: 0, Skipped: 0, Time elapsed: 0.021 sec - in org.apache.commons.dbcp2.managed.TestTransactionContext
testSetSharedConnectionEnlistFailure(org.apache.commons.dbcp2.managed.TestTransactionContext)  Time elapsed: 0.02 sec
Running org.apache.commons.dbcp2.managed.TestManagedConnection
Tests run: 1, Failures: 0, Errors: 0, Skipped: 0, Time elapsed: 0.004 sec - in org.apache.commons.dbcp2.managed.TestManagedConnection
testConnectionReturnOnErrorWhenEnlistingXAResource(org.apache.commons.dbcp2.managed.TestManagedConnection)  Time elapsed: 0.003 sec
Running org.apache.commons.dbcp2.managed.TestManagedDataSource
Tests run: 33, Failures: 0, Errors: 0, Skipped: 0, Time elapsed: 2.727 sec - in org.apache.commons.dbcp2.managed.TestManagedDataSource
testManagedConnectionEqualsSameDelegateNoUnderlyingAccess(org.apache.commons.dbcp2.managed.TestManagedDataSource)  Time elapsed: 0 sec
testNestedConnections(org.apache.commons.dbcp2.managed.TestManagedDataSource)  Time elapsed: 0.002 sec
testSharedConnection(org.apache.commons.dbcp2.managed.TestManagedDataSource)  Time elapsed: 0 sec
testManagedConnectionEqualsSameDelegate(org.apache.commons.dbcp2.managed.TestManagedDataSource)  Time elapsed: 0.001 sec
testConnectionReturnOnCommit(org.apache.commons.dbcp2.managed.TestManagedDataSource)  Time elapsed: 0 sec
testManagedConnectionEqualsFail(org.apache.commons.dbcp2.managed.TestManagedDataSource)  Time elapsed: 0 sec
testManagedConnectionEqualsNull(org.apache.commons.dbcp2.managed.TestManagedDataSource)  Time elapsed: 0.001 sec
testManagedConnectionEqualsType(org.apache.commons.dbcp2.managed.TestManagedDataSource)  Time elapsed: 0 sec
testManagedConnectionEqualInnermost(org.apache.commons.dbcp2.managed.TestManagedDataSource)  Time elapsed: 0 sec
testManagedConnectionEqualsReflexive(org.apache.commons.dbcp2.managed.TestManagedDataSource)  Time elapsed: 0.001 sec
testAccessToUnderlyingConnectionAllowed(org.apache.commons.dbcp2.managed.TestManagedDataSource)  Time elapsed: 0 sec
testThreaded(org.apache.commons.dbcp2.managed.TestManagedDataSource)  Time elapsed: 2.604 sec
testCanCloseStatementTwice(org.apache.commons.dbcp2.managed.TestManagedDataSource)  Time elapsed: 0.001 sec
testNoRsetClose(org.apache.commons.dbcp2.managed.TestManagedDataSource)  Time elapsed: 0.001 sec
testOpening(org.apache.commons.dbcp2.managed.TestManagedDataSource)  Time elapsed: 0.001 sec
testPooling(org.apache.commons.dbcp2.managed.TestManagedDataSource)  Time elapsed: 0 sec
testCanCloseConnectionTwice(org.apache.commons.dbcp2.managed.TestManagedDataSource)  Time elapsed: 0.001 sec
testIsClosed(org.apache.commons.dbcp2.managed.TestManagedDataSource)  Time elapsed: 0 sec
testCanCloseCallableStatementTwice(org.apache.commons.dbcp2.managed.TestManagedDataSource)  Time elapsed: 0.001 sec
testAutoCommitBehavior(org.apache.commons.dbcp2.managed.TestManagedDataSource)  Time elapsed: 0 sec
testHashing(org.apache.commons.dbcp2.managed.TestManagedDataSource)  Time elapsed: 0 sec
testCanClosePreparedStatementTwice(org.apache.commons.dbcp2.managed.TestManagedDataSource)  Time elapsed: 0 sec
testClosing(org.apache.commons.dbcp2.managed.TestManagedDataSource)  Time elapsed: 0 sec
testPrepareStatementOptions(org.apache.commons.dbcp2.managed.TestManagedDataSource)  Time elapsed: 0 sec
testBackPointers(org.apache.commons.dbcp2.managed.TestManagedDataSource)  Time elapsed: 0.001 sec
testHashCode(org.apache.commons.dbcp2.managed.TestManagedDataSource)  Time elapsed: 0.001 sec
testConnectionsAreDistinct(org.apache.commons.dbcp2.managed.TestManagedDataSource)  Time elapsed: 0 sec
testMaxTotal(org.apache.commons.dbcp2.managed.TestManagedDataSource)  Time elapsed: 0.101 sec
testRepeatedBorrowAndReturn(org.apache.commons.dbcp2.managed.TestManagedDataSource)  Time elapsed: 0.001 sec
testCanCloseResultSetTwice(org.apache.commons.dbcp2.managed.TestManagedDataSource)  Time elapsed: 0.001 sec
testClearWarnings(org.apache.commons.dbcp2.managed.TestManagedDataSource)  Time elapsed: 0.001 sec
testSimple2(org.apache.commons.dbcp2.managed.TestManagedDataSource)  Time elapsed: 0.001 sec
testSimple(org.apache.commons.dbcp2.managed.TestManagedDataSource)  Time elapsed: 0.001 sec
Running org.apache.commons.dbcp2.managed.TestManagedDataSourceInTx
Tests run: 37, Failures: 0, Errors: 0, Skipped: 0, Time elapsed: 2.828 sec - in org.apache.commons.dbcp2.managed.TestManagedDataSourceInTx
testNestedConnections(org.apache.commons.dbcp2.managed.TestManagedDataSourceInTx)  Time elapsed: 0.001 sec
testSharedConnection(org.apache.commons.dbcp2.managed.TestManagedDataSourceInTx)  Time elapsed: 0.001 sec
testReadOnly(org.apache.commons.dbcp2.managed.TestManagedDataSourceInTx)  Time elapsed: 0.001 sec
testConnectionReturnOnCommit(org.apache.commons.dbcp2.managed.TestManagedDataSourceInTx)  Time elapsed: 0 sec
testAutoCommitBehavior(org.apache.commons.dbcp2.managed.TestManagedDataSourceInTx)  Time elapsed: 0 sec
testCloseInTransaction(org.apache.commons.dbcp2.managed.TestManagedDataSourceInTx)  Time elapsed: 0.001 sec
testManagedConnectionEqualsFail(org.apache.commons.dbcp2.managed.TestManagedDataSourceInTx)  Time elapsed: 0 sec
testHashCode(org.apache.commons.dbcp2.managed.TestManagedDataSourceInTx)  Time elapsed: 0 sec
testConnectionsAreDistinct(org.apache.commons.dbcp2.managed.TestManagedDataSourceInTx)  Time elapsed: 0.001 sec
testMaxTotal(org.apache.commons.dbcp2.managed.TestManagedDataSourceInTx)  Time elapsed: 0.101 sec
testCommit(org.apache.commons.dbcp2.managed.TestManagedDataSourceInTx)  Time elapsed: 0.001 sec
testClearWarnings(org.apache.commons.dbcp2.managed.TestManagedDataSourceInTx)  Time elapsed: 0 sec
testSharedTransactionConversion(org.apache.commons.dbcp2.managed.TestManagedDataSourceInTx)  Time elapsed: 0.001 sec
testManagedConnectionEqualsSameDelegateNoUnderlyingAccess(org.apache.commons.dbcp2.managed.TestManagedDataSourceInTx)  Time elapsed: 0.001 sec
testManagedConnectionEqualsSameDelegate(org.apache.commons.dbcp2.managed.TestManagedDataSourceInTx)  Time elapsed: 0.001 sec
testManagedConnectionEqualsNull(org.apache.commons.dbcp2.managed.TestManagedDataSourceInTx)  Time elapsed: 0.001 sec
testManagedConnectionEqualsType(org.apache.commons.dbcp2.managed.TestManagedDataSourceInTx)  Time elapsed: 0 sec
testManagedConnectionEqualInnermost(org.apache.commons.dbcp2.managed.TestManagedDataSourceInTx)  Time elapsed: 0 sec
testManagedConnectionEqualsReflexive(org.apache.commons.dbcp2.managed.TestManagedDataSourceInTx)  Time elapsed: 0.001 sec
testAccessToUnderlyingConnectionAllowed(org.apache.commons.dbcp2.managed.TestManagedDataSourceInTx)  Time elapsed: 0 sec
testThreaded(org.apache.commons.dbcp2.managed.TestManagedDataSourceInTx)  Time elapsed: 2.704 sec
testCanCloseStatementTwice(org.apache.commons.dbcp2.managed.TestManagedDataSourceInTx)  Time elapsed: 0.001 sec
testNoRsetClose(org.apache.commons.dbcp2.managed.TestManagedDataSourceInTx)  Time elapsed: 0.001 sec
testOpening(org.apache.commons.dbcp2.managed.TestManagedDataSourceInTx)  Time elapsed: 0.001 sec
testPooling(org.apache.commons.dbcp2.managed.TestManagedDataSourceInTx)  Time elapsed: 0.001 sec
testCanCloseConnectionTwice(org.apache.commons.dbcp2.managed.TestManagedDataSourceInTx)  Time elapsed: 0.001 sec
testIsClosed(org.apache.commons.dbcp2.managed.TestManagedDataSourceInTx)  Time elapsed: 0.001 sec
testCanCloseCallableStatementTwice(org.apache.commons.dbcp2.managed.TestManagedDataSourceInTx)  Time elapsed: 0 sec
testHashing(org.apache.commons.dbcp2.managed.TestManagedDataSourceInTx)  Time elapsed: 0 sec
testCanClosePreparedStatementTwice(org.apache.commons.dbcp2.managed.TestManagedDataSourceInTx)  Time elapsed: 0.001 sec
testClosing(org.apache.commons.dbcp2.managed.TestManagedDataSourceInTx)  Time elapsed: 0 sec
testPrepareStatementOptions(org.apache.commons.dbcp2.managed.TestManagedDataSourceInTx)  Time elapsed: 0 sec
testBackPointers(org.apache.commons.dbcp2.managed.TestManagedDataSourceInTx)  Time elapsed: 0.001 sec
testRepeatedBorrowAndReturn(org.apache.commons.dbcp2.managed.TestManagedDataSourceInTx)  Time elapsed: 0.001 sec
testCanCloseResultSetTwice(org.apache.commons.dbcp2.managed.TestManagedDataSourceInTx)  Time elapsed: 0 sec
testSimple2(org.apache.commons.dbcp2.managed.TestManagedDataSourceInTx)  Time elapsed: 0.001 sec
testSimple(org.apache.commons.dbcp2.managed.TestManagedDataSourceInTx)  Time elapsed: 0 sec
Running org.apache.commons.dbcp2.managed.TestBasicManagedDataSource
Tests run: 55, Failures: 0, Errors: 0, Skipped: 0, Time elapsed: 5.391 sec - in org.apache.commons.dbcp2.managed.TestBasicManagedDataSource
testReallyClose(org.apache.commons.dbcp2.managed.TestBasicManagedDataSource)  Time elapsed: 0 sec
testEmptyValidationQuery(org.apache.commons.dbcp2.managed.TestBasicManagedDataSource)  Time elapsed: 0 sec
testValidationQueryTimoutFail(org.apache.commons.dbcp2.managed.TestBasicManagedDataSource)  Time elapsed: 0 sec
testSetValidationTestProperties(org.apache.commons.dbcp2.managed.TestBasicManagedDataSource)  Time elapsed: 0 sec
testRollbackReadOnly(org.apache.commons.dbcp2.managed.TestBasicManagedDataSource)  Time elapsed: 0 sec
testClose(org.apache.commons.dbcp2.managed.TestBasicManagedDataSource)  Time elapsed: 0 sec
testPropertyTestOnReturn(org.apache.commons.dbcp2.managed.TestBasicManagedDataSource)  Time elapsed: 0.001 sec
testValidationQueryTimeoutSucceed(org.apache.commons.dbcp2.managed.TestBasicManagedDataSource)  Time elapsed: 0 sec
testMaxTotalZero(org.apache.commons.dbcp2.managed.TestBasicManagedDataSource)  Time elapsed: 0.101 sec
testPooling(org.apache.commons.dbcp2.managed.TestBasicManagedDataSource)  Time elapsed: 0 sec
testMaxConnLifetimeExceeded(org.apache.commons.dbcp2.managed.TestBasicManagedDataSource)  Time elapsed: 0.501 sec
testValidationQueryTimeoutNegative(org.apache.commons.dbcp2.managed.TestBasicManagedDataSource)  Time elapsed: 0.001 sec
testPoolCloseRTE(org.apache.commons.dbcp2.managed.TestBasicManagedDataSource)  Time elapsed: 0.002 sec
testInvalidConnectionInitSql(org.apache.commons.dbcp2.managed.TestBasicManagedDataSource)  Time elapsed: 0 sec
testSetAutoCommitTrueOnClose(org.apache.commons.dbcp2.managed.TestBasicManagedDataSource)  Time elapsed: 0.001 sec
testConcurrentInitBorrow(org.apache.commons.dbcp2.managed.TestBasicManagedDataSource)  Time elapsed: 0.453 sec
testValidationQueryTimeoutZero(org.apache.commons.dbcp2.managed.TestBasicManagedDataSource)  Time elapsed: 0 sec
testMaxConnLifetimeExceededMutedLog(org.apache.commons.dbcp2.managed.TestBasicManagedDataSource)  Time elapsed: 0.501 sec
testEmptyInitConnectionSql(org.apache.commons.dbcp2.managed.TestBasicManagedDataSource)  Time elapsed: 0 sec
testDriverClassLoader(org.apache.commons.dbcp2.managed.TestBasicManagedDataSource)  Time elapsed: 0.001 sec
testJmxDisabled(org.apache.commons.dbcp2.managed.TestBasicManagedDataSource)  Time elapsed: 0.001 sec
testInitialSize(org.apache.commons.dbcp2.managed.TestBasicManagedDataSource)  Time elapsed: 0 sec
testInvalidValidationQuery(org.apache.commons.dbcp2.managed.TestBasicManagedDataSource)  Time elapsed: 0.001 sec
testNoAccessToUnderlyingConnectionAllowed(org.apache.commons.dbcp2.managed.TestBasicManagedDataSource)  Time elapsed: 0 sec
testPoolCloseCheckedException(org.apache.commons.dbcp2.managed.TestBasicManagedDataSource)  Time elapsed: 0.002 sec
testCreateDataSourceCleanupEvictor(org.apache.commons.dbcp2.managed.TestBasicManagedDataSource)  Time elapsed: 1.001 sec
testTransactionIsolationBehavior(org.apache.commons.dbcp2.managed.TestBasicManagedDataSource)  Time elapsed: 0 sec
testCreateDataSourceCleanupThreads(org.apache.commons.dbcp2.managed.TestBasicManagedDataSource)  Time elapsed: 0.001 sec
testDefaultCatalog(org.apache.commons.dbcp2.managed.TestBasicManagedDataSource)  Time elapsed: 0 sec
testAccessToUnderlyingConnectionAllowed(org.apache.commons.dbcp2.managed.TestBasicManagedDataSource)  Time elapsed: 0 sec
testInvalidateConnection(org.apache.commons.dbcp2.managed.TestBasicManagedDataSource)  Time elapsed: 0.001 sec
testSetProperties(org.apache.commons.dbcp2.managed.TestBasicManagedDataSource)  Time elapsed: 0 sec
testDisconnectSqlCodes(org.apache.commons.dbcp2.managed.TestBasicManagedDataSource)  Time elapsed: 0 sec
testIsClosedFailure(org.apache.commons.dbcp2.managed.TestBasicManagedDataSource)  Time elapsed: 0.001 sec
testThreaded(org.apache.commons.dbcp2.managed.TestBasicManagedDataSource)  Time elapsed: 2.704 sec
testCanCloseStatementTwice(org.apache.commons.dbcp2.managed.TestBasicManagedDataSource)  Time elapsed: 0.001 sec
testNoRsetClose(org.apache.commons.dbcp2.managed.TestBasicManagedDataSource)  Time elapsed: 0.001 sec
testOpening(org.apache.commons.dbcp2.managed.TestBasicManagedDataSource)  Time elapsed: 0.001 sec
testCanCloseConnectionTwice(org.apache.commons.dbcp2.managed.TestBasicManagedDataSource)  Time elapsed: 0.002 sec
testIsClosed(org.apache.commons.dbcp2.managed.TestBasicManagedDataSource)  Time elapsed: 0.001 sec
testCanCloseCallableStatementTwice(org.apache.commons.dbcp2.managed.TestBasicManagedDataSource)  Time elapsed: 0.001 sec
testAutoCommitBehavior(org.apache.commons.dbcp2.managed.TestBasicManagedDataSource)  Time elapsed: 0.001 sec
testHashing(org.apache.commons.dbcp2.managed.TestBasicManagedDataSource)  Time elapsed: 0.001 sec
testCanClosePreparedStatementTwice(org.apache.commons.dbcp2.managed.TestBasicManagedDataSource)  Time elapsed: 0 sec
testClosing(org.apache.commons.dbcp2.managed.TestBasicManagedDataSource)  Time elapsed: 0 sec
testPrepareStatementOptions(org.apache.commons.dbcp2.managed.TestBasicManagedDataSource)  Time elapsed: 0.001 sec
testBackPointers(org.apache.commons.dbcp2.managed.TestBasicManagedDataSource)  Time elapsed: 0.001 sec
testHashCode(org.apache.commons.dbcp2.managed.TestBasicManagedDataSource)  Time elapsed: 0 sec
testConnectionsAreDistinct(org.apache.commons.dbcp2.managed.TestBasicManagedDataSource)  Time elapsed: 0 sec
testMaxTotal(org.apache.commons.dbcp2.managed.TestBasicManagedDataSource)  Time elapsed: 0.101 sec
testRepeatedBorrowAndReturn(org.apache.commons.dbcp2.managed.TestBasicManagedDataSource)  Time elapsed: 0.002 sec
testCanCloseResultSetTwice(org.apache.commons.dbcp2.managed.TestBasicManagedDataSource)  Time elapsed: 0 sec
testClearWarnings(org.apache.commons.dbcp2.managed.TestBasicManagedDataSource)  Time elapsed: 0.001 sec
testSimple2(org.apache.commons.dbcp2.managed.TestBasicManagedDataSource)  Time elapsed: 0 sec
testSimple(org.apache.commons.dbcp2.managed.TestBasicManagedDataSource)  Time elapsed: 0.001 sec
Running org.apache.commons.dbcp2.managed.TestDataSourceXAConnectionFactory
Tests run: 55, Failures: 0, Errors: 0, Skipped: 0, Time elapsed: 5.509 sec - in org.apache.commons.dbcp2.managed.TestDataSourceXAConnectionFactory
testPhysicalClose(org.apache.commons.dbcp2.managed.TestDataSourceXAConnectionFactory)  Time elapsed: 0.01 sec
testEmptyValidationQuery(org.apache.commons.dbcp2.managed.TestDataSourceXAConnectionFactory)  Time elapsed: 0 sec
testValidationQueryTimoutFail(org.apache.commons.dbcp2.managed.TestDataSourceXAConnectionFactory)  Time elapsed: 0 sec
testSetValidationTestProperties(org.apache.commons.dbcp2.managed.TestDataSourceXAConnectionFactory)  Time elapsed: 0 sec
testRollbackReadOnly(org.apache.commons.dbcp2.managed.TestDataSourceXAConnectionFactory)  Time elapsed: 0.001 sec
testClose(org.apache.commons.dbcp2.managed.TestDataSourceXAConnectionFactory)  Time elapsed: 0 sec
testPropertyTestOnReturn(org.apache.commons.dbcp2.managed.TestDataSourceXAConnectionFactory)  Time elapsed: 0 sec
testValidationQueryTimeoutSucceed(org.apache.commons.dbcp2.managed.TestDataSourceXAConnectionFactory)  Time elapsed: 0.001 sec
testMaxTotalZero(org.apache.commons.dbcp2.managed.TestDataSourceXAConnectionFactory)  Time elapsed: 0.1 sec
testPooling(org.apache.commons.dbcp2.managed.TestDataSourceXAConnectionFactory)  Time elapsed: 0.001 sec
testMaxConnLifetimeExceeded(org.apache.commons.dbcp2.managed.TestDataSourceXAConnectionFactory)  Time elapsed: 0.502 sec
testValidationQueryTimeoutNegative(org.apache.commons.dbcp2.managed.TestDataSourceXAConnectionFactory)  Time elapsed: 0.001 sec
testPoolCloseRTE(org.apache.commons.dbcp2.managed.TestDataSourceXAConnectionFactory)  Time elapsed: 0.001 sec
testInvalidConnectionInitSql(org.apache.commons.dbcp2.managed.TestDataSourceXAConnectionFactory)  Time elapsed: 0 sec
testSetAutoCommitTrueOnClose(org.apache.commons.dbcp2.managed.TestDataSourceXAConnectionFactory)  Time elapsed: 0.001 sec
testConcurrentInitBorrow(org.apache.commons.dbcp2.managed.TestDataSourceXAConnectionFactory)  Time elapsed: 0.453 sec
testValidationQueryTimeoutZero(org.apache.commons.dbcp2.managed.TestDataSourceXAConnectionFactory)  Time elapsed: 0 sec
testMaxConnLifetimeExceededMutedLog(org.apache.commons.dbcp2.managed.TestDataSourceXAConnectionFactory)  Time elapsed: 0.501 sec
testEmptyInitConnectionSql(org.apache.commons.dbcp2.managed.TestDataSourceXAConnectionFactory)  Time elapsed: 0 sec
testDriverClassLoader(org.apache.commons.dbcp2.managed.TestDataSourceXAConnectionFactory)  Time elapsed: 0.001 sec
testJmxDisabled(org.apache.commons.dbcp2.managed.TestDataSourceXAConnectionFactory)  Time elapsed: 0.002 sec
testInitialSize(org.apache.commons.dbcp2.managed.TestDataSourceXAConnectionFactory)  Time elapsed: 0.001 sec
testInvalidValidationQuery(org.apache.commons.dbcp2.managed.TestDataSourceXAConnectionFactory)  Time elapsed: 0.001 sec
testNoAccessToUnderlyingConnectionAllowed(org.apache.commons.dbcp2.managed.TestDataSourceXAConnectionFactory)  Time elapsed: 0.001 sec
testPoolCloseCheckedException(org.apache.commons.dbcp2.managed.TestDataSourceXAConnectionFactory)  Time elapsed: 0.001 sec
testCreateDataSourceCleanupEvictor(org.apache.commons.dbcp2.managed.TestDataSourceXAConnectionFactory)  Time elapsed: 1.002 sec
testTransactionIsolationBehavior(org.apache.commons.dbcp2.managed.TestDataSourceXAConnectionFactory)  Time elapsed: 0.001 sec
testCreateDataSourceCleanupThreads(org.apache.commons.dbcp2.managed.TestDataSourceXAConnectionFactory)  Time elapsed: 0.001 sec
testDefaultCatalog(org.apache.commons.dbcp2.managed.TestDataSourceXAConnectionFactory)  Time elapsed: 0.002 sec
testAccessToUnderlyingConnectionAllowed(org.apache.commons.dbcp2.managed.TestDataSourceXAConnectionFactory)  Time elapsed: 0.001 sec
testInvalidateConnection(org.apache.commons.dbcp2.managed.TestDataSourceXAConnectionFactory)  Time elapsed: 0.001 sec
testSetProperties(org.apache.commons.dbcp2.managed.TestDataSourceXAConnectionFactory)  Time elapsed: 0 sec
testDisconnectSqlCodes(org.apache.commons.dbcp2.managed.TestDataSourceXAConnectionFactory)  Time elapsed: 0.001 sec
testIsClosedFailure(org.apache.commons.dbcp2.managed.TestDataSourceXAConnectionFactory)  Time elapsed: 0.001 sec
testThreaded(org.apache.commons.dbcp2.managed.TestDataSourceXAConnectionFactory)  Time elapsed: 2.804 sec
testCanCloseStatementTwice(org.apache.commons.dbcp2.managed.TestDataSourceXAConnectionFactory)  Time elapsed: 0.001 sec
testNoRsetClose(org.apache.commons.dbcp2.managed.TestDataSourceXAConnectionFactory)  Time elapsed: 0 sec
testOpening(org.apache.commons.dbcp2.managed.TestDataSourceXAConnectionFactory)  Time elapsed: 0.002 sec
testCanCloseConnectionTwice(org.apache.commons.dbcp2.managed.TestDataSourceXAConnectionFactory)  Time elapsed: 0 sec
testIsClosed(org.apache.commons.dbcp2.managed.TestDataSourceXAConnectionFactory)  Time elapsed: 0.001 sec
testCanCloseCallableStatementTwice(org.apache.commons.dbcp2.managed.TestDataSourceXAConnectionFactory)  Time elapsed: 0 sec
testAutoCommitBehavior(org.apache.commons.dbcp2.managed.TestDataSourceXAConnectionFactory)  Time elapsed: 0 sec
testHashing(org.apache.commons.dbcp2.managed.TestDataSourceXAConnectionFactory)  Time elapsed: 0.001 sec
testCanClosePreparedStatementTwice(org.apache.commons.dbcp2.managed.TestDataSourceXAConnectionFactory)  Time elapsed: 0 sec
testClosing(org.apache.commons.dbcp2.managed.TestDataSourceXAConnectionFactory)  Time elapsed: 0.001 sec
testPrepareStatementOptions(org.apache.commons.dbcp2.managed.TestDataSourceXAConnectionFactory)  Time elapsed: 0 sec
testBackPointers(org.apache.commons.dbcp2.managed.TestDataSourceXAConnectionFactory)  Time elapsed: 0.001 sec
testHashCode(org.apache.commons.dbcp2.managed.TestDataSourceXAConnectionFactory)  Time elapsed: 0 sec
testConnectionsAreDistinct(org.apache.commons.dbcp2.managed.TestDataSourceXAConnectionFactory)  Time elapsed: 0.001 sec
testMaxTotal(org.apache.commons.dbcp2.managed.TestDataSourceXAConnectionFactory)  Time elapsed: 0.101 sec
testRepeatedBorrowAndReturn(org.apache.commons.dbcp2.managed.TestDataSourceXAConnectionFactory)  Time elapsed: 0.002 sec
testCanCloseResultSetTwice(org.apache.commons.dbcp2.managed.TestDataSourceXAConnectionFactory)  Time elapsed: 0.001 sec
testClearWarnings(org.apache.commons.dbcp2.managed.TestDataSourceXAConnectionFactory)  Time elapsed: 0 sec
testSimple2(org.apache.commons.dbcp2.managed.TestDataSourceXAConnectionFactory)  Time elapsed: 0.001 sec
testSimple(org.apache.commons.dbcp2.managed.TestDataSourceXAConnectionFactory)  Time elapsed: 0 sec
Running org.apache.commons.dbcp2.TestPStmtPoolingBasicDataSource
Multithread test time = 10112 ms. Threads: 100. Loops: 9741. Hold time: 5. maxWaitMillis: -1. Done: 100. Did not run: 0. Failed: 0. expectError: false
Tests run: 60, Failures: 0, Errors: 0, Skipped: 0, Time elapsed: 15.754 sec - in org.apache.commons.dbcp2.TestPStmtPoolingBasicDataSource
testLRUBehavior(org.apache.commons.dbcp2.TestPStmtPoolingBasicDataSource)  Time elapsed: 0.204 sec
testPreparedStatementPooling(org.apache.commons.dbcp2.TestPStmtPoolingBasicDataSource)  Time elapsed: 0.002 sec
testPStmtPoolingAccrossClose(org.apache.commons.dbcp2.TestPStmtPoolingBasicDataSource)  Time elapsed: 0.002 sec
testPStmtPoolingWithNoClose(org.apache.commons.dbcp2.TestPStmtPoolingBasicDataSource)  Time elapsed: 0.001 sec
testPStmtCatalog(org.apache.commons.dbcp2.TestPStmtPoolingBasicDataSource)  Time elapsed: 0.002 sec
testMultipleThreads1(org.apache.commons.dbcp2.TestPStmtPoolingBasicDataSource)  Time elapsed: 10.114 sec
testEmptyValidationQuery(org.apache.commons.dbcp2.TestPStmtPoolingBasicDataSource)  Time elapsed: 0.001 sec
testValidationQueryTimoutFail(org.apache.commons.dbcp2.TestPStmtPoolingBasicDataSource)  Time elapsed: 0.001 sec
testSetValidationTestProperties(org.apache.commons.dbcp2.TestPStmtPoolingBasicDataSource)  Time elapsed: 0 sec
testRollbackReadOnly(org.apache.commons.dbcp2.TestPStmtPoolingBasicDataSource)  Time elapsed: 0.002 sec
testClose(org.apache.commons.dbcp2.TestPStmtPoolingBasicDataSource)  Time elapsed: 0 sec
testPropertyTestOnReturn(org.apache.commons.dbcp2.TestPStmtPoolingBasicDataSource)  Time elapsed: 0.001 sec
testValidationQueryTimeoutSucceed(org.apache.commons.dbcp2.TestPStmtPoolingBasicDataSource)  Time elapsed: 0.001 sec
testMaxTotalZero(org.apache.commons.dbcp2.TestPStmtPoolingBasicDataSource)  Time elapsed: 0.1 sec
testPooling(org.apache.commons.dbcp2.TestPStmtPoolingBasicDataSource)  Time elapsed: 0.003 sec
testMaxConnLifetimeExceeded(org.apache.commons.dbcp2.TestPStmtPoolingBasicDataSource)  Time elapsed: 0.503 sec
testValidationQueryTimeoutNegative(org.apache.commons.dbcp2.TestPStmtPoolingBasicDataSource)  Time elapsed: 0.001 sec
testPoolCloseRTE(org.apache.commons.dbcp2.TestPStmtPoolingBasicDataSource)  Time elapsed: 0.002 sec
testInvalidConnectionInitSql(org.apache.commons.dbcp2.TestPStmtPoolingBasicDataSource)  Time elapsed: 0 sec
testSetAutoCommitTrueOnClose(org.apache.commons.dbcp2.TestPStmtPoolingBasicDataSource)  Time elapsed: 0.002 sec
testConcurrentInitBorrow(org.apache.commons.dbcp2.TestPStmtPoolingBasicDataSource)  Time elapsed: 0.455 sec
testValidationQueryTimeoutZero(org.apache.commons.dbcp2.TestPStmtPoolingBasicDataSource)  Time elapsed: 0.001 sec
testMaxConnLifetimeExceededMutedLog(org.apache.commons.dbcp2.TestPStmtPoolingBasicDataSource)  Time elapsed: 0.501 sec
testEmptyInitConnectionSql(org.apache.commons.dbcp2.TestPStmtPoolingBasicDataSource)  Time elapsed: 0 sec
testDriverClassLoader(org.apache.commons.dbcp2.TestPStmtPoolingBasicDataSource)  Time elapsed: 0.002 sec
testJmxDisabled(org.apache.commons.dbcp2.TestPStmtPoolingBasicDataSource)  Time elapsed: 0.001 sec
testInitialSize(org.apache.commons.dbcp2.TestPStmtPoolingBasicDataSource)  Time elapsed: 0.004 sec
testInvalidValidationQuery(org.apache.commons.dbcp2.TestPStmtPoolingBasicDataSource)  Time elapsed: 0 sec
testNoAccessToUnderlyingConnectionAllowed(org.apache.commons.dbcp2.TestPStmtPoolingBasicDataSource)  Time elapsed: 0.001 sec
testPoolCloseCheckedException(org.apache.commons.dbcp2.TestPStmtPoolingBasicDataSource)  Time elapsed: 0.001 sec
testCreateDataSourceCleanupEvictor(org.apache.commons.dbcp2.TestPStmtPoolingBasicDataSource)  Time elapsed: 1 sec
testTransactionIsolationBehavior(org.apache.commons.dbcp2.TestPStmtPoolingBasicDataSource)  Time elapsed: 0.002 sec
testCreateDataSourceCleanupThreads(org.apache.commons.dbcp2.TestPStmtPoolingBasicDataSource)  Time elapsed: 0.001 sec
testDefaultCatalog(org.apache.commons.dbcp2.TestPStmtPoolingBasicDataSource)  Time elapsed: 0.005 sec
testAccessToUnderlyingConnectionAllowed(org.apache.commons.dbcp2.TestPStmtPoolingBasicDataSource)  Time elapsed: 0.001 sec
testInvalidateConnection(org.apache.commons.dbcp2.TestPStmtPoolingBasicDataSource)  Time elapsed: 0.001 sec
testSetProperties(org.apache.commons.dbcp2.TestPStmtPoolingBasicDataSource)  Time elapsed: 0 sec
testDisconnectSqlCodes(org.apache.commons.dbcp2.TestPStmtPoolingBasicDataSource)  Time elapsed: 0 sec
testIsClosedFailure(org.apache.commons.dbcp2.TestPStmtPoolingBasicDataSource)  Time elapsed: 0.001 sec
testThreaded(org.apache.commons.dbcp2.TestPStmtPoolingBasicDataSource)  Time elapsed: 2.704 sec
testCanCloseStatementTwice(org.apache.commons.dbcp2.TestPStmtPoolingBasicDataSource)  Time elapsed: 0.002 sec
testNoRsetClose(org.apache.commons.dbcp2.TestPStmtPoolingBasicDataSource)  Time elapsed: 0.001 sec
testOpening(org.apache.commons.dbcp2.TestPStmtPoolingBasicDataSource)  Time elapsed: 0.004 sec
testCanCloseConnectionTwice(org.apache.commons.dbcp2.TestPStmtPoolingBasicDataSource)  Time elapsed: 0 sec
testIsClosed(org.apache.commons.dbcp2.TestPStmtPoolingBasicDataSource)  Time elapsed: 0.001 sec
testCanCloseCallableStatementTwice(org.apache.commons.dbcp2.TestPStmtPoolingBasicDataSource)  Time elapsed: 0.001 sec
testAutoCommitBehavior(org.apache.commons.dbcp2.TestPStmtPoolingBasicDataSource)  Time elapsed: 0 sec
testHashing(org.apache.commons.dbcp2.TestPStmtPoolingBasicDataSource)  Time elapsed: 0.001 sec
testCanClosePreparedStatementTwice(org.apache.commons.dbcp2.TestPStmtPoolingBasicDataSource)  Time elapsed: 0 sec
testClosing(org.apache.commons.dbcp2.TestPStmtPoolingBasicDataSource)  Time elapsed: 0.002 sec
testPrepareStatementOptions(org.apache.commons.dbcp2.TestPStmtPoolingBasicDataSource)  Time elapsed: 0.001 sec
testBackPointers(org.apache.commons.dbcp2.TestPStmtPoolingBasicDataSource)  Time elapsed: 0.001 sec
testHashCode(org.apache.commons.dbcp2.TestPStmtPoolingBasicDataSource)  Time elapsed: 0.001 sec
testConnectionsAreDistinct(org.apache.commons.dbcp2.TestPStmtPoolingBasicDataSource)  Time elapsed: 0.002 sec
testMaxTotal(org.apache.commons.dbcp2.TestPStmtPoolingBasicDataSource)  Time elapsed: 0.101 sec
testRepeatedBorrowAndReturn(org.apache.commons.dbcp2.TestPStmtPoolingBasicDataSource)  Time elapsed: 0.003 sec
testCanCloseResultSetTwice(org.apache.commons.dbcp2.TestPStmtPoolingBasicDataSource)  Time elapsed: 0 sec
testClearWarnings(org.apache.commons.dbcp2.TestPStmtPoolingBasicDataSource)  Time elapsed: 0.004 sec
testSimple2(org.apache.commons.dbcp2.TestPStmtPoolingBasicDataSource)  Time elapsed: 0.002 sec
testSimple(org.apache.commons.dbcp2.TestPStmtPoolingBasicDataSource)  Time elapsed: 0 sec
Running org.apache.commons.dbcp2.datasources.TestKeyedCPDSConnectionFactory
Tests run: 3, Failures: 0, Errors: 0, Skipped: 0, Time elapsed: 0.003 sec - in org.apache.commons.dbcp2.datasources.TestKeyedCPDSConnectionFactory
testNullValidationQuery(org.apache.commons.dbcp2.datasources.TestKeyedCPDSConnectionFactory)  Time elapsed: 0.001 sec
testConnectionErrorCleanup(org.apache.commons.dbcp2.datasources.TestKeyedCPDSConnectionFactory)  Time elapsed: 0 sec
testSharedPoolDSDestroyOnReturn(org.apache.commons.dbcp2.datasources.TestKeyedCPDSConnectionFactory)  Time elapsed: 0.001 sec
Running org.apache.commons.dbcp2.datasources.TestFactory
Tests run: 1, Failures: 0, Errors: 0, Skipped: 0, Time elapsed: 0 sec - in org.apache.commons.dbcp2.datasources.TestFactory
testJNDI2Pools(org.apache.commons.dbcp2.datasources.TestFactory)  Time elapsed: 0 sec
Running org.apache.commons.dbcp2.datasources.TestInstanceKeyDataSource
Tests run: 1, Failures: 0, Errors: 0, Skipped: 0, Time elapsed: 0.001 sec - in org.apache.commons.dbcp2.datasources.TestInstanceKeyDataSource
testExceptionOnSetupDefaults(org.apache.commons.dbcp2.datasources.TestInstanceKeyDataSource)  Time elapsed: 0.001 sec
Running org.apache.commons.dbcp2.datasources.TestCPDSConnectionFactory
Tests run: 3, Failures: 0, Errors: 0, Skipped: 0, Time elapsed: 0.003 sec - in org.apache.commons.dbcp2.datasources.TestCPDSConnectionFactory
testNullValidationQuery(org.apache.commons.dbcp2.datasources.TestCPDSConnectionFactory)  Time elapsed: 0.001 sec
testConnectionErrorCleanup(org.apache.commons.dbcp2.datasources.TestCPDSConnectionFactory)  Time elapsed: 0 sec
testSharedPoolDSDestroyOnReturn(org.apache.commons.dbcp2.datasources.TestCPDSConnectionFactory)  Time elapsed: 0.001 sec
Running org.apache.commons.dbcp2.datasources.TestSharedPoolDataSource
testMaxWaitMillis took 1002 ms. maxWaitMillis: 1000
Multithread test time = 309 ms. Threads: 20. Loops: 2662. Hold time: 1. maxWaitMillis: 430. Done: 20. Did not run: 0. Failed: 0. expectError: false
Multithread test time = 1004 ms. Threads: 20. Loops: 20. Hold time: 1000. maxWaitMillis: 500. Done: 10. Did not run: 0. Failed: 10. expectError: true
Tests run: 34, Failures: 0, Errors: 0, Skipped: 0, Time elapsed: 6.665 sec - in org.apache.commons.dbcp2.datasources.TestSharedPoolDataSource
testPoolPreparedStatements(org.apache.commons.dbcp2.datasources.TestSharedPoolDataSource)  Time elapsed: 0.006 sec
testOpening(org.apache.commons.dbcp2.datasources.TestSharedPoolDataSource)  Time elapsed: 0 sec
testClosingWithUserName(org.apache.commons.dbcp2.datasources.TestSharedPoolDataSource)  Time elapsed: 0.001 sec
testChangePassword(org.apache.commons.dbcp2.datasources.TestSharedPoolDataSource)  Time elapsed: 0.001 sec
testPoolPrepareStatement(org.apache.commons.dbcp2.datasources.TestSharedPoolDataSource)  Time elapsed: 0 sec
testMaxWaitMillis(org.apache.commons.dbcp2.datasources.TestSharedPoolDataSource)  Time elapsed: 1.003 sec
testClosePool(org.apache.commons.dbcp2.datasources.TestSharedPoolDataSource)  Time elapsed: 0.001 sec
testClosing(org.apache.commons.dbcp2.datasources.TestSharedPoolDataSource)  Time elapsed: 0 sec
testTransactionIsolationBehavior(org.apache.commons.dbcp2.datasources.TestSharedPoolDataSource)  Time elapsed: 0.001 sec
testDbcp369(org.apache.commons.dbcp2.datasources.TestSharedPoolDataSource)  Time elapsed: 1.489 sec
testMaxTotal(org.apache.commons.dbcp2.datasources.TestSharedPoolDataSource)  Time elapsed: 0.103 sec
testSimpleWithUsername(org.apache.commons.dbcp2.datasources.TestSharedPoolDataSource)  Time elapsed: 0.002 sec
testSimple2(org.apache.commons.dbcp2.datasources.TestSharedPoolDataSource)  Time elapsed: 0.002 sec
testSimple(org.apache.commons.dbcp2.datasources.TestSharedPoolDataSource)  Time elapsed: 0.002 sec
testMultipleThreads1(org.apache.commons.dbcp2.datasources.TestSharedPoolDataSource)  Time elapsed: 0.31 sec
testMultipleThreads2(org.apache.commons.dbcp2.datasources.TestSharedPoolDataSource)  Time elapsed: 1.008 sec
testIncorrectPassword(org.apache.commons.dbcp2.datasources.TestSharedPoolDataSource)  Time elapsed: 0.005 sec
testThreaded(org.apache.commons.dbcp2.datasources.TestSharedPoolDataSource)  Time elapsed: 2.705 sec
testCanCloseStatementTwice(org.apache.commons.dbcp2.datasources.TestSharedPoolDataSource)  Time elapsed: 0.004 sec
testNoRsetClose(org.apache.commons.dbcp2.datasources.TestSharedPoolDataSource)  Time elapsed: 0.002 sec
testPooling(org.apache.commons.dbcp2.datasources.TestSharedPoolDataSource)  Time elapsed: 0.003 sec
testCanCloseConnectionTwice(org.apache.commons.dbcp2.datasources.TestSharedPoolDataSource)  Time elapsed: 0.001 sec
testIsClosed(org.apache.commons.dbcp2.datasources.TestSharedPoolDataSource)  Time elapsed: 0.001 sec
testCanCloseCallableStatementTwice(org.apache.commons.dbcp2.datasources.TestSharedPoolDataSource)  Time elapsed: 0.001 sec
testAutoCommitBehavior(org.apache.commons.dbcp2.datasources.TestSharedPoolDataSource)  Time elapsed: 0.001 sec
testHashing(org.apache.commons.dbcp2.datasources.TestSharedPoolDataSource)  Time elapsed: 0.001 sec
testCanClosePreparedStatementTwice(org.apache.commons.dbcp2.datasources.TestSharedPoolDataSource)  Time elapsed: 0 sec
testPrepareStatementOptions(org.apache.commons.dbcp2.datasources.TestSharedPoolDataSource)  Time elapsed: 0 sec
testBackPointers(org.apache.commons.dbcp2.datasources.TestSharedPoolDataSource)  Time elapsed: 0.002 sec
testHashCode(org.apache.commons.dbcp2.datasources.TestSharedPoolDataSource)  Time elapsed: 0.001 sec
testConnectionsAreDistinct(org.apache.commons.dbcp2.datasources.TestSharedPoolDataSource)  Time elapsed: 0.001 sec
testRepeatedBorrowAndReturn(org.apache.commons.dbcp2.datasources.TestSharedPoolDataSource)  Time elapsed: 0.001 sec
testCanCloseResultSetTwice(org.apache.commons.dbcp2.datasources.TestSharedPoolDataSource)  Time elapsed: 0.001 sec
testClearWarnings(org.apache.commons.dbcp2.datasources.TestSharedPoolDataSource)  Time elapsed: 0.002 sec
Running org.apache.commons.dbcp2.datasources.TestPerUserPoolDataSource
Multithread test time = 304 ms. Threads: 20. Loops: 2722. Hold time: 1. maxWaitMillis: 430. Done: 20. Did not run: 0. Failed: 0. expectError: false
Multithread test time = 1002 ms. Threads: 20. Loops: 20. Hold time: 1000. maxWaitMillis: 500. Done: 10. Did not run: 0. Failed: 10. expectError: true
Tests run: 35, Failures: 0, Errors: 0, Skipped: 0, Time elapsed: 4.417 sec - in org.apache.commons.dbcp2.datasources.TestPerUserPoolDataSource
testPerUserMethods(org.apache.commons.dbcp2.datasources.TestPerUserPoolDataSource)  Time elapsed: 0.002 sec
testOpening(org.apache.commons.dbcp2.datasources.TestPerUserPoolDataSource)  Time elapsed: 0.001 sec
testSerialization(org.apache.commons.dbcp2.datasources.TestPerUserPoolDataSource)  Time elapsed: 0.049 sec
testClosingWithUserName(org.apache.commons.dbcp2.datasources.TestPerUserPoolDataSource)  Time elapsed: 0.002 sec
testChangePassword(org.apache.commons.dbcp2.datasources.TestPerUserPoolDataSource)  Time elapsed: 0.001 sec
testDefaultUser1(org.apache.commons.dbcp2.datasources.TestPerUserPoolDataSource)  Time elapsed: 0.002 sec
testDefaultUser2(org.apache.commons.dbcp2.datasources.TestPerUserPoolDataSource)  Time elapsed: 0.001 sec
testClosing(org.apache.commons.dbcp2.datasources.TestPerUserPoolDataSource)  Time elapsed: 0.001 sec
testTransactionIsolationBehavior(org.apache.commons.dbcp2.datasources.TestPerUserPoolDataSource)  Time elapsed: 0.001 sec
testMaxTotal(org.apache.commons.dbcp2.datasources.TestPerUserPoolDataSource)  Time elapsed: 0.101 sec
testSimpleWithUsername(org.apache.commons.dbcp2.datasources.TestPerUserPoolDataSource)  Time elapsed: 0.001 sec
testMaxWaitMillisZero(org.apache.commons.dbcp2.datasources.TestPerUserPoolDataSource)  Time elapsed: 0.003 sec
testSimple2(org.apache.commons.dbcp2.datasources.TestPerUserPoolDataSource)  Time elapsed: 0.001 sec
testSimple(org.apache.commons.dbcp2.datasources.TestPerUserPoolDataSource)  Time elapsed: 0.001 sec
testMultipleThreads1(org.apache.commons.dbcp2.datasources.TestPerUserPoolDataSource)  Time elapsed: 0.304 sec
testMultipleThreads2(org.apache.commons.dbcp2.datasources.TestPerUserPoolDataSource)  Time elapsed: 1.006 sec
testUnregisteredUser(org.apache.commons.dbcp2.datasources.TestPerUserPoolDataSource)  Time elapsed: 0.005 sec
testIncorrectPassword(org.apache.commons.dbcp2.datasources.TestPerUserPoolDataSource)  Time elapsed: 0.002 sec
testThreaded(org.apache.commons.dbcp2.datasources.TestPerUserPoolDataSource)  Time elapsed: 2.904 sec
testCanCloseStatementTwice(org.apache.commons.dbcp2.datasources.TestPerUserPoolDataSource)  Time elapsed: 0.004 sec
testNoRsetClose(org.apache.commons.dbcp2.datasources.TestPerUserPoolDataSource)  Time elapsed: 0.002 sec
testPooling(org.apache.commons.dbcp2.datasources.TestPerUserPoolDataSource)  Time elapsed: 0.004 sec
testCanCloseConnectionTwice(org.apache.commons.dbcp2.datasources.TestPerUserPoolDataSource)  Time elapsed: 0.001 sec
testIsClosed(org.apache.commons.dbcp2.datasources.TestPerUserPoolDataSource)  Time elapsed: 0.001 sec
testCanCloseCallableStatementTwice(org.apache.commons.dbcp2.datasources.TestPerUserPoolDataSource)  Time elapsed: 0.001 sec
testAutoCommitBehavior(org.apache.commons.dbcp2.datasources.TestPerUserPoolDataSource)  Time elapsed: 0.001 sec
testHashing(org.apache.commons.dbcp2.datasources.TestPerUserPoolDataSource)  Time elapsed: 0.001 sec
testCanClosePreparedStatementTwice(org.apache.commons.dbcp2.datasources.TestPerUserPoolDataSource)  Time elapsed: 0.001 sec
testPrepareStatementOptions(org.apache.commons.dbcp2.datasources.TestPerUserPoolDataSource)  Time elapsed: 0.001 sec
testBackPointers(org.apache.commons.dbcp2.datasources.TestPerUserPoolDataSource)  Time elapsed: 0.001 sec
testHashCode(org.apache.commons.dbcp2.datasources.TestPerUserPoolDataSource)  Time elapsed: 0.002 sec
testConnectionsAreDistinct(org.apache.commons.dbcp2.datasources.TestPerUserPoolDataSource)  Time elapsed: 0.001 sec
testRepeatedBorrowAndReturn(org.apache.commons.dbcp2.datasources.TestPerUserPoolDataSource)  Time elapsed: 0.002 sec
testCanCloseResultSetTwice(org.apache.commons.dbcp2.datasources.TestPerUserPoolDataSource)  Time elapsed: 0.001 sec
testClearWarnings(org.apache.commons.dbcp2.datasources.TestPerUserPoolDataSource)  Time elapsed: 0.001 sec
Running org.apache.commons.dbcp2.TestPoolingDataSource
Tests run: 30, Failures: 0, Errors: 0, Skipped: 0, Time elapsed: 2.946 sec - in org.apache.commons.dbcp2.TestPoolingDataSource
testClose(org.apache.commons.dbcp2.TestPoolingDataSource)  Time elapsed: 0.002 sec
testFixFactoryConfig(org.apache.commons.dbcp2.TestPoolingDataSource)  Time elapsed: 0.001 sec
testPoolGuardConnectionWrapperEqualsSameDelegate(org.apache.commons.dbcp2.TestPoolingDataSource)  Time elapsed: 0.001 sec
testPoolGuardConnectionWrapperEqualInnermost(org.apache.commons.dbcp2.TestPoolingDataSource)  Time elapsed: 0.001 sec
testPoolGuardConnectionWrapperEqualsReflexive(org.apache.commons.dbcp2.TestPoolingDataSource)  Time elapsed: 0.001 sec
testPoolGuardConnectionWrapperEqualsFail(org.apache.commons.dbcp2.TestPoolingDataSource)  Time elapsed: 0.001 sec
testPoolGuardConnectionWrapperEqualsNull(org.apache.commons.dbcp2.TestPoolingDataSource)  Time elapsed: 0 sec
testPoolGuardConnectionWrapperEqualsType(org.apache.commons.dbcp2.TestPoolingDataSource)  Time elapsed: 0.001 sec
testThreaded(org.apache.commons.dbcp2.TestPoolingDataSource)  Time elapsed: 2.805 sec
testCanCloseStatementTwice(org.apache.commons.dbcp2.TestPoolingDataSource)  Time elapsed: 0.002 sec
testNoRsetClose(org.apache.commons.dbcp2.TestPoolingDataSource)  Time elapsed: 0.003 sec
testOpening(org.apache.commons.dbcp2.TestPoolingDataSource)  Time elapsed: 0.002 sec
testPooling(org.apache.commons.dbcp2.TestPoolingDataSource)  Time elapsed: 0.003 sec
testCanCloseConnectionTwice(org.apache.commons.dbcp2.TestPoolingDataSource)  Time elapsed: 0.002 sec
testIsClosed(org.apache.commons.dbcp2.TestPoolingDataSource)  Time elapsed: 0.003 sec
testCanCloseCallableStatementTwice(org.apache.commons.dbcp2.TestPoolingDataSource)  Time elapsed: 0.001 sec
testAutoCommitBehavior(org.apache.commons.dbcp2.TestPoolingDataSource)  Time elapsed: 0.001 sec
testHashing(org.apache.commons.dbcp2.TestPoolingDataSource)  Time elapsed: 0.001 sec
testCanClosePreparedStatementTwice(org.apache.commons.dbcp2.TestPoolingDataSource)  Time elapsed: 0 sec
testClosing(org.apache.commons.dbcp2.TestPoolingDataSource)  Time elapsed: 0.001 sec
testPrepareStatementOptions(org.apache.commons.dbcp2.TestPoolingDataSource)  Time elapsed: 0.001 sec
testBackPointers(org.apache.commons.dbcp2.TestPoolingDataSource)  Time elapsed: 0.001 sec
testHashCode(org.apache.commons.dbcp2.TestPoolingDataSource)  Time elapsed: 0.001 sec
testConnectionsAreDistinct(org.apache.commons.dbcp2.TestPoolingDataSource)  Time elapsed: 0.001 sec
testMaxTotal(org.apache.commons.dbcp2.TestPoolingDataSource)  Time elapsed: 0.101 sec
testRepeatedBorrowAndReturn(org.apache.commons.dbcp2.TestPoolingDataSource)  Time elapsed: 0.001 sec
testCanCloseResultSetTwice(org.apache.commons.dbcp2.TestPoolingDataSource)  Time elapsed: 0.001 sec
testClearWarnings(org.apache.commons.dbcp2.TestPoolingDataSource)  Time elapsed: 0.002 sec
testSimple2(org.apache.commons.dbcp2.TestPoolingDataSource)  Time elapsed: 0.002 sec
testSimple(org.apache.commons.dbcp2.TestPoolingDataSource)  Time elapsed: 0.002 sec
Running org.apache.commons.dbcp2.TestDelegatingConnection
Tests run: 4, Failures: 0, Errors: 0, Skipped: 0, Time elapsed: 0.001 sec - in org.apache.commons.dbcp2.TestDelegatingConnection
testGetDelegate(org.apache.commons.dbcp2.TestDelegatingConnection)  Time elapsed: 0 sec
testCheckOpenNull(org.apache.commons.dbcp2.TestDelegatingConnection)  Time elapsed: 0.001 sec
testCheckOpen(org.apache.commons.dbcp2.TestDelegatingConnection)  Time elapsed: 0 sec
testConnectionToString(org.apache.commons.dbcp2.TestDelegatingConnection)  Time elapsed: 0 sec
Running org.apache.commons.dbcp2.TestPoolableConnection
Tests run: 5, Failures: 0, Errors: 0, Skipped: 0, Time elapsed: 0.004 sec - in org.apache.commons.dbcp2.TestPoolableConnection
testPoolableConnectionLeak(org.apache.commons.dbcp2.TestPoolableConnection)  Time elapsed: 0.001 sec
testFastFailValidationCustomCodes(org.apache.commons.dbcp2.TestPoolableConnection)  Time elapsed: 0.001 sec
testConnectionPool(org.apache.commons.dbcp2.TestPoolableConnection)  Time elapsed: 0 sec
testClosingWrappedInDelegate(org.apache.commons.dbcp2.TestPoolableConnection)  Time elapsed: 0.001 sec
testFastFailValidation(org.apache.commons.dbcp2.TestPoolableConnection)  Time elapsed: 0.001 sec

Results :

Tests run: 536, Failures: 0, Errors: 0, Skipped: 0

[INFO] ------------------------------------------------------------------------
[INFO] BUILD SUCCESS
[INFO] ------------------------------------------------------------------------
[INFO] Total time: 01:18 min
[INFO] Finished at: 2017-01-02T04:46:03-06:00
[INFO] Final Memory: 34M/1474M
[INFO] ------------------------------------------------------------------------
